%!PS-Adobe-3.0 EPSF-3.0
%%Title: EAGLE Drawing C:/_MJG_/eagle/PWM-cab/PWM-cab.brd
%%Creator: EAGLE
%%Pages: 1
%%BoundingBox: 0 0 576 810
%%EndComments

% Coordinate transfer:

/EU { 254 div 0.072 mul } def
/inch { 72 mul } def

% Linestyle:

1 setlinecap
1 setlinejoin

% Drawing functions:

/l {  % draw a line
   /lw exch def
   /y2 exch def
   /x2 exch def
   /y1 exch def
   /x1 exch def
   newpath
   x1 EU y1 EU moveto
   x2 EU y2 EU lineto
   lw EU setlinewidth
   stroke
   } def

/h {  % draw a hole
   /d  exch def
   /y  exch def
   /x  exch def
   d 0 gt {
     newpath
     x EU y EU d 2 div EU 0 360 arc
     currentgray dup
     1 exch sub setgray
     fill
     setgray
     } if
   } def

/b {  % draw a bar
   /an exch def
   /y2 exch def
   /x2 exch def
   /y1 exch def
   /x1 exch def
   /w2 x2 x1 sub 2 div EU def
   /h2 y2 y1 sub 2 div EU def
   gsave
   x1 x2 add 2 div EU y1 y2 add 2 div EU translate
   an rotate
   newpath
   w2     h2     moveto
   w2 neg h2     lineto
   w2 neg h2 neg lineto
   w2     h2 neg lineto
   closepath
   fill
   grestore
   } def

/c {  % draw a circle
   /lw exch def
   /rd exch def
   /y  exch def
   /x  exch def
   newpath
   lw EU setlinewidth
   x EU y EU rd EU 0 360 arc
   stroke
   } def

/a {  % draw an arc
   /lc exch def
   /ae exch def
   /as exch def
   /lw exch def
   /rd exch def
   /y  exch def
   /x  exch def
   lw rd 2 mul gt {
     /rd rd lw 2 div add 2 div def
     /lw rd 2 mul def
     } if
   currentlinecap currentlinejoin
   lc setlinecap 0 setlinejoin
   newpath
   lw EU setlinewidth
   x EU y EU rd EU as ae arc
   stroke
   setlinejoin setlinecap
   } def

/p {  % draw a pie
   /d exch def
   /y exch def
   /x exch def
   newpath
   x EU y EU d 2 div EU 0 360 arc
   fill
   } def

/edge { 0.20710678119 mul } def

/o {  % draw an octagon
   /an exch def
   /dy exch def
   /dx exch def
   /y  exch def
   /x  exch def
   gsave
   x EU y EU translate
   an dx dy lt { 90 add /dx dy /dy dx def def } if rotate
   newpath
      0 dx 2 div sub EU                    0 dy edge  add EU moveto
      0 dx dy sub 2 div sub dy edge sub EU 0 dy 2 div add EU lineto
      0 dx dy sub 2 div add dy edge add EU 0 dy 2 div add EU lineto
      0 dx 2 div add EU                    0 dy edge  add EU lineto
      0 dx 2 div add EU                    0 dy edge  sub EU lineto
      0 dx dy sub 2 div add dy edge add EU 0 dy 2 div sub EU lineto
      0 dx dy sub 2 div sub dy edge sub EU 0 dy 2 div sub EU lineto
      0 dx 2 div sub EU                    0 dy edge  sub EU lineto
   closepath
   fill
   grestore
   } def

% the real drawing size:

/MinDrawX      0 EU def
/MinDrawY      0 EU def
/MaxDrawX 783360 EU def
/MaxDrawY 384512 EU def

% the usable page size:

/LeftMargin 0.25 inch def  % change these if drawing gets clipped!
/BotMargin  0.25 inch def
/PageWidth   7.7500 inch def
/PageHeight 11.0000 inch def

% are we going to rotate?:

/RotateDrawing 0 0 ne def

% Media size functions:

/AbortMessage {  % Show a message in a box and stop printing
   /h 100 def
   /Courier findfont 12 scalefont setfont
   mediawidth pagemargin sub h 1 setpage
   newpath
   0 0 moveto
   0 h rlineto
   mediawidth pagemargin sub 0 rlineto
   0 h neg rlineto
   closepath
   5 setlinewidth
   stroke
   newpath 50 60 moveto (ERROR: Jobsize exceeds physical printing area!) show
   newpath 50 40 moveto (       Job has been aborted!) show
   showpage
   stop
   } def

/SelectPage {  % Select the page identified by Row and Column
   /Column exch def
   /Row    exch def

   % the actually exposed area (if the machine knows these parameters!):

   /DrawX MaxDrawX MinDrawX sub def
   /DrawY MaxDrawY MinDrawY sub def
   statusdict /setpage known
   statusdict /mediawidth known and
   statusdict /medialength known and
   statusdict /pagemargin known and {
      % this is for machines that can tell the media size:
      statusdict begin
         /MediaW mediawidth pagemargin sub def
         DrawX DrawY ge {
            DrawX MediaW le DrawY medialength le and {
               MediaW DrawY 1 setpage
               MediaW DrawX sub 2 div 0 translate
               }{
            DrawY MediaW le DrawX medialength le and {
               MediaW DrawX 0 setpage
               0 MediaW DrawY sub 2 div translate
               }{
               AbortMessage
               } ifelse
               } ifelse
            }{
            DrawY MediaW le DrawX medialength le and {
               MediaW DrawX 0 setpage
               0 MediaW DrawY sub 2 div translate
               }{
            DrawX MediaW le DrawY medialength le and {
               MediaW DrawY 1 setpage
               MediaW DrawX sub 2 div 0 translate
               }{
               AbortMessage
               } ifelse
               } ifelse
            } ifelse
         end
      }{
      % this is for machines that can NOT tell the media size:
      % (Ghostscript doesn't like this!)
      /Product product length string def
      /i 0 def
      product { dup 97 lt { 32 add } if Product exch i exch put /i i 1 add def } forall 
      Product (ghostscript) search dup /IsGhostscript exch def
      { pop pop } if
      pop
      IsGhostscript not {
         statusdict /setpage known {
            statusdict begin
               RotateDrawing {
                  LeftMargin PageHeight add BotMargin DrawY add
                  }{
                  BotMargin DrawY add LeftMargin DrawX add 
                  } ifelse
               0 setpage
               end
            } if
         } if
      % set clipping boundary:
      newpath
      LeftMargin BotMargin moveto
      0 PageHeight rlineto
      PageWidth  0 rlineto
      0 PageHeight neg rlineto
      closepath
      clip
      % set the origin:
      LeftMargin BotMargin translate
      RotateDrawing {
         0 PageHeight translate
         -90 rotate
         PageHeight Column mul neg PageWidth Row mul neg translate
         }{
         PageWidth Column mul neg PageHeight Row mul neg translate
         } ifelse
      } ifelse
   % move the lower left corner of the drawing to the origin:
   MinDrawX neg MinDrawY neg translate
   
   % Linestyle:
   
   1 setlinecap
   1 setlinejoin
   
   } def

% TheDrawing

gsave 0 0 SelectPage
11008 20992 776058 20992 0 l
776058 20992 776058 338392 0 l
776058 338392 11008 338392 0 l
11008 338392 11008 20992 0 l
33613 212508 35392 214287 2032 l
35392 214287 35392 216067 2032 l
35392 216067 33613 217846 2032 l
33613 217846 24715 217846 2032 l
24715 216067 24715 219626 2032 l
28274 224201 24715 227760 2032 l
24715 227760 35392 227760 2032 l
35392 224201 35392 231319 2032 l
394795 206926 393015 205146 2032 l
393015 205146 393015 201587 2032 l
393015 201587 394795 199808 2032 l
394795 199808 401913 199808 2032 l
401913 199808 403692 201587 2032 l
403692 201587 403692 205146 2032 l
403692 205146 401913 206926 2032 l
396574 211501 393015 215060 2032 l
393015 215060 403692 215060 2032 l
403692 211501 403692 218619 2032 l
546192 323005 544412 324785 2032 l
544412 324785 540853 324785 2032 l
540853 324785 539074 323005 2032 l
539074 323005 539074 315887 2032 l
539074 315887 540853 314108 2032 l
540853 314108 544412 314108 2032 l
544412 314108 546192 315887 2032 l
557885 314108 550767 314108 2032 l
550767 314108 557885 321226 2032 l
557885 321226 557885 323005 2032 l
557885 323005 556105 324785 2032 l
556105 324785 552546 324785 2032 l
552546 324785 550767 323005 2032 l
596224 322237 598003 320458 2032 l
598003 320458 599783 320458 2032 l
599783 320458 601562 322237 2032 l
601562 322237 601562 331135 2032 l
599783 331135 603342 331135 2032 l
615035 320458 607917 320458 2032 l
607917 320458 615035 327576 2032 l
615035 327576 615035 329355 2032 l
615035 329355 613255 331135 2032 l
613255 331135 609696 331135 2032 l
609696 331135 607917 329355 2032 l
558124 248585 558124 237908 2032 l
558124 237908 563462 237908 2032 l
563462 237908 565242 239687 2032 l
565242 239687 565242 246805 2032 l
565242 246805 563462 248585 2032 l
563462 248585 558124 248585 2032 l
569817 245026 573376 248585 2032 l
573376 248585 573376 237908 2032 l
569817 237908 576935 237908 2032 l
647024 112687 647024 119805 2032 l
647024 119805 648803 121585 2032 l
648803 121585 652362 121585 2032 l
652362 121585 654142 119805 2032 l
654142 119805 654142 112687 2032 l
654142 112687 652362 110908 2032 l
652362 110908 648803 110908 2032 l
648803 110908 647024 112687 2032 l
650583 114467 654142 110908 2032 l
658717 118026 662276 121585 2032 l
662276 121585 662276 110908 2032 l
658717 110908 665835 110908 2032 l
635092 75355 633312 77135 2032 l
633312 77135 629753 77135 2032 l
629753 77135 627974 75355 2032 l
627974 75355 627974 68237 2032 l
627974 68237 629753 66458 2032 l
629753 66458 633312 66458 2032 l
633312 66458 635092 68237 2032 l
645005 66458 645005 77135 2032 l
645005 77135 639667 71796 2032 l
639667 71796 646785 71796 2032 l
476342 62655 474562 64435 2032 l
474562 64435 471003 64435 2032 l
471003 64435 469224 62655 2032 l
469224 62655 469224 55537 2032 l
469224 55537 471003 53758 2032 l
471003 53758 474562 53758 2032 l
474562 53758 476342 55537 2032 l
480917 62655 482696 64435 2032 l
482696 64435 486255 64435 2032 l
486255 64435 488035 62655 2032 l
488035 62655 488035 60876 2032 l
488035 60876 486255 59096 2032 l
486255 59096 484476 59096 2032 l
486255 59096 488035 57317 2032 l
488035 57317 488035 55537 2032 l
488035 55537 486255 53758 2032 l
486255 53758 482696 53758 2032 l
482696 53758 480917 55537 2032 l
412074 53758 412074 64435 2032 l
412074 64435 417412 64435 2032 l
417412 64435 419192 62655 2032 l
419192 62655 419192 59096 2032 l
419192 59096 417412 57317 2032 l
417412 57317 412074 57317 2032 l
415633 57317 419192 53758 2032 l
423767 62655 425546 64435 2032 l
425546 64435 429105 64435 2032 l
429105 64435 430885 62655 2032 l
430885 62655 430885 60876 2032 l
430885 60876 429105 59096 2032 l
429105 59096 427326 59096 2032 l
429105 59096 430885 57317 2032 l
430885 57317 430885 55537 2032 l
430885 55537 429105 53758 2032 l
429105 53758 425546 53758 2032 l
425546 53758 423767 55537 2032 l
403692 123608 393015 123608 2032 l
393015 123608 393015 128946 2032 l
393015 128946 394795 130726 2032 l
394795 130726 398354 130726 2032 l
398354 130726 400133 128946 2032 l
400133 128946 400133 123608 2032 l
400133 127167 403692 130726 2032 l
403692 140639 393015 140639 2032 l
393015 140639 398354 135301 2032 l
398354 135301 398354 142419 2032 l
443815 117258 452713 117258 2032 l
452713 117258 454492 119037 2032 l
454492 119037 454492 122596 2032 l
454492 122596 452713 124376 2032 l
452713 124376 443815 124376 2032 l
447374 128951 443815 132510 2032 l
443815 132510 454492 132510 2032 l
454492 128951 454492 136069 2032 l
522037 187108 522037 197785 2032 l
522037 197785 527375 197785 2032 l
527375 197785 529155 196005 2032 l
529155 196005 529155 192446 2032 l
529155 192446 527375 190667 2032 l
527375 190667 522037 190667 2032 l
525596 190667 529155 187108 2032 l
540848 197785 533730 197785 2032 l
533730 197785 533730 192446 2032 l
533730 192446 537289 194226 2032 l
537289 194226 539068 194226 2032 l
539068 194226 540848 192446 2032 l
540848 192446 540848 188887 2032 l
540848 188887 539068 187108 2032 l
539068 187108 535509 187108 2032 l
535509 187108 533730 188887 2032 l
471237 231558 471237 242235 2032 l
471237 242235 476575 242235 2032 l
476575 242235 478355 240455 2032 l
478355 240455 478355 236896 2032 l
478355 236896 476575 235117 2032 l
476575 235117 471237 235117 2032 l
474796 235117 478355 231558 2032 l
482930 238676 486489 242235 2032 l
486489 242235 486489 231558 2032 l
482930 231558 490048 231558 2032 l
464887 301408 464887 312085 2032 l
464887 312085 470225 312085 2032 l
470225 312085 472005 310305 2032 l
472005 310305 472005 306746 2032 l
472005 306746 470225 304967 2032 l
470225 304967 464887 304967 2032 l
468446 304967 472005 301408 2032 l
483698 301408 476580 301408 2032 l
476580 301408 483698 308526 2032 l
483698 308526 483698 310305 2032 l
483698 310305 481918 312085 2032 l
481918 312085 478359 312085 2032 l
478359 312085 476580 310305 2032 l
585537 187108 585537 197785 2032 l
585537 197785 590875 197785 2032 l
590875 197785 592655 196005 2032 l
592655 196005 592655 192446 2032 l
592655 192446 590875 190667 2032 l
590875 190667 585537 190667 2032 l
589096 190667 592655 187108 2032 l
604348 197785 600789 196005 2032 l
600789 196005 597230 192446 2032 l
597230 192446 597230 188887 2032 l
597230 188887 599009 187108 2032 l
599009 187108 602568 187108 2032 l
602568 187108 604348 188887 2032 l
604348 188887 604348 190667 2032 l
604348 190667 602568 192446 2032 l
602568 192446 597230 192446 2032 l
251292 279027 240615 279027 2032 l
240615 279027 240615 284365 2032 l
240615 284365 242395 286145 2032 l
242395 286145 245954 286145 2032 l
245954 286145 247733 284365 2032 l
247733 284365 247733 279027 2032 l
247733 282586 251292 286145 2032 l
244174 290720 240615 294279 2032 l
240615 294279 251292 294279 2032 l
251292 290720 251292 297838 2032 l
249513 302413 242395 302413 2032 l
242395 302413 240615 304192 2032 l
240615 304192 240615 307751 2032 l
240615 307751 242395 309531 2032 l
242395 309531 249513 309531 2032 l
249513 309531 251292 307751 2032 l
251292 307751 251292 304192 2032 l
251292 304192 249513 302413 2032 l
249513 302413 242395 309531 2032 l
251292 49421 240615 49421 2032 l
240615 49421 240615 54759 2032 l
240615 54759 242395 56539 2032 l
242395 56539 245954 56539 2032 l
245954 56539 247733 54759 2032 l
247733 54759 247733 49421 2032 l
247733 52980 251292 56539 2032 l
249513 61114 251292 62893 2032 l
251292 62893 251292 66452 2032 l
251292 66452 249513 68232 2032 l
249513 68232 242395 68232 2032 l
242395 68232 240615 66452 2032 l
240615 66452 240615 62893 2032 l
240615 62893 242395 61114 2032 l
242395 61114 244174 61114 2032 l
244174 61114 245954 62893 2032 l
245954 62893 245954 68232 2032 l
206842 100221 196165 100221 2032 l
196165 100221 196165 105559 2032 l
196165 105559 197945 107339 2032 l
197945 107339 201504 107339 2032 l
201504 107339 203283 105559 2032 l
203283 105559 203283 100221 2032 l
203283 103780 206842 107339 2032 l
197945 111914 196165 113693 2032 l
196165 113693 196165 117252 2032 l
196165 117252 197945 119032 2032 l
197945 119032 199724 119032 2032 l
199724 119032 201504 117252 2032 l
201504 117252 203283 119032 2032 l
203283 119032 205063 119032 2032 l
205063 119032 206842 117252 2032 l
206842 117252 206842 113693 2032 l
206842 113693 205063 111914 2032 l
205063 111914 203283 111914 2032 l
203283 111914 201504 113693 2032 l
201504 113693 199724 111914 2032 l
199724 111914 197945 111914 2032 l
201504 113693 201504 117252 2032 l
206842 252621 196165 252621 2032 l
196165 252621 196165 257959 2032 l
196165 257959 197945 259739 2032 l
197945 259739 201504 259739 2032 l
201504 259739 203283 257959 2032 l
203283 257959 203283 252621 2032 l
203283 256180 206842 259739 2032 l
196165 264314 196165 271432 2032 l
196165 271432 197945 271432 2032 l
197945 271432 205063 264314 2032 l
205063 264314 206842 264314 2032 l
146142 94405 144362 96185 2032 l
144362 96185 140803 96185 2032 l
140803 96185 139024 94405 2032 l
139024 94405 139024 87287 2032 l
139024 87287 140803 85508 2032 l
140803 85508 144362 85508 2032 l
144362 85508 146142 87287 2032 l
157835 96185 154276 94405 2032 l
154276 94405 150717 90846 2032 l
150717 90846 150717 87287 2032 l
150717 87287 152496 85508 2032 l
152496 85508 156055 85508 2032 l
156055 85508 157835 87287 2032 l
157835 87287 157835 89067 2032 l
157835 89067 156055 90846 2032 l
156055 90846 150717 90846 2032 l
130642 244258 130642 247817 2032 l
130642 246037 119965 246037 2032 l
119965 244258 119965 247817 2032 l
121745 259171 119965 257391 2032 l
119965 257391 119965 253832 2032 l
119965 253832 121745 252053 2032 l
121745 252053 128863 252053 2032 l
128863 252053 130642 253832 2032 l
130642 253832 130642 257391 2032 l
130642 257391 128863 259171 2032 l
123524 263746 119965 267305 2032 l
119965 267305 130642 267305 2032 l
130642 263746 130642 270864 2032 l
129343 288708 129343 299385 2032 l
129343 299385 134681 299385 2032 l
134681 299385 136461 297605 2032 l
136461 297605 136461 294046 2032 l
136461 294046 134681 292267 2032 l
134681 292267 129343 292267 2032 l
144595 288708 144595 299385 2032 l
141036 299385 148154 299385 2032 l
159847 297605 158067 299385 2032 l
158067 299385 154508 299385 2032 l
154508 299385 152729 297605 2032 l
152729 297605 152729 290487 2032 l
152729 290487 154508 288708 2032 l
154508 288708 158067 288708 2032 l
158067 288708 159847 290487 2032 l
262213 189121 263992 190900 2032 l
263992 190900 263992 192680 2032 l
263992 192680 262213 194459 2032 l
262213 194459 253315 194459 2032 l
253315 192680 253315 196239 2032 l
255095 200814 253315 202593 2032 l
253315 202593 253315 206152 2032 l
253315 206152 255095 207932 2032 l
255095 207932 256874 207932 2032 l
256874 207932 258654 206152 2032 l
258654 206152 258654 204373 2032 l
258654 206152 260433 207932 2032 l
260433 207932 262213 207932 2032 l
262213 207932 263992 206152 2032 l
263992 206152 263992 202593 2032 l
263992 202593 262213 200814 2032 l
374742 253155 372962 254935 2032 l
372962 254935 369403 254935 2032 l
369403 254935 367624 253155 2032 l
367624 253155 367624 246037 2032 l
367624 246037 369403 244258 2032 l
369403 244258 372962 244258 2032 l
372962 244258 374742 246037 2032 l
386435 254935 379317 254935 2032 l
379317 254935 379317 249596 2032 l
379317 249596 382876 251376 2032 l
382876 251376 384655 251376 2032 l
384655 251376 386435 249596 2032 l
386435 249596 386435 246037 2032 l
386435 246037 384655 244258 2032 l
384655 244258 381096 244258 2032 l
381096 244258 379317 246037 2032 l
430108 84492 9906 254 c
419948 74332 440268 94652 254 l
455508 84492 9906 254 c
445348 74332 465668 94652 254 l
582508 84492 9906 254 c
572348 74332 592668 94652 254 l
582508 160692 9906 254 c
572348 150532 592668 170852 254 l
480908 84492 9906 254 c
470748 74332 491068 94652 254 l
506308 84492 9906 254 c
496148 74332 516468 94652 254 l
557108 84492 9906 254 c
546948 74332 567268 94652 254 l
531708 84492 9906 254 c
521548 74332 541868 94652 254 l
557108 160692 9906 254 c
546948 150532 567268 170852 254 l
531708 160692 9906 254 c
521548 150532 541868 170852 254 l
506308 160692 9906 254 c
496148 150532 516468 170852 254 l
480908 160692 9906 254 c
470748 150532 491068 170852 254 l
455508 160692 9906 254 c
445348 150532 465668 170852 254 l
430108 160692 9906 254 c
419948 150532 440268 170852 254 l
590128 151802 422488 151802 2032 l
422488 93382 590128 93382 2032 l
590128 151802 590128 93382 2032 l
422488 151802 422488 129577 2032 l
422488 93382 422488 115607 2032 l
422488 122592 6985 2032 270.00 450.00 1 a
496148 122592 516468 122592 0 l
506308 112432 506308 132752 0 l
658708 205142 9906 254 c
648548 194982 668868 215302 254 l
658708 179742 9906 254 c
648548 169582 668868 189902 254 l
658708 154342 9906 254 c
648548 144182 668868 164502 254 l
647024 224700 5080 p
640928 132752 643468 130212 1524 l
640928 132752 640928 226732 1524 l
643468 229272 640928 226732 1524 l
672678 128942 643468 130212 1524 l
643468 229272 672678 230542 1524 l
626958 175932 733638 183552 270.0 b
664423 221017 683473 226097 270.0 b
670138 189902 677758 194982 270.0 b
665058 202602 682838 207682 270.0 b
670138 164502 677758 169582 270.0 b
664423 133387 683473 138467 270.0 b
665058 177202 682838 182282 270.0 b
665058 151802 682838 156882 270.0 b
673948 179742 694268 179742 0 l
684108 169582 684108 189902 0 l
150708 268642 9906 254 c
140548 258482 160868 278802 254 l
169758 255942 9906 254 c
159598 245782 179918 266102 254 l
150708 243242 9906 254 c
140548 233082 160868 253402 254 l
150708 255947 26670 1524 17.15 128.25 1 a
150708 255937 26670 1524 231.75 342.85 1 a
134198 276892 134198 234992 1524 l
148168 278482 148168 258802 1524 l
148168 282492 148168 278482 1524 l
148168 258802 148168 253082 1524 l
148168 233402 148168 229392 1524 l
148168 253082 148168 233402 1524 l
150708 255942 26670 1524 342.85 377.15 1 a
140548 255942 160868 255942 0 l
150708 245782 150708 266102 0 l
621878 243242 581238 243242 1524 l
621878 243242 621878 268642 1524 l
581238 268642 621878 268642 1524 l
581238 268642 581238 243242 1524 l
585048 243242 590128 268642 0.0 b
652358 255942 9906 254 c
642198 245782 662518 266102 254 l
550758 255942 9906 254 c
540598 245782 560918 266102 254 l
652358 255942 642198 255942 7620 l
550758 255942 560918 255942 7620 l
621878 252132 640928 259752 0.0 b
562188 252132 581238 259752 0.0 b
595208 255942 601558 255942 1524 l
611718 262292 611718 249592 1524 l
611718 249592 601558 255942 1524 l
601558 255942 616798 255942 1524 l
601558 255942 611718 262292 1524 l
601558 262292 601558 255942 1524 l
601558 255942 601558 249592 1524 l
591398 255942 611718 255942 0 l
601558 245782 601558 266102 0 l
449158 211492 9906 254 c
438998 201332 459318 221652 254 l
423758 211492 9906 254 c
413598 201332 433918 221652 254 l
458048 192442 414868 192442 1524 l
414868 230542 458048 230542 1524 l
412328 194982 412328 228002 1524 l
460588 194982 460588 228002 1524 l
414868 194982 2540 1524 180.00 270.00 1 a
458048 194982 2540 1524 270.00 360.00 1 a
414868 228002 2540 1524 90.00 180.00 1 a
458048 228002 2540 1524 0.00 90.00 1 a
423758 211492 432648 211492 1524 l
432648 211492 433918 211492 1524 l
433918 211492 433918 203872 2540 l
433918 211492 433918 219112 2540 l
438998 203872 438998 211492 2540 l
438998 211492 438998 219112 2540 l
438998 211492 440268 211492 1524 l
440268 211492 449158 211492 1524 l
426298 211492 446618 211492 0 l
436458 201332 436458 221652 0 l
601558 294042 9906 254 c
591398 283882 611718 304202 254 l
550758 294042 9906 254 c
540598 283882 560918 304202 254 l
579206 287692 579206 294042 3048 l
579206 294042 579206 300392 3048 l
579206 294042 591398 294042 1524 l
572856 287692 572856 294042 3048 l
572856 294042 572856 300392 3048 l
572856 294042 560918 294042 1524 l
612988 278802 612988 309282 1524 l
610448 311822 541868 311822 1524 l
539328 309282 539328 278802 1524 l
541868 276262 610448 276262 1524 l
541868 278802 2540 1524 180.00 270.00 1 a
541868 309282 2540 1524 90.00 180.00 1 a
610448 309282 2540 1524 0.00 90.00 1 a
610448 278802 2540 1524 270.00 360.00 1 a
565998 294042 586318 294042 0 l
576158 283882 576158 304202 0 l
557108 40042 9906 254 c
546948 29882 567268 50202 254 l
506308 40042 9906 254 c
496148 29882 516468 50202 254 l
534756 33692 534756 40042 3048 l
534756 40042 534756 46392 3048 l
534756 40042 546948 40042 1524 l
528406 33692 528406 40042 3048 l
528406 40042 528406 46392 3048 l
528406 40042 516468 40042 1524 l
568538 24802 568538 55282 1524 l
565998 57822 497418 57822 1524 l
494878 55282 494878 24802 1524 l
497418 22262 565998 22262 1524 l
497418 24802 2540 1524 180.00 270.00 1 a
497418 55282 2540 1524 90.00 180.00 1 a
565998 55282 2540 1524 0.00 90.00 1 a
565998 24802 2540 1524 270.00 360.00 1 a
521548 40042 541868 40042 0 l
531708 29882 531708 50202 0 l
639658 40042 9906 254 c
629498 29882 649818 50202 254 l
588858 40042 9906 254 c
578698 29882 599018 50202 254 l
617306 33692 617306 40042 3048 l
617306 40042 617306 46392 3048 l
617306 40042 629498 40042 1524 l
610956 33692 610956 40042 3048 l
610956 40042 610956 46392 3048 l
610956 40042 599018 40042 1524 l
651088 24802 651088 55282 1524 l
648548 57822 579968 57822 1524 l
577428 55282 577428 24802 1524 l
579968 22262 648548 22262 1524 l
579968 24802 2540 1524 180.00 270.00 1 a
579968 55282 2540 1524 90.00 180.00 1 a
648548 55282 2540 1524 0.00 90.00 1 a
648548 24802 2540 1524 270.00 360.00 1 a
604098 40042 624418 40042 0 l
614258 29882 614258 50202 0 l
379308 268642 9906 254 c
369148 258482 389468 278802 254 l
379308 319442 9906 254 c
369148 309282 389468 329602 254 l
372958 290994 379308 290994 3048 l
379308 290994 385658 290994 3048 l
379308 290994 379308 278802 1524 l
372958 297344 379308 297344 3048 l
379308 297344 385658 297344 3048 l
379308 297344 379308 309282 1524 l
364068 257212 394548 257212 1524 l
397088 259752 397088 328332 1524 l
394548 330872 364068 330872 1524 l
361528 328332 361528 259752 1524 l
364068 328332 2540 1524 90.00 180.00 1 a
394548 328332 2540 1524 0.00 90.00 1 a
394548 259752 2540 1524 270.00 360.00 1 a
364068 259752 2540 1524 180.00 270.00 1 a
369148 294042 389468 294042 0 l
379308 283882 379308 304202 0 l
150708 179742 9906 254 c
140548 169582 160868 189902 254 l
150708 128942 9906 254 c
140548 118782 160868 139102 254 l
150708 165772 150708 163232 1524 l
150708 163232 139278 163232 1524 l
139278 163232 139278 156882 1524 l
139278 156882 162138 156882 1524 l
162138 156882 162138 163232 1524 l
162138 163232 150708 163232 1524 l
150708 147992 150708 142912 1524 l
150708 154342 44450 1524 c
171028 187362 163408 187362 1524 l
167218 191172 167218 183552 1524 l
147533 137197 153883 160057 270.0 b
150708 142912 150708 137832 1524 l
150708 170852 150708 165772 1524 l
140548 154342 160868 154342 0 l
150708 144182 150708 164502 0 l
525358 255942 9906 254 c
515198 245782 535518 266102 254 l
423758 255942 9906 254 c
413598 245782 433918 266102 254 l
423758 255942 433918 255942 6096 l
525358 255942 515198 255942 6096 l
503768 247052 2540 1524 270.00 360.00 1 a
503768 264832 2540 1524 0.00 90.00 1 a
445348 264832 2540 1524 90.00 180.00 1 a
445348 247052 2540 1524 180.00 270.00 1 a
506308 264832 506308 247052 1524 l
503768 244512 499958 244512 1524 l
498688 245782 499958 244512 1524 l
503768 267372 499958 267372 1524 l
498688 266102 499958 267372 1524 l
450428 245782 449158 244512 1524 l
450428 245782 498688 245782 1524 l
450428 266102 449158 267372 1524 l
450428 266102 498688 266102 1524 l
445348 244512 449158 244512 1524 l
445348 267372 449158 267372 1524 l
442808 264832 442808 247052 1524 l
434172 252894 442808 258990 180.0 b
506308 252894 514944 258990 180.0 b
464398 255942 484718 255942 0 l
474558 245782 474558 266102 0 l
423758 287692 9906 254 c
413598 277532 433918 297852 254 l
525358 287692 9906 254 c
515198 277532 535518 297852 254 l
525358 287692 515198 287692 6096 l
423758 287692 433918 287692 6096 l
445348 296582 2540 1524 90.00 180.00 1 a
445348 278802 2540 1524 180.00 270.00 1 a
503768 278802 2540 1524 270.00 360.00 1 a
503768 296582 2540 1524 0.00 90.00 1 a
442808 278802 442808 296582 1524 l
445348 299122 449158 299122 1524 l
450428 297852 449158 299122 1524 l
445348 276262 449158 276262 1524 l
450428 277532 449158 276262 1524 l
498688 297852 499958 299122 1524 l
498688 297852 450428 297852 1524 l
498688 277532 499958 276262 1524 l
498688 277532 450428 277532 1524 l
503768 299122 499958 299122 1524 l
503768 276262 499958 276262 1524 l
506308 278802 506308 296582 1524 l
506308 284644 514944 290740 0.0 b
434172 284644 442808 290740 0.0 b
464398 287692 484718 287692 0 l
474558 277532 474558 297852 0 l
379308 40042 9906 254 c
369148 29882 389468 50202 254 l
480908 40042 9906 254 c
470748 29882 491068 50202 254 l
480908 40042 470748 40042 6096 l
379308 40042 389468 40042 6096 l
400898 48932 2540 1524 90.00 180.00 1 a
400898 31152 2540 1524 180.00 270.00 1 a
459318 31152 2540 1524 270.00 360.00 1 a
459318 48932 2540 1524 0.00 90.00 1 a
398358 31152 398358 48932 1524 l
400898 51472 404708 51472 1524 l
405978 50202 404708 51472 1524 l
400898 28612 404708 28612 1524 l
405978 29882 404708 28612 1524 l
454238 50202 455508 51472 1524 l
454238 50202 405978 50202 1524 l
454238 29882 455508 28612 1524 l
454238 29882 405978 29882 1524 l
459318 51472 455508 51472 1524 l
459318 28612 455508 28612 1524 l
461858 31152 461858 48932 1524 l
461858 36994 470494 43090 0.0 b
389722 36994 398358 43090 0.0 b
419948 40042 440268 40042 0 l
430108 29882 430108 50202 0 l
379308 167042 9906 254 c
369148 156882 389468 177202 254 l
379308 65442 9906 254 c
369148 55282 389468 75602 254 l
379308 65442 379308 75602 6096 l
379308 167042 379308 156882 6096 l
388198 145452 2540 1524 0.00 90.00 1 a
370418 145452 2540 1524 90.00 180.00 1 a
370418 87032 2540 1524 180.00 270.00 1 a
388198 87032 2540 1524 270.00 360.00 1 a
370418 147992 388198 147992 1524 l
390738 145452 390738 141642 1524 l
389468 140372 390738 141642 1524 l
367878 145452 367878 141642 1524 l
369148 140372 367878 141642 1524 l
389468 92112 390738 90842 1524 l
389468 92112 389468 140372 1524 l
369148 92112 367878 90842 1524 l
369148 92112 369148 140372 1524 l
390738 87032 390738 90842 1524 l
367878 87032 367878 90842 1524 l
370418 84492 388198 84492 1524 l
374990 77126 383626 83222 270.0 b
374990 149262 383626 155358 270.0 b
369148 116242 389468 116242 0 l
379308 106082 379308 126402 0 l
480908 211492 9906 254 c
470748 201332 491068 221652 254 l
582508 211492 9906 254 c
572348 201332 592668 221652 254 l
582508 211492 572348 211492 6096 l
480908 211492 491068 211492 6096 l
502498 220382 2540 1524 90.00 180.00 1 a
502498 202602 2540 1524 180.00 270.00 1 a
560918 202602 2540 1524 270.00 360.00 1 a
560918 220382 2540 1524 0.00 90.00 1 a
499958 202602 499958 220382 1524 l
502498 222922 506308 222922 1524 l
507578 221652 506308 222922 1524 l
502498 200062 506308 200062 1524 l
507578 201332 506308 200062 1524 l
555838 221652 557108 222922 1524 l
555838 221652 507578 221652 1524 l
555838 201332 557108 200062 1524 l
555838 201332 507578 201332 1524 l
560918 222922 557108 222922 1524 l
560918 200062 557108 200062 1524 l
563458 202602 563458 220382 1524 l
563458 208444 572094 214540 0.0 b
491322 208444 499958 214540 0.0 b
521548 211492 541868 211492 0 l
531708 201332 531708 221652 0 l
614258 205142 9906 254 c
604098 194982 624418 215302 254 l
614258 103542 9906 254 c
604098 93382 624418 113702 254 l
614258 103542 614258 113702 6096 l
614258 205142 614258 194982 6096 l
623148 183552 2540 1524 0.00 90.00 1 a
605368 183552 2540 1524 90.00 180.00 1 a
605368 125132 2540 1524 180.00 270.00 1 a
623148 125132 2540 1524 270.00 360.00 1 a
605368 186092 623148 186092 1524 l
625688 183552 625688 179742 1524 l
624418 178472 625688 179742 1524 l
602828 183552 602828 179742 1524 l
604098 178472 602828 179742 1524 l
624418 130212 625688 128942 1524 l
624418 130212 624418 178472 1524 l
604098 130212 602828 128942 1524 l
604098 130212 604098 178472 1524 l
625688 125132 625688 128942 1524 l
602828 125132 602828 128942 1524 l
605368 122592 623148 122592 1524 l
609940 115226 618576 121322 270.0 b
609940 187362 618576 193458 270.0 b
604098 154342 624418 154342 0 l
614258 144182 614258 164502 0 l
220558 205142 9906 254 c
210398 194982 230718 215302 254 l
220558 306742 9906 254 c
210398 296582 230718 316902 254 l
220558 306742 220558 296582 6096 l
220558 205142 220558 215302 6096 l
211668 226732 2540 1524 180.00 270.00 1 a
229448 226732 2540 1524 270.00 360.00 1 a
229448 285152 2540 1524 0.00 90.00 1 a
211668 285152 2540 1524 90.00 180.00 1 a
229448 224192 211668 224192 1524 l
209128 226732 209128 230542 1524 l
210398 231812 209128 230542 1524 l
231988 226732 231988 230542 1524 l
230718 231812 231988 230542 1524 l
210398 280072 209128 281342 1524 l
210398 280072 210398 231812 1524 l
230718 280072 231988 281342 1524 l
230718 280072 230718 231812 1524 l
209128 285152 209128 281342 1524 l
231988 285152 231988 281342 1524 l
229448 287692 211668 287692 1524 l
216240 288962 224876 295058 90.0 b
216240 216826 224876 222922 90.0 b
210398 255942 230718 255942 0 l
220558 245782 220558 266102 0 l
220558 154342 9906 254 c
210398 144182 230718 164502 254 l
220558 52742 9906 254 c
210398 42582 230718 62902 254 l
220558 52742 220558 62902 6096 l
220558 154342 220558 144182 6096 l
229448 132752 2540 1524 0.00 90.00 1 a
211668 132752 2540 1524 90.00 180.00 1 a
211668 74332 2540 1524 180.00 270.00 1 a
229448 74332 2540 1524 270.00 360.00 1 a
211668 135292 229448 135292 1524 l
231988 132752 231988 128942 1524 l
230718 127672 231988 128942 1524 l
209128 132752 209128 128942 1524 l
210398 127672 209128 128942 1524 l
230718 79412 231988 78142 1524 l
230718 79412 230718 127672 1524 l
210398 79412 209128 78142 1524 l
210398 79412 210398 127672 1524 l
231988 74332 231988 78142 1524 l
209128 74332 209128 78142 1524 l
211668 71792 229448 71792 1524 l
216240 64426 224876 70522 270.0 b
216240 136562 224876 142658 270.0 b
210398 103542 230718 103542 0 l
220558 93382 220558 113702 0 l
125308 319442 125308 329602 254 l
125308 329602 135468 319442 254 l
135468 319442 125308 309282 254 l
125308 309282 115148 319442 254 l
115148 319442 125308 329602 254 l
176108 319442 176108 329602 254 l
176108 329602 186268 319442 254 l
186268 319442 176108 309282 254 l
176108 309282 165948 319442 254 l
165948 319442 176108 329602 254 l
112608 334682 188808 334682 1270 l
188808 334682 188808 304202 1270 l
188808 304202 112608 304202 1270 l
112608 304202 112608 334682 1270 l
140548 319442 160868 319442 0 l
150708 309282 150708 329602 0 l
296758 103542 9906 254 c
286598 93382 306918 113702 254 l
296758 52742 9906 254 c
286598 42582 306918 62902 254 l
322158 78142 9906 254 c
311998 67982 332318 88302 254 l
250276 31152 344256 31152 1524 l
344256 31152 344256 125132 1524 l
344256 125132 250276 125132 1524 l
296758 78142 12700 1524 c
290408 71792 303108 84492 6096 l
250276 125132 250276 117512 1524 l
256118 117512 250276 117512 1524 l
250276 31152 250276 38772 1524 l
256118 38772 250276 38772 1524 l
256118 38772 256118 117512 1524 l
296758 78142 19050 1524 c
259284 70372 261190 66559 1270 l
261190 66559 265004 62746 1270 l
265004 62746 268817 62746 1270 l
268817 62746 270723 64652 1270 l
270723 64652 270723 68465 1270 l
270723 68465 268817 70372 1270 l
268817 70372 266910 70372 1270 l
266910 70372 265004 68465 1270 l
265004 68465 265004 62746 1270 l
261190 74439 259284 76345 1270 l
259284 76345 259284 80158 1270 l
259284 80158 261190 82065 1270 l
261190 82065 263097 82065 1270 l
263097 82065 265004 80158 1270 l
265004 80158 265004 78252 1270 l
265004 80158 266910 82065 1270 l
266910 82065 268817 82065 1270 l
268817 82065 270723 80158 1270 l
270723 80158 270723 76345 1270 l
270723 76345 268817 74439 1270 l
270723 86132 259284 86132 1270 l
259284 86132 259284 91851 1270 l
259284 91851 261190 93758 1270 l
261190 93758 265004 93758 1270 l
265004 93758 266910 91851 1270 l
266910 91851 266910 86132 1270 l
275797 35334 271984 39147 1270 l
271984 39147 283423 39147 1270 l
283423 35334 283423 42960 1270 l
273890 105184 271984 107090 1270 l
271984 107090 271984 110903 1270 l
271984 110903 273890 112810 1270 l
273890 112810 275797 112810 1270 l
275797 112810 277704 110903 1270 l
277704 110903 277704 108997 1270 l
277704 110903 279610 112810 1270 l
279610 112810 281517 112810 1270 l
281517 112810 283423 110903 1270 l
283423 110903 283423 107090 1270 l
283423 107090 281517 105184 1270 l
334858 52742 333588 54012 1524 l
334858 52742 336128 54012 1524 l
332318 55282 337398 55282 1524 l
332318 55282 331048 56552 1524 l
337398 55282 338668 56552 1524 l
333588 54012 336128 54012 1524 l
333588 54012 332318 55282 1524 l
336128 54012 337398 55282 1524 l
334858 52742 334858 56552 1524 l
334858 56552 334858 103542 1524 l
334858 56552 338668 56552 1524 l
331048 56552 334858 56552 1524 l
329778 57822 331048 56552 1524 l
338668 56552 339938 57822 1524 l
339938 57822 329778 57822 1524 l
331040 38879 329134 40785 1270 l
329134 40785 329134 44598 1270 l
329134 44598 331040 46505 1270 l
331040 46505 332947 46505 1270 l
332947 46505 334854 44598 1270 l
334854 44598 334854 42692 1270 l
334854 44598 336760 46505 1270 l
336760 46505 338667 46505 1270 l
338667 46505 340573 44598 1270 l
340573 44598 340573 40785 1270 l
340573 40785 338667 38879 1270 l
286598 78142 306918 78142 0 l
296758 67982 296758 88302 0 l
296758 306742 9906 254 c
286598 296582 306918 316902 254 l
296758 255942 9906 254 c
286598 245782 306918 266102 254 l
322158 281342 9906 254 c
311998 271182 332318 291502 254 l
250276 234352 344256 234352 1524 l
344256 234352 344256 328332 1524 l
344256 328332 250276 328332 1524 l
296758 281342 12700 1524 c
290408 274992 303108 287692 6096 l
250276 328332 250276 320712 1524 l
256118 320712 250276 320712 1524 l
250276 234352 250276 241972 1524 l
256118 241972 250276 241972 1524 l
256118 241972 256118 320712 1524 l
296758 281342 19050 1524 c
259284 273572 261190 269759 1270 l
261190 269759 265004 265946 1270 l
265004 265946 268817 265946 1270 l
268817 265946 270723 267852 1270 l
270723 267852 270723 271665 1270 l
270723 271665 268817 273572 1270 l
268817 273572 266910 273572 1270 l
266910 273572 265004 271665 1270 l
265004 271665 265004 265946 1270 l
261190 277639 259284 279545 1270 l
259284 279545 259284 283358 1270 l
259284 283358 261190 285265 1270 l
261190 285265 263097 285265 1270 l
263097 285265 265004 283358 1270 l
265004 283358 265004 281452 1270 l
265004 283358 266910 285265 1270 l
266910 285265 268817 285265 1270 l
268817 285265 270723 283358 1270 l
270723 283358 270723 279545 1270 l
270723 279545 268817 277639 1270 l
270723 289332 259284 289332 1270 l
259284 289332 259284 295051 1270 l
259284 295051 261190 296958 1270 l
261190 296958 265004 296958 1270 l
265004 296958 266910 295051 1270 l
266910 295051 266910 289332 1270 l
275797 238534 271984 242347 1270 l
271984 242347 283423 242347 1270 l
283423 238534 283423 246160 1270 l
273890 308384 271984 310290 1270 l
271984 310290 271984 314103 1270 l
271984 314103 273890 316010 1270 l
273890 316010 275797 316010 1270 l
275797 316010 277704 314103 1270 l
277704 314103 277704 312197 1270 l
277704 314103 279610 316010 1270 l
279610 316010 281517 316010 1270 l
281517 316010 283423 314103 1270 l
283423 314103 283423 310290 1270 l
283423 310290 281517 308384 1270 l
334858 255942 333588 257212 1524 l
334858 255942 336128 257212 1524 l
332318 258482 337398 258482 1524 l
332318 258482 331048 259752 1524 l
337398 258482 338668 259752 1524 l
333588 257212 336128 257212 1524 l
333588 257212 332318 258482 1524 l
336128 257212 337398 258482 1524 l
334858 255942 334858 259752 1524 l
334858 259752 334858 306742 1524 l
334858 259752 338668 259752 1524 l
331048 259752 334858 259752 1524 l
329778 261022 331048 259752 1524 l
338668 259752 339938 261022 1524 l
339938 261022 329778 261022 1524 l
331040 242079 329134 243985 1270 l
329134 243985 329134 247798 1270 l
329134 247798 331040 249705 1270 l
331040 249705 332947 249705 1270 l
332947 249705 334854 247798 1270 l
334854 247798 334854 245892 1270 l
334854 247798 336760 249705 1270 l
336760 249705 338667 249705 1270 l
338667 249705 340573 247798 1270 l
340573 247798 340573 243985 1270 l
340573 243985 338667 242079 1270 l
286598 281342 306918 281342 0 l
296758 271182 296758 291502 0 l
47043 213382 43399 217025 1778 l
43399 217025 54330 217025 1778 l
54330 213382 54330 220669 1778 l
55092 150819 55092 143532 1778 l
55092 143532 47805 150819 1778 l
47805 150819 45983 150819 1778 l
45983 150819 44161 148997 1778 l
44161 148997 44161 145353 1778 l
44161 145353 45983 143532 1778 l
49108 167042 9906 254 c
38948 156882 59268 177202 254 l
49108 192442 9906 254 c
38948 182282 59268 202602 254 l
46568 164502 51648 169582 90.0 b
46568 189902 51648 194982 90.0 b
23708 167042 19898 167042 1270 l
49108 154342 19898 154342 2540 l
19898 154342 19898 167042 2540 l
19898 169582 19898 167042 1270 l
19898 167042 19898 179742 2540 l
49108 205142 19898 205142 2540 l
19898 205142 19898 179742 1270 l
49108 154342 78318 154342 2540 l
78318 154342 78318 179742 2540 l
49108 205142 78318 205142 2540 l
78318 205142 78318 198792 1270 l
78318 198792 78318 186092 2540 l
78318 186092 78318 179742 1270 l
78318 156882 78318 160692 1270 l
78318 154342 78318 160692 2540 l
78318 160692 71968 160692 2540 l
71968 160692 71968 173392 2540 l
71968 173392 78318 173392 2540 l
78318 173392 78318 186092 2540 l
78318 186092 71968 186092 2540 l
71968 186092 71968 198792 2540 l
71968 198792 78318 198792 2540 l
78318 198792 78318 205142 2540 l
30058 167042 19898 167042 2540 l
30058 167042 30058 169582 2540 l
30058 169582 30058 189902 2540 l
30058 189902 30058 192442 2540 l
30058 192442 19898 192442 2540 l
30058 167042 35138 169582 2540 l
19898 169582 30058 169582 2540 l
35138 169582 35138 189902 2540 l
35138 189902 30058 192442 2540 l
19898 189902 30058 189902 2540 l
38948 179742 59268 179742 0 l
49108 169582 49108 189902 0 l
650293 340382 646649 344025 1778 l
646649 344025 657580 344025 1778 l
657580 340382 657580 347669 1778 l
658342 277819 658342 270532 1778 l
658342 270532 651055 277819 1778 l
651055 277819 649233 277819 1778 l
649233 277819 647411 275997 1778 l
647411 275997 647411 272353 1778 l
647411 272353 649233 270532 1778 l
652358 294042 9906 254 c
642198 283882 662518 304202 254 l
652358 319442 9906 254 c
642198 309282 662518 329602 254 l
649818 291502 654898 296582 90.0 b
649818 316902 654898 321982 90.0 b
626958 294042 623148 294042 1270 l
652358 281342 623148 281342 2540 l
623148 281342 623148 294042 2540 l
623148 296582 623148 294042 1270 l
623148 294042 623148 306742 2540 l
652358 332142 623148 332142 2540 l
623148 332142 623148 306742 1270 l
652358 281342 681568 281342 2540 l
681568 281342 681568 306742 2540 l
652358 332142 681568 332142 2540 l
681568 332142 681568 325792 1270 l
681568 325792 681568 313092 2540 l
681568 313092 681568 306742 1270 l
681568 283882 681568 287692 1270 l
681568 281342 681568 287692 2540 l
681568 287692 675218 287692 2540 l
675218 287692 675218 300392 2540 l
675218 300392 681568 300392 2540 l
681568 300392 681568 313092 2540 l
681568 313092 675218 313092 2540 l
675218 313092 675218 325792 2540 l
675218 325792 681568 325792 2540 l
681568 325792 681568 332142 2540 l
633308 294042 623148 294042 2540 l
633308 294042 633308 296582 2540 l
633308 296582 633308 316902 2540 l
633308 316902 633308 319442 2540 l
633308 319442 623148 319442 2540 l
633308 294042 638388 296582 2540 l
623148 296582 633308 296582 2540 l
638388 296582 638388 316902 2540 l
638388 316902 633308 319442 2540 l
623148 316902 633308 316902 2540 l
642198 306742 662518 306742 0 l
652358 296582 652358 316902 0 l
295963 224812 292319 228455 1778 l
292319 228455 303250 228455 1778 l
303250 224812 303250 232099 1778 l
293633 130832 291811 132653 1778 l
291811 132653 291811 136297 1778 l
291811 136297 293633 138119 1778 l
293633 138119 295455 138119 1778 l
295455 138119 297277 136297 1778 l
297277 136297 297277 134475 1778 l
297277 136297 299099 138119 1778 l
299099 138119 300921 138119 1778 l
300921 138119 302742 136297 1778 l
302742 136297 302742 132653 1778 l
302742 132653 300921 130832 1778 l
296758 154342 9906 254 c
286598 144182 306918 164502 254 l
296758 179742 9906 254 c
286598 169582 306918 189902 254 l
296758 205142 9906 254 c
286598 194982 306918 215302 254 l
294218 151802 299298 156882 90.0 b
294218 177202 299298 182282 90.0 b
294218 202602 299298 207682 90.0 b
271358 154342 267548 154342 1270 l
296758 141642 267548 141642 2540 l
267548 141642 267548 154342 2540 l
267548 156882 267548 154342 1270 l
267548 154342 267548 167042 2540 l
296758 217842 267548 217842 2540 l
267548 217842 267548 167042 2540 l
296758 141642 325968 141642 2540 l
325968 141642 325968 167042 1270 l
296758 217842 325968 217842 2540 l
325968 211492 325968 198792 2540 l
325968 186092 325968 173392 2540 l
325968 173392 325968 167042 1270 l
325968 144182 325968 147992 2540 l
325968 147992 319618 147992 2540 l
319618 147992 319618 160692 2540 l
319618 160692 325968 160692 2540 l
325968 160692 325968 147992 2540 l
325968 160692 325968 173392 2540 l
325968 173392 319618 173392 2540 l
319618 173392 319618 186092 2540 l
319618 186092 325968 186092 2540 l
325968 186092 325968 198792 2540 l
325968 198792 319618 198792 2540 l
319618 198792 319618 211492 2540 l
319618 211492 325968 211492 2540 l
325968 211492 325968 217842 2540 l
277708 154342 267548 154342 2540 l
277708 154342 277708 156882 2540 l
277708 156882 277708 202602 2540 l
277708 202602 277708 205142 2540 l
277708 205142 267548 205142 2540 l
277708 154342 282788 156882 2540 l
267548 156882 277708 156882 2540 l
282788 156882 282788 202602 2540 l
282788 202602 277708 205142 2540 l
267548 202602 277708 202602 2540 l
286598 179742 306918 179742 0 l
296758 169582 296758 189902 0 l
55458 294042 9906 254 c
45298 283882 65618 304202 254 l
55458 294042 7620 4572 c
89748 294042 84668 294042 508 l
55458 328332 55458 323252 508 l
26248 294042 21168 294042 508 l
55458 264832 55458 259752 508 l
55458 294042 21590 24892 180.00 270.00 0 a
55458 294042 21590 24892 0.00 90.00 0 a
19898 329602 91018 329602 2032 l
91018 329602 91018 258482 2032 l
91018 258482 19898 258482 2032 l
19898 258482 19898 329602 2032 l
55458 294042 19000 2032 c
45298 294042 65618 294042 0 l
55458 283882 55458 304202 0 l
734908 294042 9906 254 c
724748 283882 745068 304202 254 l
734908 294042 7620 4572 c
769198 294042 764118 294042 508 l
734908 328332 734908 323252 508 l
705698 294042 700618 294042 508 l
734908 264832 734908 259752 508 l
734908 294042 21590 24892 180.00 270.00 0 a
734908 294042 21590 24892 0.00 90.00 0 a
699348 329602 770468 329602 2032 l
770468 329602 770468 258482 2032 l
770468 258482 699348 258482 2032 l
699348 258482 699348 329602 2032 l
734908 294042 19000 2032 c
724748 294042 745068 294042 0 l
734908 283882 734908 304202 0 l
55458 65442 9906 254 c
45298 55282 65618 75602 254 l
55458 65442 7620 4572 c
89748 65442 84668 65442 508 l
55458 99732 55458 94652 508 l
26248 65442 21168 65442 508 l
55458 36232 55458 31152 508 l
55458 65442 21590 24892 180.00 270.00 0 a
55458 65442 21590 24892 0.00 90.00 0 a
19898 101002 91018 101002 2032 l
91018 101002 91018 29882 2032 l
91018 29882 19898 29882 2032 l
19898 29882 19898 101002 2032 l
55458 65442 19000 2032 c
45298 65442 65618 65442 0 l
55458 55282 55458 75602 0 l
734908 65442 9906 254 c
724748 55282 745068 75602 254 l
734908 65442 7620 4572 c
769198 65442 764118 65442 508 l
734908 99732 734908 94652 508 l
705698 65442 700618 65442 508 l
734908 36232 734908 31152 508 l
734908 65442 21590 24892 180.00 270.00 0 a
734908 65442 21590 24892 0.00 90.00 0 a
699348 101002 770468 101002 2032 l
770468 101002 770468 29882 2032 l
770468 29882 699348 29882 2032 l
699348 29882 699348 101002 2032 l
734908 65442 19000 2032 c
724748 65442 745068 65442 0 l
734908 55282 734908 75602 0 l
519008 109892 9906 254 c
508848 99732 529168 120052 254 l
468208 109892 9906 254 c
458048 99732 478368 120052 254 l
showpage grestore
