PCBNEW-LibModule-V1   08/08/2020-22:44:52
$INDEX
_markg-5X2-MG-PROTO
_markg-5X5-MG-PROTO
_markg-332-02
_markg-332-06
_markg-ANTENNA-2.4GHZ-F
_markg-ANTENNA-915MHZ
_markg-BOARD-OUTLINE-SERPAC-031
_markg-BOARD-OUTLINE-SERPAC-G10-REC
_markg-BOARD-OUTLINE-SERPAC-H65-TOP
_markg-CR2032_HOLDER
_markg-DIL-01-MG
_markg-DIL28-3
_markg-FIDUCIAL-1.5X4.5
_markg-HEATSINK-TO220-11-THK-0.5IN
_markg-HEATSINK-TO220-11-THK-1.0IN
_markg-HEATSINK-TO220-JAPAN
_markg-HEATSINK-TO220-JAPAN-NOPADS
_markg-HO-TRACK-.75IN
_markg-LOGO_G
_markg-MRF24WG
_markg-OPTOLOGIC-SIDELOOKER
_markg-POWER_JACK_COMBO
_markg-POWER_JACK_PTH
_markg-POWER_JACK_PTH_LOCK
_markg-POWER_JACK_SLOT
_markg-POWER_JACK_SMD
_markg-PS1240P
_markg-QPF64-14X14-0.8
_markg-RCA
_markg-RCA_LOCK
_markg-RFM12B
_markg-SOT-23
_markg-SOT23
_markg-SOT223
_markg-SWITCH-TILT-RB231X2
_markg-TACTILE-PTH-02IN
_markg-TO92-IR-SIDELOOKER
_markg-TQFP64-10X10X1MM
_markg-TSW-108-02-S-D
_markg-TSW-108-02-S-D-RA
$EndINDEX
$MODULE _markg-5X2-MG-PROTO
Po 0 0 0 15 00200000 00000000 ~~
Li _markg-5X2-MG-PROTO
Cd SIL-5X2-MG
Kw SIL-5X2-MG
Sc 00000000
Op 0 0 0
At VIRTUAL
$PAD
Sh "P$1" C 514 514 0 0 0
Dr 314 0 0 
At STD N 00CCFFFF
Ne 0 ""
Po 0 0 
$EndPAD
$PAD
Sh "P$2" C 514 514 0 0 0
Dr 314 0 0 
At STD N 00CCFFFF
Ne 0 ""
Po 0 -1000 
$EndPAD
$PAD
Sh "P$3" C 514 514 0 0 0
Dr 314 0 0 
At STD N 00CCFFFF
Ne 0 ""
Po 0 -2000 
$EndPAD
$PAD
Sh "P$4" C 514 514 0 0 0
Dr 314 0 0 
At STD N 00CCFFFF
Ne 0 ""
Po 0 -3000 
$EndPAD
$PAD
Sh "P$5" C 514 514 0 0 0
Dr 314 0 0 
At STD N 00CCFFFF
Ne 0 ""
Po 0 -4000 
$EndPAD
$PAD
Sh "P$6" C 514 514 0 0 0
Dr 314 0 0 
At STD N 00CCFFFF
Ne 0 ""
Po 1000 -4000 
$EndPAD
$PAD
Sh "P$7" C 514 514 0 0 0
Dr 314 0 0 
At STD N 00CCFFFF
Ne 0 ""
Po 1000 -3000 
$EndPAD
$PAD
Sh "P$8" C 514 514 0 0 0
Dr 314 0 0 
At STD N 00CCFFFF
Ne 0 ""
Po 1000 -2000 
$EndPAD
$PAD
Sh "P$9" C 514 514 0 0 0
Dr 314 0 0 
At STD N 00CCFFFF
Ne 0 ""
Po 1000 -1000 
$EndPAD
$PAD
Sh "P$10" C 514 514 0 0 0
Dr 314 0 0 
At STD N 00CCFFFF
Ne 0 ""
Po 1000 0 
$EndPAD
$EndMODULE 5X2-MG-PROTO
$MODULE _markg-5X5-MG-PROTO
Po 0 0 0 15 00200000 00000000 ~~
Li _markg-5X5-MG-PROTO
Cd PLATED HOLE IS ABOUT 0.0393
Kw PLATED HOLE IS ABOUT 0.0393
Sc 00000000
Op 0 0 0
At VIRTUAL
DS -500 -4750 -500 -4250 50 21
DS -750 -4500 -250 -4500 50 21
DS 4250 500 4750 500 50 21
DS 4500 250 4500 750 50 21
DS 4500 -4750 4500 -4250 50 21
DS 4250 -4500 4750 -4500 50 21
DS -500 250 -500 750 50 21
DS -750 500 -250 500 50 21
$PAD
Sh "P$1" C 593 593 0 0 0
Dr 393 0 0 
At STD N 00CCFFFF
Ne 0 ""
Po 0 0 
$EndPAD
$PAD
Sh "P$2" C 593 1187 0 0 0
Dr 393 0 0 
At STD N 00CCFFFF
Ne 0 ""
Po 0 -1000 
$EndPAD
$PAD
Sh "P$3" C 593 1187 0 0 0
Dr 393 0 0 
At STD N 00CCFFFF
Ne 0 ""
Po 0 -2000 
$EndPAD
$PAD
Sh "P$4" C 593 1187 0 0 0
Dr 393 0 0 
At STD N 00CCFFFF
Ne 0 ""
Po 0 -3000 
$EndPAD
$PAD
Sh "P$5" C 593 1187 0 0 0
Dr 393 0 0 
At STD N 00CCFFFF
Ne 0 ""
Po 0 -4000 
$EndPAD
$PAD
Sh "P$6" C 593 1187 0 0 0
Dr 393 0 0 
At STD N 00CCFFFF
Ne 0 ""
Po 1000 -4000 
$EndPAD
$PAD
Sh "P$7" C 593 1187 0 0 0
Dr 393 0 0 
At STD N 00CCFFFF
Ne 0 ""
Po 1000 -3000 
$EndPAD
$PAD
Sh "P$8" C 593 1187 0 0 0
Dr 393 0 0 
At STD N 00CCFFFF
Ne 0 ""
Po 1000 -2000 
$EndPAD
$PAD
Sh "P$9" C 593 1187 0 0 0
Dr 393 0 0 
At STD N 00CCFFFF
Ne 0 ""
Po 1000 -1000 
$EndPAD
$PAD
Sh "P$10" C 593 1187 0 0 0
Dr 393 0 0 
At STD N 00CCFFFF
Ne 0 ""
Po 1000 0 
$EndPAD
$PAD
Sh "P$11" C 593 1187 0 0 0
Dr 393 0 0 
At STD N 00CCFFFF
Ne 0 ""
Po 2000 -4000 
$EndPAD
$PAD
Sh "P$12" C 593 1187 0 0 0
Dr 393 0 0 
At STD N 00CCFFFF
Ne 0 ""
Po 2000 -3000 
$EndPAD
$PAD
Sh "P$13" C 593 1187 0 0 0
Dr 393 0 0 
At STD N 00CCFFFF
Ne 0 ""
Po 2000 -2000 
$EndPAD
$PAD
Sh "P$14" C 593 1187 0 0 0
Dr 393 0 0 
At STD N 00CCFFFF
Ne 0 ""
Po 2000 -1000 
$EndPAD
$PAD
Sh "P$15" C 593 1187 0 0 0
Dr 393 0 0 
At STD N 00CCFFFF
Ne 0 ""
Po 2000 0 
$EndPAD
$PAD
Sh "P$16" C 593 1187 0 0 0
Dr 393 0 0 
At STD N 00CCFFFF
Ne 0 ""
Po 3000 -4000 
$EndPAD
$PAD
Sh "P$17" C 593 1187 0 0 0
Dr 393 0 0 
At STD N 00CCFFFF
Ne 0 ""
Po 3000 -3000 
$EndPAD
$PAD
Sh "P$18" C 593 1187 0 0 0
Dr 393 0 0 
At STD N 00CCFFFF
Ne 0 ""
Po 3000 -2000 
$EndPAD
$PAD
Sh "P$19" C 593 1187 0 0 0
Dr 393 0 0 
At STD N 00CCFFFF
Ne 0 ""
Po 3000 -1000 
$EndPAD
$PAD
Sh "P$20" C 593 1187 0 0 0
Dr 393 0 0 
At STD N 00CCFFFF
Ne 0 ""
Po 3000 0 
$EndPAD
$PAD
Sh "P$21" C 593 1187 0 0 0
Dr 393 0 0 
At STD N 00CCFFFF
Ne 0 ""
Po 4000 -4000 
$EndPAD
$PAD
Sh "P$22" C 593 1187 0 0 0
Dr 393 0 0 
At STD N 00CCFFFF
Ne 0 ""
Po 4000 -3000 
$EndPAD
$PAD
Sh "P$23" C 593 1187 0 0 0
Dr 393 0 0 
At STD N 00CCFFFF
Ne 0 ""
Po 4000 -2000 
$EndPAD
$PAD
Sh "P$24" C 593 1187 0 0 0
Dr 393 0 0 
At STD N 00CCFFFF
Ne 0 ""
Po 4000 -1000 
$EndPAD
$PAD
Sh "P$25" C 593 1187 0 0 0
Dr 393 0 0 
At STD N 00CCFFFF
Ne 0 ""
Po 4000 0 
$EndPAD
$EndMODULE 5X5-MG-PROTO
$MODULE _markg-332-02
Po 0 0 0 15 00200000 00000000 ~~
Li _markg-332-02
Cd 2 PIN - 2MM DUAL ROW
Kw 2 PIN - 2MM DUAL ROW
Sc 00000000
Op 0 0 0
At VIRTUAL
DS -98 492 98 492 26 24
DS 98 492 98 295 26 24
DS -98 295 98 295 26 24
DS -98 492 -98 295 26 24
DS -98 -295 98 -295 26 24
DS 98 -295 98 -492 26 24
DS -98 -492 98 -492 26 24
DS -98 -295 -98 -492 26 24
DS -334 748 334 748 80 21
DS 334 748 334 157 80 21
DS 334 -157 334 -748 80 21
DS 334 -748 -334 -748 80 21
DS -334 -748 -334 -157 80 21
DS -334 157 -334 748 80 21
DA -409 0 -334 -157 4891 80 21 
DA 409 0 334 157 4891 80 21 
T0 1005 1250 500 500 0 40 N V 21 N ">NAME"
T1 1255 -1250 500 500 0 40 N V 21 N ">VALUE"
T2 -195 628 120 120 0 10 N V 21 N "1"
$PAD
Sh "1" C 500 500 0 0 0
Dr 354 0 0 
At STD N 00CCFFFF
Ne 0 ""
Po 0 393 
$EndPAD
$PAD
Sh "2" C 500 500 0 0 0
Dr 354 0 0 
At STD N 00CCFFFF
Ne 0 ""
Po 0 -393 
$EndPAD
$EndMODULE 332-02
$MODULE _markg-332-06
Po 0 0 0 15 00200000 00000000 ~~
Li _markg-332-06
Cd 6 PIN - 2MM DUAL ROW
Kw 6 PIN - 2MM DUAL ROW
Sc 00000000
Op 0 0 0
At VIRTUAL
DS -885 492 -688 492 26 24
DS -688 492 -688 295 26 24
DS -885 295 -688 295 26 24
DS -885 492 -885 295 26 24
DS -885 -295 -688 -295 26 24
DS -688 -295 -688 -492 26 24
DS -885 -492 -688 -492 26 24
DS -885 -295 -885 -492 26 24
DS -98 492 98 492 26 24
DS 98 492 98 295 26 24
DS -98 295 98 295 26 24
DS -98 492 -98 295 26 24
DS -98 -295 98 -295 26 24
DS 98 -295 98 -492 26 24
DS -98 -492 98 -492 26 24
DS -98 -295 -98 -492 26 24
DS 688 492 885 492 26 24
DS 885 492 885 295 26 24
DS 688 295 885 295 26 24
DS 688 492 688 295 26 24
DS 688 -295 885 -295 26 24
DS 885 -295 885 -492 26 24
DS 688 -492 885 -492 26 24
DS 688 -295 688 -492 26 24
DS -1122 748 1122 748 80 21
DS 1122 748 1122 157 80 21
DS 1122 -157 1122 -748 80 21
DS 1122 -748 -1122 -748 80 21
DS -1122 -748 -1122 -157 80 21
DS -1122 157 -1122 748 80 21
DA -1196 0 -1122 -157 4891 80 21 
DA 1196 0 1122 157 4891 80 21 
T0 218 -1112 500 500 0 40 N V 21 N ">NAME"
T1 468 -1643 500 500 0 40 N V 21 N ">VALUE"
T2 -983 628 120 120 0 10 N V 21 N "1"
$PAD
Sh "1" C 500 500 0 0 0
Dr 354 0 0 
At STD N 00CCFFFF
Ne 0 ""
Po -787 393 
$EndPAD
$PAD
Sh "2" C 500 500 0 0 0
Dr 354 0 0 
At STD N 00CCFFFF
Ne 0 ""
Po -787 -393 
$EndPAD
$PAD
Sh "3" C 500 500 0 0 0
Dr 354 0 0 
At STD N 00CCFFFF
Ne 0 ""
Po 0 393 
$EndPAD
$PAD
Sh "4" C 500 500 0 0 0
Dr 354 0 0 
At STD N 00CCFFFF
Ne 0 ""
Po 0 -393 
$EndPAD
$PAD
Sh "5" C 500 500 0 0 0
Dr 354 0 0 
At STD N 00CCFFFF
Ne 0 ""
Po 787 393 
$EndPAD
$PAD
Sh "6" C 500 500 0 0 0
Dr 354 0 0 
At STD N 00CCFFFF
Ne 0 ""
Po 787 -393 
$EndPAD
$EndMODULE 332-06
$MODULE _markg-ANTENNA-2.4GHZ-F
Po 0 0 0 15 00200000 00000000 ~~
Li _markg-ANTENNA-2.4GHZ-F
Cd 
Kw 
Sc 00000000
Op 0 0 0
At SMD
DS 1739 -1050 2000 -1050 50 24
DS 1670 -1070 1670 -2030 200 15
DS 1739 -2050 2000 -2050 50 24
DS 1739 -3050 2000 -3050 50 24
DS 1739 -4050 2000 -4050 50 24
DS 1670 -2050 670 -2050 200 15
DS 1670 -3050 670 -3050 200 15
DS 1670 -4050 670 -4050 200 15
DS 1739 -5050 2000 -5050 50 24
DS 1670 -5050 670 -5050 200 15
DS 670 -2050 670 -3050 200 15
DS 1670 -3050 1670 -4050 200 15
DS 670 -4050 670 -5050 200 15
DS 1670 -5050 1670 -5850 200 15
DS 1670 -5850 1070 -5850 200 15
DP 0 0 0 0 5 100 15
Dl 1719 -950
Dl 0 -950
Dl 0 -1150
Dl 1719 -1150
Dl 1719 -950
DP 0 0 0 0 7 100 15
Dl 0 -30
Dl 1719 -30
Dl 1719 -1150
Dl 1620 -1150
Dl 1620 -320
Dl 0 -320
Dl 0 -30
$PAD
Sh "1" R 500 350 0 0 0
Dr 0 0 0 
At SMD N 00888000
Ne 0 ""
Po 230 -170 
$EndPAD
$PAD
Sh "2" R 500 250 0 0 0
Dr 0 0 0 
At SMD N 00888000
Ne 0 ""
Po 220 -1050 
$EndPAD
$EndMODULE ANTENNA-2.4GHZ-F
$MODULE _markg-ANTENNA-915MHZ
Po 0 0 0 15 00200000 00000000 ~~
Li _markg-ANTENNA-915MHZ
Cd 
Kw 
Sc 00000000
Op 0 0 0
At VIRTUAL
DP 0 0 0 0 20 100 16
Dl -7480 -10236
Dl 7480 -10236
Dl 7480 -7480
Dl -6692 -7480
Dl -6692 -6299
Dl 7480 -6299
Dl 7480 -3543
Dl 393 -3543
Dl 393 -787
Dl 0 -393
Dl -393 -787
Dl -393 -4330
Dl 6692 -4330
Dl 6692 -5511
Dl -7480 -5511
Dl -7480 -8267
Dl 6692 -8267
Dl 6692 -9448
Dl -7480 -9448
Dl -7480 -10236
DP 0 0 0 0 20 100 15
Dl -7480 -10236
Dl 7480 -10236
Dl 7480 -7480
Dl -6692 -7480
Dl -6692 -6299
Dl 7480 -6299
Dl 7480 -3543
Dl 393 -3543
Dl 393 -787
Dl 0 -393
Dl -393 -787
Dl -393 -4330
Dl 6692 -4330
Dl 6692 -5511
Dl -7480 -5511
Dl -7480 -8267
Dl 6692 -8267
Dl 6692 -9448
Dl -7480 -9448
Dl -7480 -10236
$PAD
Sh "P$1" C 436 436 0 0 0
Dr 236 0 0 
At STD N 00CCFFFF
Ne 0 ""
Po 0 -893 
$EndPAD
$PAD
Sh "P$2" C 436 436 0 0 0
Dr 236 0 0 
At STD N 00CCFFFF
Ne 0 ""
Po 0 -2362 
$EndPAD
$PAD
Sh "P$3" C 436 436 0 0 0
Dr 236 0 0 
At STD N 00CCFFFF
Ne 0 ""
Po 0 -3937 
$EndPAD
$PAD
Sh "P$4" C 436 436 0 0 0
Dr 236 0 0 
At STD N 00CCFFFF
Ne 0 ""
Po 7086 -3937 
$EndPAD
$PAD
Sh "P$5" C 436 436 0 0 0
Dr 236 0 0 
At STD N 00CCFFFF
Ne 0 ""
Po 7086 -5905 
$EndPAD
$PAD
Sh "P$6" C 436 436 0 0 0
Dr 236 0 0 
At STD N 00CCFFFF
Ne 0 ""
Po -7086 -5905 
$EndPAD
$PAD
Sh "P$7" C 436 436 0 0 0
Dr 236 0 0 
At STD N 00CCFFFF
Ne 0 ""
Po -7086 -7874 
$EndPAD
$PAD
Sh "P$8" C 436 436 0 0 0
Dr 236 0 0 
At STD N 00CCFFFF
Ne 0 ""
Po 1574 -3937 
$EndPAD
$PAD
Sh "P$9" C 436 436 0 0 0
Dr 236 0 0 
At STD N 00CCFFFF
Ne 0 ""
Po 3543 -3937 
$EndPAD
$PAD
Sh "P$10" C 436 436 0 0 0
Dr 236 0 0 
At STD N 00CCFFFF
Ne 0 ""
Po 5511 -3937 
$EndPAD
$PAD
Sh "P$11" C 436 436 0 0 0
Dr 236 0 0 
At STD N 00CCFFFF
Ne 0 ""
Po 5118 -5905 
$EndPAD
$PAD
Sh "P$12" C 436 436 0 0 0
Dr 236 0 0 
At STD N 00CCFFFF
Ne 0 ""
Po 3149 -5905 
$EndPAD
$PAD
Sh "P$13" C 436 436 0 0 0
Dr 236 0 0 
At STD N 00CCFFFF
Ne 0 ""
Po 1181 -5905 
$EndPAD
$PAD
Sh "P$14" C 436 436 0 0 0
Dr 236 0 0 
At STD N 00CCFFFF
Ne 0 ""
Po -787 -5905 
$EndPAD
$PAD
Sh "P$15" C 436 436 0 0 0
Dr 236 0 0 
At STD N 00CCFFFF
Ne 0 ""
Po -2755 -5905 
$EndPAD
$PAD
Sh "P$16" C 436 436 0 0 0
Dr 236 0 0 
At STD N 00CCFFFF
Ne 0 ""
Po -4724 -5905 
$EndPAD
$PAD
Sh "P$17" C 436 436 0 0 0
Dr 236 0 0 
At STD N 00CCFFFF
Ne 0 ""
Po -4724 -7874 
$EndPAD
$PAD
Sh "P$18" C 436 436 0 0 0
Dr 236 0 0 
At STD N 00CCFFFF
Ne 0 ""
Po -2755 -7874 
$EndPAD
$PAD
Sh "P$19" C 436 436 0 0 0
Dr 236 0 0 
At STD N 00CCFFFF
Ne 0 ""
Po -787 -7874 
$EndPAD
$PAD
Sh "P$20" C 436 436 0 0 0
Dr 236 0 0 
At STD N 00CCFFFF
Ne 0 ""
Po 1181 -7874 
$EndPAD
$PAD
Sh "P$21" C 436 436 0 0 0
Dr 236 0 0 
At STD N 00CCFFFF
Ne 0 ""
Po 3149 -7874 
$EndPAD
$PAD
Sh "P$22" C 436 436 0 0 0
Dr 236 0 0 
At STD N 00CCFFFF
Ne 0 ""
Po 5118 -7874 
$EndPAD
$PAD
Sh "P$23" C 436 436 0 0 0
Dr 236 0 0 
At STD N 00CCFFFF
Ne 0 ""
Po 7086 -7874 
$EndPAD
$PAD
Sh "P$24" C 436 436 0 0 0
Dr 236 0 0 
At STD N 00CCFFFF
Ne 0 ""
Po 7086 -9842 
$EndPAD
$PAD
Sh "P$25" C 436 436 0 0 0
Dr 236 0 0 
At STD N 00CCFFFF
Ne 0 ""
Po 5118 -9842 
$EndPAD
$PAD
Sh "P$26" C 436 436 0 0 0
Dr 236 0 0 
At STD N 00CCFFFF
Ne 0 ""
Po 3149 -9842 
$EndPAD
$PAD
Sh "P$27" C 436 436 0 0 0
Dr 236 0 0 
At STD N 00CCFFFF
Ne 0 ""
Po 1181 -9842 
$EndPAD
$PAD
Sh "P$28" C 436 436 0 0 0
Dr 236 0 0 
At STD N 00CCFFFF
Ne 0 ""
Po -787 -9842 
$EndPAD
$PAD
Sh "P$29" C 436 436 0 0 0
Dr 236 0 0 
At STD N 00CCFFFF
Ne 0 ""
Po -2755 -9842 
$EndPAD
$PAD
Sh "P$30" C 436 436 0 0 0
Dr 236 0 0 
At STD N 00CCFFFF
Ne 0 ""
Po -4724 -9842 
$EndPAD
$PAD
Sh "P$31" C 436 436 0 0 0
Dr 236 0 0 
At STD N 00CCFFFF
Ne 0 ""
Po -7086 -9842 
$EndPAD
$EndMODULE ANTENNA-915MHZ
$MODULE _markg-BOARD-OUTLINE-SERPAC-031
Po 0 0 0 15 00200000 00000000 ~~
Li _markg-BOARD-OUTLINE-SERPAC-031
Cd 
Kw 
Sc 00000000
Op 0 0 0
At VIRTUAL
DS 0 -4100 0 -24700 0 21
DS 4200 0 20000 0 0 21
DS 4200 -28800 20000 -28800 0 21
DS 0 -4100 2000 -4100 0 21
DS 4200 0 4200 -1900 0 21
DS 0 -24700 2000 -24700 0 21
DS 4200 -26900 4200 -28800 0 21
DS 40000 -4100 40000 -24700 0 21
DS 35800 0 20000 0 0 21
DS 35800 -28800 20000 -28800 0 21
DS 40000 -4100 38000 -4100 0 21
DS 35800 0 35800 -1900 0 21
DS 40000 -24700 38000 -24700 0 21
DS 35800 -26900 35800 -28800 0 21
DA 2000 -1900 2000 -4100 4500 0 21 
DA 2000 -26900 4200 -26900 4500 0 21 
DA 38000 -1900 35800 -1900 4500 0 21 
DA 38000 -26900 38000 -24700 4500 0 21 
$PAD
Sh "" C 1259 1259 0 0 0
Dr 1259 0 0 
At HOLE N 00C0FFFF
Ne 0 ""
Po 10000 -1900 
$EndPAD
$PAD
Sh "" C 1259 1259 0 0 0
Dr 1259 0 0 
At HOLE N 00C0FFFF
Ne 0 ""
Po 30000 -1900 
$EndPAD
$PAD
Sh "" C 1259 1259 0 0 0
Dr 1259 0 0 
At HOLE N 00C0FFFF
Ne 0 ""
Po 30000 -26900 
$EndPAD
$PAD
Sh "" C 1259 1259 0 0 0
Dr 1259 0 0 
At HOLE N 00C0FFFF
Ne 0 ""
Po 10000 -26900 
$EndPAD
$EndMODULE BOARD-OUTLINE-SERPAC-031
$MODULE _markg-BOARD-OUTLINE-SERPAC-G10-REC
Po 0 0 0 15 00200000 00000000 ~~
Li _markg-BOARD-OUTLINE-SERPAC-G10-REC
Cd PCB OUTLINE SERPAC G10 AND G10A
Kw PCB OUTLINE SERPAC G10 AND G10A
Sc 00000000
Op 0 0 0
At VIRTUAL
DS 0 0 28100 0 0 21
DS 28100 0 28100 -27799 0 21
DS 28100 -27799 0 -27799 0 21
DS 0 -27799 0 0 0 21
DS 13799 -13899 15800 -13899 50 24
DS 14800 -14900 14800 -13000 50 24
DS 28100 0 33100 0 50 24
DS 33100 0 33100 -10900 50 24
DS 33100 -10900 28100 -10900 50 24
DS 28100 -16900 33100 -16900 50 24
DS 33100 -16900 33100 -27799 50 24
DS 33100 -27799 28100 -27799 50 24
DS 0 0 -3800 0 50 24
DS -3800 0 -3800 -11700 50 24
DS -3800 -11700 0 -11700 50 24
DS 0 -11700 0 -11600 50 24
DS 0 -16100 -3800 -16100 50 24
DS -3800 -16100 -3800 -27799 50 24
DS -3800 -27799 0 -27799 50 24
$PAD
Sh "" C 1259 1259 0 0 0
Dr 1259 0 0 
At HOLE N 00C0FFFF
Ne 0 ""
Po 3660 -3900 
$EndPAD
$PAD
Sh "" C 1259 1259 0 0 0
Dr 1259 0 0 
At HOLE N 00C0FFFF
Ne 0 ""
Po 23660 -3900 
$EndPAD
$PAD
Sh "" C 1259 1259 0 0 0
Dr 1259 0 0 
At HOLE N 00C0FFFF
Ne 0 ""
Po 23660 -23900 
$EndPAD
$PAD
Sh "" C 1259 1259 0 0 0
Dr 1259 0 0 
At HOLE N 00C0FFFF
Ne 0 ""
Po 3660 -23900 
$EndPAD
$EndMODULE BOARD-OUTLINE-SERPAC-G10-REC
$MODULE _markg-BOARD-OUTLINE-SERPAC-H65-TOP
Po 0 0 0 15 00200000 00000000 ~~
Li _markg-BOARD-OUTLINE-SERPAC-H65-TOP
Cd PCB OUTLINE SERPAC H65
Kw PCB OUTLINE SERPAC H65
Sc 00000000
Op 0 0 0
At VIRTUAL
DS 0 -11500 0 -2800 0 21
DS 0 -11500 0 -20800 0 21
DS 3500 0 4200 0 0 21
DS 5300 0 23500 0 0 21
DS 23500 0 27300 0 0 21
DS 28400 0 43500 0 0 21
DS 46500 -4560 46500 -11500 0 21
DS 46500 -11500 46500 -19040 0 21
DS 43500 -23600 28400 -23600 0 21
DS 27300 -23600 23500 -23600 0 21
DS 23500 -23600 5300 -23600 0 21
DS 4200 -23600 3500 -23600 0 21
DS 3500 0 3500 -1800 0 21
DS 2500 -2800 0 -2800 0 21
DS 0 -20800 2500 -20800 0 21
DS 3500 -23600 3500 -21800 0 21
DS 46500 -19040 44500 -19040 0 21
DS 43500 -20040 43500 -23600 0 21
DS 44500 -4560 46500 -4560 0 21
DS 43500 -3560 43500 0 0 21
DS 32800 -22799 32800 -800 50 21
DS 43000 -22799 43000 -800 50 21
DS 43000 -800 32800 -800 50 21
DS 43000 -22799 32800 -22799 50 21
DS 3800 -22799 3800 -23600 50 21
DS 3800 -22799 3800 -23600 50 21
DS 5699 -22799 5699 -23600 50 21
DS 26900 -22799 26900 -23600 50 21
DS 28800 -22799 28800 -23600 50 21
DS 28800 -22799 28800 -23600 50 21
DS 26900 -22799 26900 -23600 50 21
DS 26900 -800 26900 0 50 21
DS 28800 -800 28800 0 50 21
DS 3800 -800 3800 0 50 21
DS 5699 -800 5699 0 50 21
DS 3800 0 3800 -800 50 21
DS 5699 0 5699 -800 50 21
DS 26900 0 26900 -800 50 21
DS 28800 0 28800 -800 50 21
DS 5699 -22799 5699 -23600 50 21
DS 40000 500 40000 1000 50 24
DS 7000 -11800 32000 -11800 50 24
DS 4200 -23600 5300 -23600 0 21
DS 27300 -23600 28400 -23600 0 21
DS 27300 0 28400 0 0 21
DS 4200 0 5300 0 0 21
DC 45370 -17900 45370 -18805 50 21
DC 45370 -5699 45370 -6604 50 21
DC 45370 -5699 45370 -6604 50 21
DC 45370 -17900 45370 -18805 50 21
DA 2500 -1800 2500 -2800 4500 0 21 
DA 2500 -21800 3500 -21800 4500 0 21 
DA 44500 -3560 43500 -3560 4500 0 21 
DA 4750 -22799 5699 -22799 5400 50 21 
DA 4750 -22799 5699 -22799 5400 50 21 
DA 27850 -22799 28800 -22799 5400 50 21 
DA 27850 -22799 28800 -22799 5400 50 21 
DA 27850 -800 26900 -800 5400 50 21 
DA 4750 -800 3800 -800 5400 50 21 
DA 4750 -800 3800 -800 5400 50 21 
DA 27850 -800 26900 -800 5400 50 21 
DA 44500 -20040 44500 -19040 4500 0 21 
$PAD
Sh "" C 1102 1102 0 0 0
Dr 1102 0 0 
At HOLE N 00C0FFFF
Ne 0 ""
Po 45370 -17900 
$EndPAD
$PAD
Sh "" C 1102 1102 0 0 0
Dr 1102 0 0 
At HOLE N 00C0FFFF
Ne 0 ""
Po 45370 -5699 
$EndPAD
$PAD
Sh "" C 1102 1102 0 0 0
Dr 1102 0 0 
At HOLE N 00C0FFFF
Ne 0 ""
Po 27850 -800 
$EndPAD
$PAD
Sh "" C 1102 1102 0 0 0
Dr 1102 0 0 
At HOLE N 00C0FFFF
Ne 0 ""
Po 27850 -22799 
$EndPAD
$PAD
Sh "" C 1102 1102 0 0 0
Dr 1102 0 0 
At HOLE N 00C0FFFF
Ne 0 ""
Po 4750 -22799 
$EndPAD
$PAD
Sh "" C 1102 1102 0 0 0
Dr 1102 0 0 
At HOLE N 00C0FFFF
Ne 0 ""
Po 4750 -800 
$EndPAD
$EndMODULE BOARD-OUTLINE-SERPAC-H65-TOP
$MODULE _markg-CR2032_HOLDER
Po 0 0 0 15 00200000 00000000 ~~
Li _markg-CR2032_HOLDER
Cd LI BATTERY HOLDER RENATA HU-2023-LF
Kw LI BATTERY HOLDER RENATA HU-2023-LF
Sc 00000000
Op 0 0 0
At VIRTUAL
DS 1750 -5250 2250 -5250 100 21
DS 2000 -5500 2000 -5000 100 21
DS 1750 5500 2250 5500 100 21
DS -3350 -2849 -3350 2849 60 21
DS 3350 2849 3350 -2849 60 21
DS 1400 -6000 -1400 -6000 60 21
DS 1400 6000 -1400 6000 60 21
DS 1500 6000 1500 4000 50 24
DS -1500 6000 -1500 4000 50 24
DS -1500 -6000 -1500 -4000 50 24
DS 1500 -6000 1500 -4000 50 24
DS 1500 4000 3250 3000 50 24
DS -1500 4000 -3250 3000 50 24
DS 1500 -4000 3250 -3000 50 24
DS -1500 -4000 -3250 -3000 50 24
DS -3250 -3000 3250 -3000 60 21
DA 0 -50 3950 0 5873 60 21 
DA 0 -49 2606 -3018 4094 60 21 
T0 250 -2250 500 500 0 50 N V 21 N ">NAME"
T1 1750 1250 500 500 900 50 N V 21 N ">VALUE"
T2 350 1750 500 500 0 50 N V 21 N "Lit.3V"
$PAD
Sh "+" C 859 1719 0 0 0
Dr 440 0 0 
At STD N 00CCFFFF
Ne 0 ""
Po 500 -5350 
$EndPAD
$PAD
Sh "+@1" C 859 1719 0 0 0
Dr 440 0 0 
At STD N 00CCFFFF
Ne 0 ""
Po -500 -5350 
$EndPAD
$PAD
Sh "-" C 859 1719 0 0 0
Dr 440 0 0 
At STD N 00CCFFFF
Ne 0 ""
Po 0 5350 
$EndPAD
$EndMODULE CR2032_HOLDER
$MODULE _markg-DIL-01-MG
Po 0 0 0 15 00200000 00000000 ~~
Li _markg-DIL-01-MG
Cd DUAL IN-LINE PAD
Kw DUAL IN-LINE PAD
Sc 00000000
Op 0 0 0
At VIRTUAL
$PAD
Sh "P1" O 554 1108 0 0 900
Dr 354 0 0 
At STD N 00CCFFFF
Ne 0 ""
Po 0 0 
$EndPAD
$EndMODULE DIL-01-MG
$MODULE _markg-DIL28-3
Po 0 0 0 15 00200000 00000000 ~~
Li _markg-DIL28-3
Cd 28 PIN DIP 300 MIL
Kw 28 PIN DIP 300 MIL
Sc 00000000
Op 0 0 0
At VIRTUAL
DS -7000 500 -7000 1000 60 21
DS 7000 1000 7000 -1000 60 21
DS -7000 -1000 -7000 -500 60 21
DS -7000 -1000 7000 -1000 60 21
DS -6949 1000 7000 1000 60 21
DA -7000 0 -7000 -500 5400 60 21 
T0 -7400 -750 700 700 900 70 N V 21 N ">NAME"
T1 -4100 20 700 700 0 70 N V 21 N ">VALUE"
$PAD
Sh "1" O 520 1040 0 0 1800
Dr 320 0 0 
At STD N 00CCFFFF
Ne 0 ""
Po -6500 1500 
$EndPAD
$PAD
Sh "2" O 520 1040 0 0 1800
Dr 320 0 0 
At STD N 00CCFFFF
Ne 0 ""
Po -5500 1500 
$EndPAD
$PAD
Sh "3" O 520 1040 0 0 1800
Dr 320 0 0 
At STD N 00CCFFFF
Ne 0 ""
Po -4500 1500 
$EndPAD
$PAD
Sh "4" O 520 1040 0 0 1800
Dr 320 0 0 
At STD N 00CCFFFF
Ne 0 ""
Po -3500 1500 
$EndPAD
$PAD
Sh "5" O 520 1040 0 0 1800
Dr 320 0 0 
At STD N 00CCFFFF
Ne 0 ""
Po -2500 1500 
$EndPAD
$PAD
Sh "6" O 520 1040 0 0 1800
Dr 320 0 0 
At STD N 00CCFFFF
Ne 0 ""
Po -1500 1500 
$EndPAD
$PAD
Sh "7" O 520 1040 0 0 1800
Dr 320 0 0 
At STD N 00CCFFFF
Ne 0 ""
Po -500 1500 
$EndPAD
$PAD
Sh "8" O 520 1040 0 0 1800
Dr 320 0 0 
At STD N 00CCFFFF
Ne 0 ""
Po 500 1500 
$EndPAD
$PAD
Sh "9" O 520 1040 0 0 1800
Dr 320 0 0 
At STD N 00CCFFFF
Ne 0 ""
Po 1500 1500 
$EndPAD
$PAD
Sh "10" O 520 1040 0 0 1800
Dr 320 0 0 
At STD N 00CCFFFF
Ne 0 ""
Po 2500 1500 
$EndPAD
$PAD
Sh "11" O 520 1040 0 0 1800
Dr 320 0 0 
At STD N 00CCFFFF
Ne 0 ""
Po 3500 1500 
$EndPAD
$PAD
Sh "12" O 520 1040 0 0 1800
Dr 320 0 0 
At STD N 00CCFFFF
Ne 0 ""
Po 4500 1500 
$EndPAD
$PAD
Sh "13" O 520 1040 0 0 1800
Dr 320 0 0 
At STD N 00CCFFFF
Ne 0 ""
Po 5500 1500 
$EndPAD
$PAD
Sh "14" O 520 1040 0 0 1800
Dr 320 0 0 
At STD N 00CCFFFF
Ne 0 ""
Po 6500 1500 
$EndPAD
$PAD
Sh "15" O 520 1040 0 0 1800
Dr 320 0 0 
At STD N 00CCFFFF
Ne 0 ""
Po 6500 -1500 
$EndPAD
$PAD
Sh "16" O 520 1040 0 0 1800
Dr 320 0 0 
At STD N 00CCFFFF
Ne 0 ""
Po 5500 -1500 
$EndPAD
$PAD
Sh "17" O 520 1040 0 0 1800
Dr 320 0 0 
At STD N 00CCFFFF
Ne 0 ""
Po 4500 -1500 
$EndPAD
$PAD
Sh "18" O 520 1040 0 0 1800
Dr 320 0 0 
At STD N 00CCFFFF
Ne 0 ""
Po 3500 -1500 
$EndPAD
$PAD
Sh "19" O 520 1040 0 0 1800
Dr 320 0 0 
At STD N 00CCFFFF
Ne 0 ""
Po 2500 -1500 
$EndPAD
$PAD
Sh "20" O 520 1040 0 0 1800
Dr 320 0 0 
At STD N 00CCFFFF
Ne 0 ""
Po 1500 -1500 
$EndPAD
$PAD
Sh "21" O 520 1040 0 0 1800
Dr 320 0 0 
At STD N 00CCFFFF
Ne 0 ""
Po 500 -1500 
$EndPAD
$PAD
Sh "22" O 520 1040 0 0 1800
Dr 320 0 0 
At STD N 00CCFFFF
Ne 0 ""
Po -500 -1500 
$EndPAD
$PAD
Sh "23" O 520 1040 0 0 1800
Dr 320 0 0 
At STD N 00CCFFFF
Ne 0 ""
Po -1500 -1500 
$EndPAD
$PAD
Sh "24" O 520 1040 0 0 1800
Dr 320 0 0 
At STD N 00CCFFFF
Ne 0 ""
Po -2500 -1500 
$EndPAD
$PAD
Sh "25" O 520 1040 0 0 1800
Dr 320 0 0 
At STD N 00CCFFFF
Ne 0 ""
Po -3500 -1500 
$EndPAD
$PAD
Sh "26" O 520 1040 0 0 1800
Dr 320 0 0 
At STD N 00CCFFFF
Ne 0 ""
Po -4500 -1500 
$EndPAD
$PAD
Sh "27" O 520 1040 0 0 1800
Dr 320 0 0 
At STD N 00CCFFFF
Ne 0 ""
Po -5500 -1500 
$EndPAD
$PAD
Sh "28" O 520 1040 0 0 1800
Dr 320 0 0 
At STD N 00CCFFFF
Ne 0 ""
Po -6500 -1500 
$EndPAD
$EndMODULE DIL28-3
$MODULE _markg-FIDUCIAL-1.5X4.5
Po 0 0 0 15 00200000 00000000 ~~
Li _markg-FIDUCIAL-1.5X4.5
Cd FIDUCIAL
Kw FIDUCIAL
Sc 00000000
Op 0 0 0
At VIRTUAL
DC 0 0 0 -295 0 15
DC 0 0 0 -885 0 23
DC 0 0 0 -909 50 21
$EndMODULE FIDUCIAL-1.5X4.5
$MODULE _markg-HEATSINK-TO220-11-THK-0.5IN
Po 0 0 0 15 00200000 00000000 ~~
Li _markg-HEATSINK-TO220-11-THK-0.5IN
Cd HEATSINK FOR 11 PIN TO-220 PKG.  0.5 INCH THINK SINK.
Kw HEATSINK FOR 11 PIN TO-220 PKG.  0.5 INCH THINK SINK.
Sc 00000000
Op 0 0 0
At VIRTUAL
DS 5000 -850 5000 -150 60 24
DS 5860 -730 6550 -900 80 21
DS 5520 -1019 6490 -2039 80 21
DS 5860 -730 5860 -750 60 21
DS 5860 -750 6850 -1700 80 21
DS 2500 2400 2500 600 80 21
DS 5570 2450 5590 1860 80 21
DS 5960 1280 6550 1500 80 21
DS 5590 1860 5669 1820 80 21
DS 5669 1820 6490 2640 80 21
DS 5960 1280 5910 1350 80 21
DS 5910 1350 6850 2300 80 21
DS -25 0 3825 0 80 21
DS 3800 0 4650 0 60 24
DS 4650 0 4675 0 60 24
DS 5950 -150 6760 -450 80 21
DS 5950 750 6770 1050 80 21
DS -2900 -700 -2900 -100 80 21
DS -2900 -50 -3000 -250 80 21
DS -2800 -250 -2900 -50 80 21
DS -2900 -50 -2849 -250 80 21
DS -2849 -250 -2800 -250 80 21
DS -3000 -250 -2950 -250 80 21
DS -2950 -250 -2849 -250 80 21
DS -2950 -250 -2900 -100 80 21
DS -2900 -100 -2900 -50 60 21
DS 5000 -850 5000 -1900 80 21
DS 5950 -150 5950 0 80 21
DS 5950 0 6700 0 80 21
DS 6700 500 5950 500 80 21
DS 5950 500 5950 750 80 21
DS 5500 -1050 5500 -1900 80 21
DS 5000 1500 4300 1500 80 21
DS 4300 1500 4300 2500 80 21
DS 3700 2500 3700 1500 80 21
DS 3700 1500 3050 1500 80 21
DS 3050 1500 3050 2500 80 21
DS 5000 1500 5000 2500 80 21
DS -5000 -850 -5000 -150 60 24
DS -5860 -730 -6550 -900 80 21
DS -5520 -1019 -6490 -2039 80 21
DS -5860 -730 -5860 -750 60 20
DS -5860 -750 -6850 -1700 80 21
DS -2500 2400 -2500 600 80 21
DS -5570 2450 -5590 1860 80 21
DS -5960 1280 -6550 1500 80 21
DS -5590 1860 -5669 1820 80 21
DS -5669 1820 -6490 2640 80 21
DS -5960 1280 -5910 1350 80 21
DS -5910 1350 -6850 2300 80 21
DS 25 0 -3825 0 80 21
DS -3800 0 -4675 0 60 24
DS 2500 600 -2500 600 80 21
DS -5950 -150 -6760 -450 80 21
DS -5950 750 -6770 1050 80 21
DS -5000 -850 -5000 -1900 80 21
DS -5950 -150 -5950 0 80 21
DS -5950 0 -6700 0 80 21
DS -6700 500 -5950 500 80 21
DS -5950 500 -5950 750 80 21
DS -5500 -1050 -5500 -1900 80 21
DS -5000 1500 -4300 1500 80 21
DS -4300 1500 -4300 2500 80 21
DS -3700 2500 -3700 1500 80 21
DS -3700 1500 -3050 1500 80 21
DS -3050 1500 -3050 2500 80 21
DS -5000 1500 -5000 2500 80 21
DA 6650 -1850 6450 -2000 5400 80 21 
DA 6650 -669 6550 -900 5390 80 21 
DA 2775 2450 3050 2500 5400 80 21 
DA 6650 2450 6850 2300 5400 80 21 
DA 5280 2477 5565 2485 5276 80 21 
DA 6650 1269 6753 1041 5390 80 21 
DA 6700 250 6700 0 5400 80 21 
DA 5250 -1900 5000 -1900 5400 80 21 
DA 4985 300 5000 -150 6699 50 24 
DA 4000 2500 4300 2500 5400 80 21 
DA -6650 -1850 -6850 -1700 5400 80 21 
DA -6650 -669 -6753 -441 5390 80 21 
DA -2775 2450 -2500 2400 5400 80 21 
DA -6650 2450 -6450 2600 5400 80 21 
DA -5280 2477 -5000 2530 5276 80 21 
DA -6650 1269 -6550 1500 5390 80 21 
DA -6700 250 -6700 500 5400 80 21 
DA -5250 -1900 -5500 -1900 5400 80 21 
DA -4000 2500 -3700 2500 5400 80 21 
DA -4985 299 -4650 0 6699 50 24 
T0 -350 1350 700 700 0 70 N V 21 N ">NAME"
T1 0 2200 700 700 0 70 N V 21 N ">VALUE"
$PAD
Sh "P$1" C 1500 1500 0 0 0
Dr 1000 0 0 
At STD N 00CCFFFF
Ne 0 ""
Po -5000 300 
$EndPAD
$PAD
Sh "P$2" C 1500 1500 0 0 0
Dr 1000 0 0 
At STD N 00CCFFFF
Ne 0 ""
Po 5000 300 
$EndPAD
$EndMODULE HEATSINK-TO220-11-THK-0.5IN
$MODULE _markg-HEATSINK-TO220-11-THK-1.0IN
Po 0 0 0 15 00200000 00000000 ~~
Li _markg-HEATSINK-TO220-11-THK-1.0IN
Cd 
Kw 
Sc 00000000
Op 0 0 0
At VIRTUAL
$EndMODULE HEATSINK-TO220-11-THK-1.0IN
$MODULE _markg-HEATSINK-TO220-JAPAN
Po 0 0 0 15 00200000 00000000 ~~
Li _markg-HEATSINK-TO220-JAPAN
Cd 
Kw 
Sc 00000000
Op 0 0 0
At VIRTUAL
DS 0 -3149 5905 -3149 80 21
DS 5905 -2755 1771 -2755 80 21
DS 1771 -2755 1771 -1181 50 24
DS 1771 -1181 5905 -1181 80 21
DS 5905 -787 1771 -787 80 21
DS 0 -3149 0 3149 80 21
DS 0 3149 5905 3149 80 21
DS 5905 2755 1771 2755 80 21
DS 1771 2755 1771 1181 50 24
DS 1771 1181 5905 1181 80 21
DS 5905 787 1771 787 80 21
DS 1771 787 1771 -787 50 24
DS 1750 -2750 6000 -2750 50 24
DS 6000 -2750 6000 -3131 50 24
DS 6000 -3131 0 -3131 50 24
DS 0 -3131 0 3131 50 24
DS 0 3131 6000 3131 50 24
DS 6000 3131 6000 2750 50 24
DS 6000 2750 1750 2750 50 24
DS 1789 1171 6000 1171 50 24
DS 6000 1171 6000 789 50 24
DS 6000 789 1789 789 50 24
DS 1789 -789 6000 -789 50 24
DS 6000 -789 6000 -1171 50 24
DS 6000 -1171 1789 -1171 50 24
DA 5905 -2952 5905 -3149 5400 80 21 
DA 5905 -984 5905 -1181 5400 80 21 
DA 5905 2952 5905 2755 5400 80 21 
DA 5905 984 5905 787 5400 80 21 
T0 4250 -250 500 500 0 40 N V 21 N ">NAME"
T1 4500 1750 500 500 0 40 N V 21 N ">VALUE"
$PAD
Sh "P$1" C 1502 1502 0 0 0
Dr 1102 0 0 
At STD N 00CCFFFF
Ne 0 ""
Po 1181 -1968 
$EndPAD
$PAD
Sh "P$2" C 1502 1502 0 0 0
Dr 1102 0 0 
At STD N 00CCFFFF
Ne 0 ""
Po 1181 0 
$EndPAD
$PAD
Sh "P$3" C 1502 1502 0 0 0
Dr 1102 0 0 
At STD N 00CCFFFF
Ne 0 ""
Po 1181 1968 
$EndPAD
$PAD
Sh "" C 1102 1102 0 0 0
Dr 1102 0 0 
At HOLE N 00C0FFFF
Ne 0 ""
Po 1181 -1968 
$EndPAD
$PAD
Sh "" C 1102 1102 0 0 0
Dr 1102 0 0 
At HOLE N 00C0FFFF
Ne 0 ""
Po 1181 0 
$EndPAD
$PAD
Sh "" C 1102 1102 0 0 0
Dr 1102 0 0 
At HOLE N 00C0FFFF
Ne 0 ""
Po 1181 1968 
$EndPAD
$EndMODULE HEATSINK-TO220-JAPAN
$MODULE _markg-HEATSINK-TO220-JAPAN-NOPADS
Po 0 0 0 15 00200000 00000000 ~~
Li _markg-HEATSINK-TO220-JAPAN-NOPADS
Cd 
Kw 
Sc 00000000
Op 0 0 0
At VIRTUAL
DS 0 0 0 -3149 80 21
DS 0 -3149 5905 -3149 80 21
DS 5905 -2755 1771 -2755 80 21
DS 1771 -2755 1771 -1181 50 24
DS 1771 -1181 5905 -1181 80 21
DS 5905 -787 1771 -787 80 21
DS 0 0 0 3149 80 21
DS 0 3149 5905 3149 80 21
DS 5905 2755 1771 2755 80 21
DS 1771 2755 1771 1181 50 24
DS 1771 1181 5905 1181 80 21
DS 5905 787 1771 787 80 21
DS 1771 787 1771 -787 50 24
DS 1771 -2755 5905 -2755 50 24
DS 5944 -2755 5905 -2755 50 24
DS 5905 -2755 5905 -3149 50 24
DS 5905 -3149 0 -3149 50 24
DS 0 -3149 0 3149 50 24
DS 0 3149 5905 3149 50 24
DS 5905 3149 5905 2755 50 24
DS 5905 2755 1771 2755 50 24
DS 1771 1181 5905 1181 50 24
DS 5905 1181 5905 787 50 24
DS 5905 787 1771 787 50 24
DS 1771 -787 5905 -787 50 24
DS 5905 -787 5905 -1181 50 24
DS 5905 -1181 1771 -1181 50 24
DA 5905 -2952 5905 -3149 5400 80 21 
DA 5905 -984 5905 -1181 5400 80 21 
DA 5905 2952 5905 2755 5400 80 21 
DA 5905 984 5905 787 5400 80 21 
T1 4000 1750 500 500 0 40 N V 21 N ">VALUE"
T2 4000 -250 500 500 0 40 N V 21 N ">NAMES"
$PAD
Sh "" C 1102 1102 0 0 0
Dr 1102 0 0 
At HOLE N 00C0FFFF
Ne 0 ""
Po 1181 -1968 
$EndPAD
$PAD
Sh "" C 1102 1102 0 0 0
Dr 1102 0 0 
At HOLE N 00C0FFFF
Ne 0 ""
Po 1181 0 
$EndPAD
$PAD
Sh "" C 1102 1102 0 0 0
Dr 1102 0 0 
At HOLE N 00C0FFFF
Ne 0 ""
Po 1181 1968 
$EndPAD
$EndMODULE HEATSINK-TO220-JAPAN-NOPADS
$MODULE _markg-HO-TRACK-.75IN
Po 0 0 0 15 00200000 00000000 ~~
Li _markg-HO-TRACK-.75IN
Cd 
Kw 
Sc 00000000
Op 0 0 0
At SMD
DS -4000 -2000 -3000 -2000 26 15
DS -3000 -2000 -3000 -2500 26 15
DS -4000 -2500 -3000 -2500 26 15
DS -4000 -2000 -4000 -2500 26 15
DS -4000 1000 -3000 1000 26 15
DS -3000 1000 -3000 500 26 15
DS -4000 500 -3000 500 26 15
DS -4000 1000 -4000 500 26 15
DS 3000 1000 4000 1000 26 15
DS 4000 1000 4000 500 26 15
DS 3000 500 4000 500 26 15
DS 3000 1000 3000 500 26 15
DS 3000 -2000 4000 -2000 26 15
DS 4000 -2000 4000 -2500 26 15
DS 3000 -2500 4000 -2500 26 15
DS 3000 -2000 3000 -2500 26 15
DS -4000 4000 -3000 4000 26 15
DS -3000 4000 -3000 3500 26 15
DS -4000 3500 -3000 3500 26 15
DS -4000 4000 -4000 3500 26 15
DS 3000 4000 4000 4000 26 15
DS 4000 4000 4000 3500 26 15
DS 3000 3500 4000 3500 26 15
DS 3000 4000 3000 3500 26 15
DS -4000 -2400 -6500 -2400 80 21
DS -6500 -2400 -6500 -3650 80 21
DS -6500 -3650 -4000 -3650 80 21
DS -3000 -3650 3000 -3650 80 21
DS -3000 -2400 3000 -2400 80 21
DS 4000 -3650 6500 -3650 80 21
DS 6500 -3650 6500 -2400 80 21
DS 6500 -2400 4000 -2400 80 21
DS -4000 600 -6500 600 80 21
DS -6500 600 -6500 -650 80 21
DS -6500 -650 -4000 -650 80 21
DS -3000 -650 3000 -650 80 21
DS -3000 600 3000 600 80 21
DS 4000 -650 6500 -650 80 21
DS 6500 -650 6500 600 80 21
DS 6500 600 4000 600 80 21
DS -4000 3600 -6500 3600 80 21
DS -6500 3600 -6500 2350 80 21
DS -6500 2350 -4000 2350 80 21
DS -3000 2350 3000 2350 80 21
DS -3000 3600 3000 3600 80 21
DS 4000 2350 6500 2350 80 21
DS 6500 2350 6500 3600 80 21
DS 6500 3600 4000 3600 80 21
DS -6500 -3500 6500 -3500 50 24
DS 6500 -3500 6500 -2500 50 24
DS 6500 -2500 -6500 -2500 50 24
DS -6500 -2500 -6500 -3500 50 24
DS -6500 -500 6500 -500 50 24
DS 6500 -500 6500 500 50 24
DS 6500 500 -6500 500 50 24
DS -6500 500 -6500 -500 50 24
DS -6500 2500 6500 2500 50 24
DS 6500 2500 6500 3500 50 24
DS 6500 3500 -6500 3500 50 24
DS -6500 3500 -6500 2500 50 24
DS -4000 -7500 -4000 -4500 50 24
DS -4000 -4500 -4000 4500 50 24
DS -4000 4500 -3000 4500 50 24
DS -3000 4500 -3000 -4500 50 24
DS -3000 -4500 -3000 -7500 50 24
DS -3000 -7500 -4000 -7500 50 24
DS 3000 -7500 3000 -4500 50 24
DS 3000 -4500 3000 4500 50 24
DS 3000 4500 4000 4500 50 24
DS 4000 4500 4000 -4500 50 24
DS 4000 -4500 4000 -7500 50 24
DS 4000 -7500 3000 -7500 50 24
DS -4000 -4500 -3000 -4500 50 24
DS 3000 -4500 4000 -4500 50 24
DS 10250 4500 10250 -4500 50 24
DS 10250 -4500 -10250 -4500 50 24
DS -10250 -4500 -10250 4500 50 24
T0 250 -2750 500 500 0 40 N V 21 N ">NAME"
$PAD
Sh "RA1" R 1000 500 0 0 0
Dr 0 0 0 
At SMD N 00888000
Ne 0 ""
Po -4250 -3000 
$EndPAD
$PAD
Sh "RA2" R 1000 500 0 0 0
Dr 0 0 0 
At SMD N 00888000
Ne 0 ""
Po -2750 -3000 
$EndPAD
$PAD
Sh "RA3" R 1000 500 0 0 0
Dr 0 0 0 
At SMD N 00888000
Ne 0 ""
Po -4250 0 
$EndPAD
$PAD
Sh "RA4" R 1000 500 0 0 0
Dr 0 0 0 
At SMD N 00888000
Ne 0 ""
Po -2750 0 
$EndPAD
$PAD
Sh "RA5" R 1000 500 0 0 0
Dr 0 0 0 
At SMD N 00888000
Ne 0 ""
Po -4250 3000 
$EndPAD
$PAD
Sh "RA6" R 1000 500 0 0 0
Dr 0 0 0 
At SMD N 00888000
Ne 0 ""
Po -2750 3000 
$EndPAD
$PAD
Sh "RB1" R 1000 500 0 0 0
Dr 0 0 0 
At SMD N 00888000
Ne 0 ""
Po 2750 -3000 
$EndPAD
$PAD
Sh "RB2" R 1000 500 0 0 0
Dr 0 0 0 
At SMD N 00888000
Ne 0 ""
Po 4250 -3000 
$EndPAD
$PAD
Sh "RB3" R 1000 500 0 0 0
Dr 0 0 0 
At SMD N 00888000
Ne 0 ""
Po 2750 0 
$EndPAD
$PAD
Sh "RB4" R 1000 500 0 0 0
Dr 0 0 0 
At SMD N 00888000
Ne 0 ""
Po 4250 0 
$EndPAD
$PAD
Sh "RB5" R 1000 500 0 0 0
Dr 0 0 0 
At SMD N 00888000
Ne 0 ""
Po 2750 3000 
$EndPAD
$PAD
Sh "RB6" R 1000 500 0 0 0
Dr 0 0 0 
At SMD N 00888000
Ne 0 ""
Po 4250 3000 
$EndPAD
$PAD
Sh "" C 433 433 0 0 0
Dr 433 0 0 
At HOLE N 00C0FFFF
Ne 0 ""
Po 0 0 
$EndPAD
$EndMODULE HO-TRACK-.75IN
$MODULE _markg-LOGO_G
Po 0 0 0 15 00200000 00000000 ~~
Li _markg-LOGO_G
Cd SILK SCREEN LOGO
Kw SILK SCREEN LOGO
Sc 00000000
Op 0 0 0
At VIRTUAL
DS 750 250 250 250 160 21
DS 750 250 750 750 160 21
DA 0 0 0 -250 4500 80 21 
DA 62 -62 125 -500 4500 70 21 
DA 0 0 0 250 4500 50 21 
DA 0 0 0 500 4500 50 21 
DA 24 12 750 250 6100 160 21 
DA 19 -54 250 -750 4359 60 21 
DA -26 -53 375 -1000 4299 50 21 
$EndMODULE LOGO_G
$MODULE _markg-MRF24WG
Po 0 0 0 15 00200000 00000000 ~~
Li _markg-MRF24WG
Cd 
Kw 
Sc 00000000
Op 0 0 0
At SMD
DS -3937 -6003 4330 -6003 50 21
DS -4035 6397 4429 6397 50 21
DS -3937 -5905 -3937 3346 50 24
DS -4035 3346 -4035 6397 50 21
DS 4429 6397 4429 3346 50 21
DS 4330 3346 4330 -5905 50 24
DS -8267 1771 -8267 1968 50 24
DS 2952 1968 2952 1771 50 24
DS 2952 1771 2755 1771 50 24
DS 2952 9448 2952 9645 50 24
DS 2952 9645 2755 9645 50 24
DS -8267 9448 -8267 9645 50 24
DS -8267 9645 -8070 9645 50 24
DS -8070 1771 -8267 1771 50 24
DS -8267 1771 -8267 1968 50 24
DC -4705 -5500 -4705 -5650 50 21
T0 -2293 -6942 500 500 0 40 N V 21 N ">NAME"
$PAD
Sh "1" R 511 314 0 0 0
Dr 0 0 0 
At SMD N 00888000
Ne 0 ""
Po -3937 -5500 
$EndPAD
$PAD
Sh "2" R 511 314 0 0 0
Dr 0 0 0 
At SMD N 00888000
Ne 0 ""
Po -3937 -5000 
$EndPAD
$PAD
Sh "3" R 511 314 0 0 0
Dr 0 0 0 
At SMD N 00888000
Ne 0 ""
Po -3937 -4500 
$EndPAD
$PAD
Sh "4" R 511 314 0 0 0
Dr 0 0 0 
At SMD N 00888000
Ne 0 ""
Po -3937 -4000 
$EndPAD
$PAD
Sh "5" R 511 314 0 0 0
Dr 0 0 0 
At SMD N 00888000
Ne 0 ""
Po -3937 -3500 
$EndPAD
$PAD
Sh "6" R 511 314 0 0 0
Dr 0 0 0 
At SMD N 00888000
Ne 0 ""
Po -3937 -3000 
$EndPAD
$PAD
Sh "7" R 511 314 0 0 0
Dr 0 0 0 
At SMD N 00888000
Ne 0 ""
Po -3937 -2500 
$EndPAD
$PAD
Sh "8" R 511 314 0 0 0
Dr 0 0 0 
At SMD N 00888000
Ne 0 ""
Po -3937 -2000 
$EndPAD
$PAD
Sh "9" R 511 314 0 0 0
Dr 0 0 0 
At SMD N 00888000
Ne 0 ""
Po -3937 -1500 
$EndPAD
$PAD
Sh "10" R 511 314 0 0 0
Dr 0 0 0 
At SMD N 00888000
Ne 0 ""
Po -3937 -1000 
$EndPAD
$PAD
Sh "11" R 511 314 0 0 0
Dr 0 0 0 
At SMD N 00888000
Ne 0 ""
Po -3937 -500 
$EndPAD
$PAD
Sh "12" R 511 314 0 0 0
Dr 0 0 0 
At SMD N 00888000
Ne 0 ""
Po -3937 0 
$EndPAD
$PAD
Sh "13" R 511 314 0 0 0
Dr 0 0 0 
At SMD N 00888000
Ne 0 ""
Po -3937 500 
$EndPAD
$PAD
Sh "14" R 511 314 0 0 0
Dr 0 0 0 
At SMD N 00888000
Ne 0 ""
Po -3937 1000 
$EndPAD
$PAD
Sh "15" R 511 314 0 0 0
Dr 0 0 0 
At SMD N 00888000
Ne 0 ""
Po -3937 1500 
$EndPAD
$PAD
Sh "16" R 511 314 0 0 0
Dr 0 0 0 
At SMD N 00888000
Ne 0 ""
Po -3937 2000 
$EndPAD
$PAD
Sh "17" R 511 314 0 0 0
Dr 0 0 0 
At SMD N 00888000
Ne 0 ""
Po -3937 2500 
$EndPAD
$PAD
Sh "18" R 511 314 0 0 0
Dr 0 0 0 
At SMD N 00888000
Ne 0 ""
Po -3937 3000 
$EndPAD
$PAD
Sh "19" R 511 314 0 0 0
Dr 0 0 0 
At SMD N 00888000
Ne 0 ""
Po 4330 3000 
$EndPAD
$PAD
Sh "20" R 511 314 0 0 0
Dr 0 0 0 
At SMD N 00888000
Ne 0 ""
Po 4330 2500 
$EndPAD
$PAD
Sh "21" R 511 314 0 0 0
Dr 0 0 0 
At SMD N 00888000
Ne 0 ""
Po 4330 2000 
$EndPAD
$PAD
Sh "22" R 511 314 0 0 0
Dr 0 0 0 
At SMD N 00888000
Ne 0 ""
Po 4330 1500 
$EndPAD
$PAD
Sh "23" R 511 314 0 0 0
Dr 0 0 0 
At SMD N 00888000
Ne 0 ""
Po 4330 1000 
$EndPAD
$PAD
Sh "24" R 511 314 0 0 0
Dr 0 0 0 
At SMD N 00888000
Ne 0 ""
Po 4330 500 
$EndPAD
$PAD
Sh "25" R 511 314 0 0 0
Dr 0 0 0 
At SMD N 00888000
Ne 0 ""
Po 4330 0 
$EndPAD
$PAD
Sh "26" R 511 314 0 0 0
Dr 0 0 0 
At SMD N 00888000
Ne 0 ""
Po 4330 -500 
$EndPAD
$PAD
Sh "27" R 511 314 0 0 0
Dr 0 0 0 
At SMD N 00888000
Ne 0 ""
Po 4330 -1000 
$EndPAD
$PAD
Sh "28" R 511 314 0 0 0
Dr 0 0 0 
At SMD N 00888000
Ne 0 ""
Po 4330 -1500 
$EndPAD
$PAD
Sh "29" R 511 314 0 0 0
Dr 0 0 0 
At SMD N 00888000
Ne 0 ""
Po 4330 -2000 
$EndPAD
$PAD
Sh "30" R 511 314 0 0 0
Dr 0 0 0 
At SMD N 00888000
Ne 0 ""
Po 4330 -2500 
$EndPAD
$PAD
Sh "31" R 511 314 0 0 0
Dr 0 0 0 
At SMD N 00888000
Ne 0 ""
Po 4330 -3000 
$EndPAD
$PAD
Sh "32" R 511 314 0 0 0
Dr 0 0 0 
At SMD N 00888000
Ne 0 ""
Po 4330 -3500 
$EndPAD
$PAD
Sh "33" R 511 314 0 0 0
Dr 0 0 0 
At SMD N 00888000
Ne 0 ""
Po 4330 -4000 
$EndPAD
$PAD
Sh "34" R 511 314 0 0 0
Dr 0 0 0 
At SMD N 00888000
Ne 0 ""
Po 4330 -4500 
$EndPAD
$PAD
Sh "35" R 511 314 0 0 0
Dr 0 0 0 
At SMD N 00888000
Ne 0 ""
Po 4330 -5000 
$EndPAD
$PAD
Sh "36" R 511 314 0 0 0
Dr 0 0 0 
At SMD N 00888000
Ne 0 ""
Po 4330 -5500 
$EndPAD
$EndMODULE MRF24WG
$MODULE _markg-OPTOLOGIC-SIDELOOKER
Po 0 0 0 15 00200000 00000000 ~~
Li _markg-OPTOLOGIC-SIDELOOKER
Cd 
Kw 
Sc 00000000
Op 0 0 0
At VIRTUAL
DS -1181 393 1200 393 80 21
DS 1200 393 1200 -1023 80 21
DS 1200 -1023 492 -1023 80 21
DS 492 -1023 -492 -1023 80 21
DS -492 -1023 -1181 -1023 80 21
DS -1181 -1023 -1181 393 80 21
DS -492 -1023 -492 -708 80 21
DS -492 -708 492 -708 80 21
DS 492 -708 492 -1023 80 21
DS -1200 400 -1200 -1000 50 24
DS -1200 -1000 -500 -1000 50 24
DS -500 -1000 500 -1000 50 24
DS 500 -1000 1200 -1000 50 24
DS 1200 -1000 1200 400 50 24
DS 1200 400 -1200 400 50 24
DS -500 -1000 -500 -700 50 24
DS -500 -700 500 -700 50 24
DS 500 -700 500 -1000 50 24
DS 0 -750 0 -1250 50 24
DS 0 500 0 1000 50 24
DA 9 -718 -295 -728 5363 80 21 
T0 250 -1750 500 500 0 40 N V 21 N ">NAME"
T1 500 750 500 500 0 40 N V 21 N ">VALUE"
$PAD
Sh "GND" C 554 554 0 0 0
Dr 354 0 0 
At STD N 00CCFFFF
Ne 0 ""
Po 787 0 
$EndPAD
$PAD
Sh "VCC" C 554 554 0 0 0
Dr 354 0 0 
At STD N 00CCFFFF
Ne 0 ""
Po -787 0 
$EndPAD
$PAD
Sh "VOUT" C 554 554 0 0 0
Dr 354 0 0 
At STD N 00CCFFFF
Ne 0 ""
Po 0 0 
$EndPAD
$EndMODULE OPTOLOGIC-SIDELOOKER
$MODULE _markg-POWER_JACK_COMBO
Po 0 0 0 15 00200000 00000000 ~~
Li _markg-POWER_JACK_COMBO
Cd 
Kw 
Sc 00000000
Op 0 0 0
At SMD
DS -1968 -1771 -1968 1771 80 24
DS -1968 -1771 -1377 -1771 80 24
DS 3858 -1771 3858 1771 80 24
DS -1377 1771 -1968 1771 80 24
DS -1377 -1771 -1377 -984 80 24
DS -1377 -984 -1377 984 80 24
DS -1377 984 -1377 1771 80 24
DS -1377 -984 0 -984 80 24
DS 0 984 -1377 984 80 24
DS -1377 -1771 -787 -1771 80 24
DS 787 -1771 1614 -1771 80 24
DS 3228 -1771 3858 -1771 80 24
DS 3858 1771 3188 1771 80 24
DS 1614 1771 787 1771 80 24
DS -787 1771 -1377 1771 80 24
DS 3393 771 3393 -55 80 24
DS -818 -2771 -1960 -2771 80 24
DS -1960 771 -818 771 80 24
DS -1960 771 -1960 -2771 80 24
DS -818 771 1267 771 80 24
DS 3393 771 3118 771 80 24
DS -818 -2771 3393 -2771 80 24
DS 3393 -2771 3393 -1944 80 24
DS -818 -2771 -818 771 80 24
DS 0 -2250 2500 -2250 500 15
DS 2500 -2250 2500 -2000 500 15
DS 2500 -2000 3500 -1000 500 15
DS 1000 -1000 1000 750 500 15
DS 1000 750 1000 2250 500 15
DS 1000 2250 0 2250 500 15
DS 2500 2250 1000 2250 500 15
DS 2250 750 1000 750 500 15
DA -42 -42 0 -984 4500 80 24 
DA -42 42 900 0 4500 80 24 
T0 -250 -3350 700 700 0 60 N V 21 N ">NAME"
$PAD
Sh "GND" C 1580 1580 0 0 0
Dr 1180 0 0 
At STD N 00CCFFFF
Ne 0 ""
Po 2212 850 
$EndPAD
$PAD
Sh "GND@1" C 1580 1580 0 0 0
Dr 1180 0 0 
At STD N 00CCFFFF
Ne 0 ""
Po 1031 -1000 
$EndPAD
$PAD
Sh "GND@3" R 1102 944 0 0 0
Dr 0 0 0 
At SMD N 00888000
Ne 0 ""
Po 0 2244 
$EndPAD
$PAD
Sh "GND@4" R 1102 944 0 0 0
Dr 0 0 0 
At SMD N 00888000
Ne 0 ""
Po 2401 2244 
$EndPAD
$PAD
Sh "POWER" C 1580 1580 0 0 0
Dr 1180 0 0 
At STD N 00CCFFFF
Ne 0 ""
Po 3393 -1000 
$EndPAD
$PAD
Sh "POWER@1" R 1102 944 0 0 0
Dr 0 0 0 
At SMD N 00888000
Ne 0 ""
Po 0 -2244 
$EndPAD
$PAD
Sh "POWER@2" R 1102 944 0 0 0
Dr 0 0 0 
At SMD N 00888000
Ne 0 ""
Po 2401 -2244 
$EndPAD
$PAD
Sh "" C 629 629 0 0 0
Dr 629 0 0 
At HOLE N 00C0FFFF
Ne 0 ""
Po 0 0 
$EndPAD
$PAD
Sh "" C 629 629 0 0 0
Dr 629 0 0 
At HOLE N 00C0FFFF
Ne 0 ""
Po 2000 0 
$EndPAD
$EndMODULE POWER_JACK_COMBO
$MODULE _markg-POWER_JACK_PTH
Po 0 0 0 15 00200000 00000000 ~~
Li _markg-POWER_JACK_PTH
Cd 
Kw 
Sc 00000000
Op 0 0 0
At VIRTUAL
DS 1771 -5393 944 -5393 80 21
DS -1771 -1181 -1771 -39 80 24
DS 1771 -39 1771 -1181 80 24
DS 1771 -39 -1771 -39 80 24
DS 1771 -1181 1771 -3267 80 21
DS 1771 -5393 1771 -5118 80 21
DS -1771 -1181 -1771 -5393 80 21
DS -1771 -5393 -944 -5393 80 21
DS -1771 -1181 1771 -1181 80 21
T0 -1100 -2080 160 160 0 10 N V 21 N ">NAME"
T1 -1019 -1580 160 160 0 10 N V 21 N ">VALUE"
$PAD
Sh "GND" C 1700 1700 0 0 0
Dr 1180 0 0 
At STD N 00CCFFFF
Ne 0 ""
Po 0 -3031 
$EndPAD
$PAD
Sh "GNDBREAK" C 1700 1700 0 0 0
Dr 1180 0 0 
At STD N 00CCFFFF
Ne 0 ""
Po 1850 -4212 
$EndPAD
$PAD
Sh "PWR" C 1700 1700 0 0 0
Dr 1180 0 0 
At STD N 00CCFFFF
Ne 0 ""
Po 0 -5393 
$EndPAD
$EndMODULE POWER_JACK_PTH
$MODULE _markg-POWER_JACK_PTH_LOCK
Po 0 0 0 15 00200000 00000000 ~~
Li _markg-POWER_JACK_PTH_LOCK
Cd 
Kw 
Sc 00000000
Op 0 0 0
At VIRTUAL
DS 580 -5280 -570 -5280 26 24
DS -570 -5280 -570 -5460 26 24
DS 580 -5460 -570 -5460 26 24
DS 580 -5280 580 -5460 26 24
DS 480 -2910 -480 -2910 26 24
DS -480 -2910 -480 -3020 26 24
DS 480 -3020 -480 -3020 26 24
DS 480 -2910 480 -3020 26 24
DS 1870 -4690 1760 -4690 26 24
DS 1760 -4690 1760 -3730 26 24
DS 1870 -3730 1760 -3730 26 24
DS 1870 -4690 1870 -3730 26 24
DS 1711 -5613 944 -5613 80 21
DS -1711 -1291 -1711 -39 80 24
DS 1711 -39 1711 -1291 80 24
DS 1711 -39 -1711 -39 80 24
DS 1711 -1281 1711 -3267 80 21
DS 1711 -5613 1711 -5118 80 21
DS -1711 -1281 -1711 -5613 80 21
DS -1711 -5613 -944 -5613 80 21
DS -1711 -1281 1711 -1281 80 21
T0 -1100 -2080 160 160 0 10 N V 21 N ">NAME"
T1 -1019 -1580 160 160 0 10 N V 21 N ">VALUE"
$PAD
Sh "GND" C 1620 1620 0 0 0
Dr 1180 0 0 
At STD N 00CCFFFF
Ne 0 ""
Po 10 -2581 
$EndPAD
$PAD
Sh "GNDBREAK" C 1620 1620 0 0 0
Dr 1180 0 0 
At STD N 00CCFFFF
Ne 0 ""
Po 1480 -4212 
$EndPAD
$PAD
Sh "PWR" C 1620 1620 0 0 0
Dr 1259 0 0 
At STD N 00CCFFFF
Ne 0 ""
Po 0 -5463 
$EndPAD
$EndMODULE POWER_JACK_PTH_LOCK
$MODULE _markg-POWER_JACK_SLOT
Po 0 0 0 15 00200000 00000000 ~~
Li _markg-POWER_JACK_SLOT
Cd 
Kw 
Sc 00000000
Op 0 0 0
At VIRTUAL
DS 3673 -5393 1901 -5393 80 21
DS 1901 -5393 326 -5393 80 24
DS 326 -5393 326 -5000 80 24
DS 326 -5000 326 -3307 80 21
DS 326 -3307 326 -2578 80 24
DS 385 -5433 1645 -5433 0 24
DS 582 -5629 1448 -5629 0 24
DS 1448 -5236 582 -5236 0 24
DS 582 -3149 1448 -3149 0 24
DS 1448 -2755 582 -2755 0 24
DS 3181 -4685 3181 -3818 0 24
DS 2787 -3818 2787 -4685 0 24
DS 326 -1220 326 -39 80 24
DS 3673 -39 3673 -1220 80 24
DS 3673 -39 326 -39 80 24
DS 326 -2562 326 -1220 80 21
DS 3673 -1220 3673 -5393 80 21
DS 326 -1220 3673 -1220 80 21
DS 3673 -1220 3653 -1220 80 21
DA 582 -5433 385 -5433 4500 0 24 
DA 1448 -5433 1448 -5629 4500 0 24 
DA 1448 -5433 1645 -5433 4500 0 24 
DA 582 -5433 582 -5236 4500 0 24 
DA 582 -2952 385 -2952 4500 0 24 
DA 1448 -2952 1448 -3149 4500 0 24 
DA 1448 -2952 1645 -2952 4500 0 24 
DA 582 -2952 582 -2755 4500 0 24 
DA 2984 -4685 2984 -4881 4500 0 24 
DA 2984 -3818 3181 -3818 4500 0 24 
DA 2984 -3818 2984 -3622 4500 0 24 
DA 2984 -4685 2787 -4685 4500 0 24 
T0 -350 -1750 700 700 900 60 N V 21 N ">NAME"
T1 4150 -2100 700 700 900 60 N V 21 N ">VALUE"
$PAD
Sh "GND@1" O 787 1574 0 0 900
Dr 393 0 0 
At STD N 00CCFFFF
Ne 0 ""
Po 1015 -2952 
$EndPAD
$PAD
Sh "GND@2" O 787 1574 0 0 1800
Dr 393 0 0 
At STD N 00CCFFFF
Ne 0 ""
Po 2984 -4251 
$EndPAD
$PAD
Sh "PWR" O 787 1574 0 0 900
Dr 393 0 0 
At STD N 00CCFFFF
Ne 0 ""
Po 1015 -5433 
$EndPAD
$EndMODULE POWER_JACK_SLOT
$MODULE _markg-POWER_JACK_SMD
Po 0 0 0 15 00200000 00000000 ~~
Li _markg-POWER_JACK_SMD
Cd 
Kw 
Sc 00000000
Op 0 0 0
At SMD
DS -1968 -1771 -1968 1771 80 24
DS -1968 -1771 -1377 -1771 80 24
DS 3858 -1771 3858 1771 80 21
DS -1377 1771 -1968 1771 80 24
DS -1377 -1771 -1377 -984 80 21
DS -1377 -984 -1377 984 80 21
DS -1377 984 -1377 1771 80 21
DS -1377 -984 0 -984 80 21
DS 0 984 -1377 984 80 21
DS -1377 -1771 -787 -1771 80 21
DS 787 -1771 1614 -1771 80 21
DS 3228 -1771 3858 -1771 80 21
DS 3858 1771 3188 1771 80 21
DS 1614 1771 787 1771 80 21
DS -787 1771 -1377 1771 80 21
DA -42 -42 0 -984 4500 80 21 
DA -42 42 900 0 4500 80 21 
$PAD
Sh "GND" R 1102 944 0 0 0
Dr 0 0 0 
At SMD N 00888000
Ne 0 ""
Po 0 2244 
$EndPAD
$PAD
Sh "P$4" R 1102 944 0 0 0
Dr 0 0 0 
At SMD N 00888000
Ne 0 ""
Po 2401 2244 
$EndPAD
$PAD
Sh "VIN0" R 1102 944 0 0 0
Dr 0 0 0 
At SMD N 00888000
Ne 0 ""
Po 0 -2244 
$EndPAD
$PAD
Sh "VIN1" R 1102 944 0 0 0
Dr 0 0 0 
At SMD N 00888000
Ne 0 ""
Po 2401 -2244 
$EndPAD
$PAD
Sh "" C 800 800 0 0 0
Dr 800 0 0 
At HOLE N 00C0FFFF
Ne 0 ""
Po 0 0 
$EndPAD
$PAD
Sh "" C 800 800 0 0 0
Dr 800 0 0 
At HOLE N 00C0FFFF
Ne 0 ""
Po 1800 0 
$EndPAD
$EndMODULE POWER_JACK_SMD
$MODULE _markg-PS1240P
Po 0 0 0 15 00200000 00000000 ~~
Li _markg-PS1240P
Cd BUZZER
Kw BUZZER
Sc 00000000
Op 0 0 0
At VIRTUAL
DS 1250 -1200 1750 -1200 100 21
DS 1500 -1450 1500 -950 100 21
DC 0 0 0 -2401 60 21
DC 0 0 0 -433 60 21
DC 1500 -1200 1500 -1593 60 21
T0 2250 -3000 500 500 0 50 N V 21 N ">NAME"
T1 -250 1250 500 500 0 50 N V 21 N ">VALUE"
$PAD
Sh "+" C 660 1320 0 0 0
Dr 314 0 0 
At STD N 00CCFFFF
Ne 0 ""
Po 984 0 
$EndPAD
$PAD
Sh "-" C 660 1320 0 0 0
Dr 314 0 0 
At STD N 00CCFFFF
Ne 0 ""
Po -984 0 
$EndPAD
$EndMODULE PS1240P
$MODULE _markg-QPF64-14X14-0.8
Po 0 0 0 15 00200000 00000000 ~~
Li _markg-QPF64-14X14-0.8
Cd TQFP 64 PIN 0.8 MM PITCH
Kw TQFP 64 PIN 0.8 MM PITCH
Sc 00000000
Op 0 0 0
At SMD
DS -2362 -2755 -2362 -2362 50 24
DS -2362 -2362 -2755 -2362 50 24
DS 2362 -2755 2362 -2362 50 24
DS 2362 -2362 2755 -2362 50 24
DS -2755 2362 -2362 2362 50 24
DS -2362 2362 -2362 2755 50 24
DS 2362 2755 2362 2362 50 24
DS 2362 2362 2755 2362 50 24
DS 2657 -2657 -2460 -2657 120 21
DS -2460 -2657 -2657 -2460 120 21
DS -2657 -2460 -2657 2657 120 21
DS -2657 2657 2657 2657 120 21
DS 2657 2657 2657 -2657 120 21
DS -4750 -4500 -4250 -4500 50 24
DS -4500 -4750 -4500 -4250 50 24
DS 4250 -4500 4750 -4500 50 24
DS 4500 -4750 4500 -4250 50 24
DS 4500 4250 4500 4750 50 24
DS 4750 4500 4250 4500 50 24
DS -4250 4500 -4750 4500 50 24
DS -4500 4250 -4500 4750 50 24
DS -7000 -7250 -7000 -6750 50 24
DS -6750 -7000 -7250 -7000 50 24
DS 6750 -7000 7250 -7000 50 24
DS 7000 -7250 7000 -6750 50 24
DS 7250 7000 6750 7000 50 24
DS 7000 6750 7000 7250 50 24
DS -7000 6750 -7000 7250 50 24
DS -6750 7000 -7250 7000 50 24
DC -3149 -3149 -3149 -3306 0 21
DC -2362 -2362 -2362 -2501 0 21
T0 250 -750 500 500 0 40 N V 21 N ">NAME"
T2 -3108 -2757 240 240 0 20 N V 21 N "1"
T2 -3067 2714 240 240 0 20 N V 21 N "16"
T2 3192 2714 240 240 0 20 N V 21 N "33"
T2 3212 -2757 240 240 0 20 N V 21 N "48"
T2 -2738 -3251 240 240 900 20 N V 21 N "64"
$PAD
Sh "1" R 708 196 0 0 0
Dr 0 0 0 
At SMD N 00888000
Ne 0 ""
Po -3149 -2362 
$EndPAD
$PAD
Sh "2" R 708 196 0 0 0
Dr 0 0 0 
At SMD N 00888000
Ne 0 ""
Po -3149 -2047 
$EndPAD
$PAD
Sh "3" R 708 196 0 0 0
Dr 0 0 0 
At SMD N 00888000
Ne 0 ""
Po -3149 -1732 
$EndPAD
$PAD
Sh "4" R 708 196 0 0 0
Dr 0 0 0 
At SMD N 00888000
Ne 0 ""
Po -3149 -1417 
$EndPAD
$PAD
Sh "5" R 708 196 0 0 0
Dr 0 0 0 
At SMD N 00888000
Ne 0 ""
Po -3149 -1102 
$EndPAD
$PAD
Sh "6" R 708 196 0 0 0
Dr 0 0 0 
At SMD N 00888000
Ne 0 ""
Po -3149 -787 
$EndPAD
$PAD
Sh "7" R 708 196 0 0 0
Dr 0 0 0 
At SMD N 00888000
Ne 0 ""
Po -3149 -472 
$EndPAD
$PAD
Sh "8" R 708 196 0 0 0
Dr 0 0 0 
At SMD N 00888000
Ne 0 ""
Po -3149 -157 
$EndPAD
$PAD
Sh "9" R 708 196 0 0 0
Dr 0 0 0 
At SMD N 00888000
Ne 0 ""
Po -3149 157 
$EndPAD
$PAD
Sh "10" R 708 196 0 0 0
Dr 0 0 0 
At SMD N 00888000
Ne 0 ""
Po -3149 472 
$EndPAD
$PAD
Sh "11" R 708 196 0 0 0
Dr 0 0 0 
At SMD N 00888000
Ne 0 ""
Po -3149 787 
$EndPAD
$PAD
Sh "12" R 708 196 0 0 0
Dr 0 0 0 
At SMD N 00888000
Ne 0 ""
Po -3149 1102 
$EndPAD
$PAD
Sh "13" R 708 196 0 0 0
Dr 0 0 0 
At SMD N 00888000
Ne 0 ""
Po -3149 1417 
$EndPAD
$PAD
Sh "14" R 708 196 0 0 0
Dr 0 0 0 
At SMD N 00888000
Ne 0 ""
Po -3149 1732 
$EndPAD
$PAD
Sh "15" R 708 196 0 0 0
Dr 0 0 0 
At SMD N 00888000
Ne 0 ""
Po -3149 2047 
$EndPAD
$PAD
Sh "16" R 708 196 0 0 0
Dr 0 0 0 
At SMD N 00888000
Ne 0 ""
Po -3149 2362 
$EndPAD
$PAD
Sh "17" R 708 196 0 0 900
Dr 0 0 0 
At SMD N 00888000
Ne 0 ""
Po -2362 3149 
$EndPAD
$PAD
Sh "18" R 708 196 0 0 900
Dr 0 0 0 
At SMD N 00888000
Ne 0 ""
Po -2047 3149 
$EndPAD
$PAD
Sh "19" R 708 196 0 0 900
Dr 0 0 0 
At SMD N 00888000
Ne 0 ""
Po -1732 3149 
$EndPAD
$PAD
Sh "20" R 708 196 0 0 900
Dr 0 0 0 
At SMD N 00888000
Ne 0 ""
Po -1417 3149 
$EndPAD
$PAD
Sh "21" R 708 196 0 0 900
Dr 0 0 0 
At SMD N 00888000
Ne 0 ""
Po -1102 3149 
$EndPAD
$PAD
Sh "22" R 708 196 0 0 900
Dr 0 0 0 
At SMD N 00888000
Ne 0 ""
Po -787 3149 
$EndPAD
$PAD
Sh "23" R 708 196 0 0 900
Dr 0 0 0 
At SMD N 00888000
Ne 0 ""
Po -472 3149 
$EndPAD
$PAD
Sh "24" R 708 196 0 0 900
Dr 0 0 0 
At SMD N 00888000
Ne 0 ""
Po -157 3149 
$EndPAD
$PAD
Sh "25" R 708 196 0 0 900
Dr 0 0 0 
At SMD N 00888000
Ne 0 ""
Po 157 3149 
$EndPAD
$PAD
Sh "26" R 708 196 0 0 900
Dr 0 0 0 
At SMD N 00888000
Ne 0 ""
Po 472 3149 
$EndPAD
$PAD
Sh "27" R 708 196 0 0 900
Dr 0 0 0 
At SMD N 00888000
Ne 0 ""
Po 787 3149 
$EndPAD
$PAD
Sh "28" R 708 196 0 0 900
Dr 0 0 0 
At SMD N 00888000
Ne 0 ""
Po 1102 3149 
$EndPAD
$PAD
Sh "29" R 708 196 0 0 900
Dr 0 0 0 
At SMD N 00888000
Ne 0 ""
Po 1417 3149 
$EndPAD
$PAD
Sh "30" R 708 196 0 0 900
Dr 0 0 0 
At SMD N 00888000
Ne 0 ""
Po 1732 3149 
$EndPAD
$PAD
Sh "31" R 708 196 0 0 900
Dr 0 0 0 
At SMD N 00888000
Ne 0 ""
Po 2047 3149 
$EndPAD
$PAD
Sh "32" R 708 196 0 0 900
Dr 0 0 0 
At SMD N 00888000
Ne 0 ""
Po 2362 3149 
$EndPAD
$PAD
Sh "33" R 708 196 0 0 1800
Dr 0 0 0 
At SMD N 00888000
Ne 0 ""
Po 3149 2362 
$EndPAD
$PAD
Sh "34" R 708 196 0 0 1800
Dr 0 0 0 
At SMD N 00888000
Ne 0 ""
Po 3149 2047 
$EndPAD
$PAD
Sh "35" R 708 196 0 0 1800
Dr 0 0 0 
At SMD N 00888000
Ne 0 ""
Po 3149 1732 
$EndPAD
$PAD
Sh "36" R 708 196 0 0 1800
Dr 0 0 0 
At SMD N 00888000
Ne 0 ""
Po 3149 1417 
$EndPAD
$PAD
Sh "37" R 708 196 0 0 1800
Dr 0 0 0 
At SMD N 00888000
Ne 0 ""
Po 3149 1102 
$EndPAD
$PAD
Sh "38" R 708 196 0 0 1800
Dr 0 0 0 
At SMD N 00888000
Ne 0 ""
Po 3149 787 
$EndPAD
$PAD
Sh "39" R 708 196 0 0 1800
Dr 0 0 0 
At SMD N 00888000
Ne 0 ""
Po 3149 472 
$EndPAD
$PAD
Sh "40" R 708 196 0 0 1800
Dr 0 0 0 
At SMD N 00888000
Ne 0 ""
Po 3149 157 
$EndPAD
$PAD
Sh "41" R 708 196 0 0 1800
Dr 0 0 0 
At SMD N 00888000
Ne 0 ""
Po 3149 -157 
$EndPAD
$PAD
Sh "42" R 708 196 0 0 1800
Dr 0 0 0 
At SMD N 00888000
Ne 0 ""
Po 3149 -472 
$EndPAD
$PAD
Sh "43" R 708 196 0 0 1800
Dr 0 0 0 
At SMD N 00888000
Ne 0 ""
Po 3149 -787 
$EndPAD
$PAD
Sh "44" R 708 196 0 0 1800
Dr 0 0 0 
At SMD N 00888000
Ne 0 ""
Po 3149 -1102 
$EndPAD
$PAD
Sh "45" R 708 196 0 0 1800
Dr 0 0 0 
At SMD N 00888000
Ne 0 ""
Po 3149 -1417 
$EndPAD
$PAD
Sh "46" R 708 196 0 0 1800
Dr 0 0 0 
At SMD N 00888000
Ne 0 ""
Po 3149 -1732 
$EndPAD
$PAD
Sh "47" R 708 196 0 0 1800
Dr 0 0 0 
At SMD N 00888000
Ne 0 ""
Po 3149 -2047 
$EndPAD
$PAD
Sh "48" R 708 196 0 0 1800
Dr 0 0 0 
At SMD N 00888000
Ne 0 ""
Po 3149 -2362 
$EndPAD
$PAD
Sh "49" R 708 196 0 0 2700
Dr 0 0 0 
At SMD N 00888000
Ne 0 ""
Po 2362 -3149 
$EndPAD
$PAD
Sh "50" R 708 196 0 0 2700
Dr 0 0 0 
At SMD N 00888000
Ne 0 ""
Po 2047 -3149 
$EndPAD
$PAD
Sh "51" R 708 196 0 0 2700
Dr 0 0 0 
At SMD N 00888000
Ne 0 ""
Po 1732 -3149 
$EndPAD
$PAD
Sh "52" R 708 196 0 0 2700
Dr 0 0 0 
At SMD N 00888000
Ne 0 ""
Po 1417 -3149 
$EndPAD
$PAD
Sh "53" R 708 196 0 0 2700
Dr 0 0 0 
At SMD N 00888000
Ne 0 ""
Po 1102 -3149 
$EndPAD
$PAD
Sh "54" R 708 196 0 0 2700
Dr 0 0 0 
At SMD N 00888000
Ne 0 ""
Po 787 -3149 
$EndPAD
$PAD
Sh "55" R 708 196 0 0 2700
Dr 0 0 0 
At SMD N 00888000
Ne 0 ""
Po 472 -3149 
$EndPAD
$PAD
Sh "56" R 708 196 0 0 2700
Dr 0 0 0 
At SMD N 00888000
Ne 0 ""
Po 157 -3149 
$EndPAD
$PAD
Sh "57" R 708 196 0 0 2700
Dr 0 0 0 
At SMD N 00888000
Ne 0 ""
Po -157 -3149 
$EndPAD
$PAD
Sh "58" R 708 196 0 0 2700
Dr 0 0 0 
At SMD N 00888000
Ne 0 ""
Po -472 -3149 
$EndPAD
$PAD
Sh "59" R 708 196 0 0 2700
Dr 0 0 0 
At SMD N 00888000
Ne 0 ""
Po -787 -3149 
$EndPAD
$PAD
Sh "60" R 708 196 0 0 2700
Dr 0 0 0 
At SMD N 00888000
Ne 0 ""
Po -1102 -3149 
$EndPAD
$PAD
Sh "61" R 708 196 0 0 2700
Dr 0 0 0 
At SMD N 00888000
Ne 0 ""
Po -1417 -3149 
$EndPAD
$PAD
Sh "62" R 708 196 0 0 2700
Dr 0 0 0 
At SMD N 00888000
Ne 0 ""
Po -1732 -3149 
$EndPAD
$PAD
Sh "63" R 708 196 0 0 2700
Dr 0 0 0 
At SMD N 00888000
Ne 0 ""
Po -2047 -3149 
$EndPAD
$PAD
Sh "64" R 708 196 0 0 2700
Dr 0 0 0 
At SMD N 00888000
Ne 0 ""
Po -2362 -3149 
$EndPAD
$EndMODULE QPF64-14X14-0.8
$MODULE _markg-RCA
Po 0 0 0 15 00200000 00000000 ~~
Li _markg-RCA
Cd 
Kw 
Sc 00000000
Op 0 0 0
At VIRTUAL
DS -1574 -1968 -1574 1968 80 24
DS -1574 1968 2283 1968 80 24
DS 2283 1968 2283 -1968 80 24
DS 2283 -1968 -1574 -1968 80 24
DS -1574 -1574 -5275 -1574 80 24
DS -5275 -1574 -5275 1574 80 24
DS -5275 1574 -1574 1574 80 24
DS -787 -1968 787 -1968 80 21
DS 2283 -1968 2283 1968 80 21
DS -787 1968 787 1968 80 21
DS -1574 -1181 -1574 1181 80 21
$PAD
Sh "BARREL" C 1305 1305 0 0 0
Dr 905 0 0 
At STD N 00CCFFFF
Ne 0 ""
Po 0 0 
$EndPAD
$PAD
Sh "BREAK" C 1305 1305 0 0 0
Dr 905 0 0 
At STD N 00CCFFFF
Ne 0 ""
Po 1456 -1456 
$EndPAD
$PAD
Sh "SPRING" C 1305 1305 0 0 0
Dr 905 0 0 
At STD N 00CCFFFF
Ne 0 ""
Po 1456 1456 
$EndPAD
$PAD
Sh "" C 826 826 0 0 0
Dr 826 0 0 
At HOLE N 00C0FFFF
Ne 0 ""
Po -1220 -1673 
$EndPAD
$PAD
Sh "" C 826 826 0 0 0
Dr 826 0 0 
At HOLE N 00C0FFFF
Ne 0 ""
Po -1220 1673 
$EndPAD
$EndMODULE RCA
$MODULE _markg-RCA_LOCK
Po 0 0 0 15 00200000 00000000 ~~
Li _markg-RCA_LOCK
Cd 
Kw 
Sc 00000000
Op 0 0 0
At VIRTUAL
DS -1520 -1370 -930 -1370 26 24
DS -930 -1370 -930 -1960 26 24
DS -1520 -1960 -930 -1960 26 24
DS -1520 -1370 -1520 -1960 26 24
DS -1520 1980 -930 1980 26 24
DS -930 1980 -930 1390 26 24
DS -1520 1390 -930 1390 26 24
DS -1520 1980 -1520 1390 26 24
DS -490 440 100 440 26 24
DS 100 440 100 -440 26 24
DS -490 -440 100 -440 26 24
DS -490 440 -490 -440 26 24
DS 1130 1530 2010 1530 26 24
DS 2010 1530 2010 1390 26 24
DS 1130 1390 2010 1390 26 24
DS 1130 1530 1130 1390 26 24
DS 1130 -1370 2010 -1370 26 24
DS 2010 -1370 2010 -1510 26 24
DS 1130 -1510 2010 -1510 26 24
DS 1130 -1370 1130 -1510 26 24
DS -1574 -1968 -1574 1968 80 24
DS -1574 1968 2283 1968 80 24
DS 2283 1968 2283 -1968 80 24
DS 2283 -1968 -1574 -1968 80 24
DS -1574 -1574 -5275 -1574 80 24
DS -5275 -1574 -5275 1574 80 24
DS -5275 1574 -1574 1574 80 24
DS -787 -1968 787 -1968 80 21
DS 2283 -1968 2283 1968 80 21
DS -787 1968 787 1968 80 21
DS -1574 -1181 -1574 1181 80 21
DS 1760 1380 1130 1380 10 24
DS 1760 -1360 1130 -1360 10 24
$PAD
Sh "BARREL" C 1305 1305 0 0 0
Dr 905 0 0 
At STD N 00CCFFFF
Ne 0 ""
Po 80 0 
$EndPAD
$PAD
Sh "BREAK" C 1305 1305 0 0 0
Dr 905 0 0 
At STD N 00CCFFFF
Ne 0 ""
Po 1586 -1496 
$EndPAD
$PAD
Sh "SPRING" C 1305 1305 0 0 0
Dr 905 0 0 
At STD N 00CCFFFF
Ne 0 ""
Po 1586 1506 
$EndPAD
$PAD
Sh "" C 840 840 0 0 0
Dr 840 0 0 
At HOLE N 00C0FFFF
Ne 0 ""
Po -1220 -1673 
$EndPAD
$PAD
Sh "" C 840 840 0 0 0
Dr 840 0 0 
At HOLE N 00C0FFFF
Ne 0 ""
Po -1220 1673 
$EndPAD
$EndMODULE RCA_LOCK
$MODULE _markg-RFM12B
Po 0 0 0 15 00200000 00000000 ~~
Li _markg-RFM12B
Cd RFM12B RADIO MODULE BY HOPERF
Kw RFM12B RADIO MODULE BY HOPERF
Sc 00000000
Op 0 0 0
At SMD
DS -2000 2500 2000 2500 26 24
DS 2000 2500 2000 -2500 26 24
DS -2000 -2500 2000 -2500 26 24
DS -2000 2500 -2000 -2500 26 24
DS -2952 3248 2952 3248 50 21
DS 2952 -3248 -2952 -3248 50 21
DS -2250 1250 -2250 -250 50 21
DS -2250 -250 -1250 -250 50 21
DS -1250 -250 -1250 1250 50 21
DS -1250 1250 -2250 1250 50 21
T0 -250 -3750 500 500 0 80 N V 21 N ">NAME"
T1 -500 3750 500 500 0 80 N V 21 N ">VALUE"
T2 1600 2300 400 400 0 60 N V 21 N "ANT"
T2 1600 1550 400 400 0 60 N V 21 N "VCC"
T2 1600 800 400 400 0 60 N V 21 N "GND"
T2 -1400 2300 400 400 0 60 N V 21 N "GND"
T2 -4140 -2370 240 240 0 20 N V 21 N "SDO"
T2 -4020 -1620 240 240 0 20 N V 21 N "!IRQ"
T2 4360 -869 240 240 0 20 N V 21 N "SDI"
T2 4360 -1620 240 240 0 20 N V 21 N "SCK"
T2 4360 -2370 240 240 0 20 N V 21 N "!CS"
T2 -4140 880 240 240 0 20 N V 21 N "CLK"
$PAD
Sh "!FFS" R 1000 500 0 0 0
Dr 0 0 0 
At SMD N 00888000
Ne 0 ""
Po -3149 -787 
$EndPAD
$PAD
Sh "!INT" R 1000 500 0 0 0
Dr 0 0 0 
At SMD N 00888000
Ne 0 ""
Po 3149 0 
$EndPAD
$PAD
Sh "!IRQ" R 1000 500 0 0 0
Dr 0 0 0 
At SMD N 00888000
Ne 0 ""
Po -3149 -1574 
$EndPAD
$PAD
Sh "!RES" R 1000 500 0 0 0
Dr 0 0 0 
At SMD N 00888000
Ne 0 ""
Po -3149 1574 
$EndPAD
$PAD
Sh "!SEL" R 1000 500 0 0 0
Dr 0 0 0 
At SMD N 00888000
Ne 0 ""
Po 3149 -2362 
$EndPAD
$PAD
Sh "ANT" R 1000 500 0 0 0
Dr 0 0 0 
At SMD N 00888000
Ne 0 ""
Po 3149 2362 
$EndPAD
$PAD
Sh "CLK" R 1000 500 0 0 0
Dr 0 0 0 
At SMD N 00888000
Ne 0 ""
Po -3149 787 
$EndPAD
$PAD
Sh "FFIT" R 1000 500 0 0 0
Dr 0 0 0 
At SMD N 00888000
Ne 0 ""
Po -3149 0 
$EndPAD
$PAD
Sh "GND@1" R 1000 500 0 0 0
Dr 0 0 0 
At SMD N 00888000
Ne 0 ""
Po 3149 787 
$EndPAD
$PAD
Sh "GND@2" R 1000 500 0 0 0
Dr 0 0 0 
At SMD N 00888000
Ne 0 ""
Po -3149 2362 
$EndPAD
$PAD
Sh "SCK" R 1000 500 0 0 0
Dr 0 0 0 
At SMD N 00888000
Ne 0 ""
Po 3149 -1574 
$EndPAD
$PAD
Sh "SDI" R 1000 500 0 0 0
Dr 0 0 0 
At SMD N 00888000
Ne 0 ""
Po 3149 -787 
$EndPAD
$PAD
Sh "SDO" R 1000 500 0 0 0
Dr 0 0 0 
At SMD N 00888000
Ne 0 ""
Po -3149 -2362 
$EndPAD
$PAD
Sh "VDD" R 1000 500 0 0 0
Dr 0 0 0 
At SMD N 00888000
Ne 0 ""
Po 3149 1574 
$EndPAD
$EndMODULE RFM12B
$MODULE _markg-SOT-23
Po 0 0 0 15 00200000 00000000 ~~
Li _markg-SOT-23
Cd SMALL OUTLINE TRANSISTOR
Kw SMALL OUTLINE TRANSISTOR
Sc 00000000
Op 0 0 0
At SMD
DS 310 -170 460 -170 26 24
DS 460 -170 460 -370 26 24
DS 310 -370 460 -370 26 24
DS 310 -170 310 -370 26 24
DS -450 -170 -300 -170 26 24
DS -300 -170 -300 -370 26 24
DS -450 -370 -300 -370 26 24
DS -450 -170 -450 -370 26 24
DS -70 370 80 370 26 24
DS 80 370 80 170 26 24
DS -70 170 80 170 26 24
DS -70 370 -70 170 26 24
DS -560 -150 580 -150 60 21
DS 580 -150 580 150 60 21
DS 580 150 -560 150 60 21
DS -560 150 -560 -150 60 21
T0 700 -1550 500 500 0 50 N V 21 N ">NAME"
T1 950 -950 500 500 0 50 N V 21 N ">VALUE"
$PAD
Sh "1" R 310 350 0 0 0
Dr 0 0 0 
At SMD N 00888000
Ne 0 ""
Po 10 400 
$EndPAD
$PAD
Sh "2" R 310 350 0 0 0
Dr 0 0 0 
At SMD N 00888000
Ne 0 ""
Po -370 -400 
$EndPAD
$PAD
Sh "3" R 310 350 0 0 0
Dr 0 0 0 
At SMD N 00888000
Ne 0 ""
Po 390 -400 
$EndPAD
$EndMODULE SOT-23
$MODULE _markg-SOT23
Po 0 0 0 15 00200000 00000000 ~~
Li _markg-SOT23
Cd SMALL OUTLINE TRANSISTOR
Kw SMALL OUTLINE TRANSISTOR
Sc 00000000
Op 0 0 0
At SMD
DS -90 -280 90 -280 26 24
DS 90 -280 90 -509 26 24
DS -90 -509 90 -509 26 24
DS -90 -280 -90 -509 26 24
DS 280 509 460 509 26 24
DS 460 509 460 280 26 24
DS 280 280 460 280 26 24
DS 280 509 280 280 26 24
DS -460 509 -280 509 26 24
DS -280 509 -280 280 26 24
DS -460 280 -280 280 26 24
DS -460 509 -460 280 26 24
DS -196 118 196 118 26 21
DS 196 118 196 -118 26 21
DS -196 -118 196 -118 26 21
DS -196 118 -196 -118 26 21
DS -776 -780 776 -780 20 24
DS 776 780 -776 780 20 24
DS -776 780 -776 -780 20 24
DS 776 -780 776 780 20 24
DS 559 -259 559 259 60 24
DS 559 259 -559 259 60 24
DS -559 259 -559 -259 60 24
DS -559 -259 559 -259 60 24
DS -559 59 -559 -259 60 21
DS -559 -259 -340 -259 60 21
DS 340 -259 559 -259 60 21
DS 559 -259 559 59 60 21
T0 500 -1000 500 500 0 40 N V 21 N ">NAME"
T1 750 1000 500 500 0 40 N V 21 N ">VALUE"
$PAD
Sh "1" R 393 551 0 0 0
Dr 0 0 0 
At SMD N 00888000
Ne 0 ""
Po -374 433 
$EndPAD
$PAD
Sh "2" R 393 551 0 0 0
Dr 0 0 0 
At SMD N 00888000
Ne 0 ""
Po 374 433 
$EndPAD
$PAD
Sh "3" R 393 551 0 0 0
Dr 0 0 0 
At SMD N 00888000
Ne 0 ""
Po 0 -433 
$EndPAD
$EndMODULE SOT23
$MODULE _markg-SOT223
Po 0 0 0 15 00200000 00000000 ~~
Li _markg-SOT223
Cd SMALL OUTLINE TRANSISTOR
Kw SMALL OUTLINE TRANSISTOR
Sc 00000000
Op 0 0 0
At SMD
DS -630 -709 630 -709 26 24
DS 630 -709 630 -1440 26 24
DS -630 -1440 630 -1440 26 24
DS -630 -709 -630 -1440 26 24
DS -170 1440 170 1440 26 24
DS 170 1440 170 709 26 24
DS -170 709 170 709 26 24
DS -170 1440 -170 709 26 24
DS -1080 1440 -740 1440 26 24
DS -740 1440 -740 709 26 24
DS -1080 709 -740 709 26 24
DS -1080 1440 -1080 709 26 24
DS 740 1440 1080 1440 26 24
DS 1080 1440 1080 709 26 24
DS 740 709 1080 709 26 24
DS 740 1440 740 709 26 24
DS -630 -709 630 -709 26 24
DS 630 -709 630 -1440 26 24
DS -630 -1440 630 -1440 26 24
DS -630 -709 -630 -1440 26 24
DS -170 1440 170 1440 26 24
DS 170 1440 170 709 26 24
DS -170 709 170 709 26 24
DS -170 1440 -170 709 26 24
DS -1080 1440 -740 1440 26 24
DS -740 1440 -740 709 26 24
DS -1080 709 -740 709 26 24
DS -1080 1440 -1080 709 26 24
DS 740 1440 1080 1440 26 24
DS 1080 1440 1080 709 26 24
DS 740 709 1080 709 26 24
DS 740 1440 740 709 26 24
DS 1290 -700 1290 700 80 21
DS 1290 700 -1290 700 80 21
DS -1290 700 -1290 -700 80 21
DS -1290 -700 1290 -700 80 21
T0 250 -270 500 500 0 40 N V 21 N ">NAME"
T1 500 270 500 500 0 40 N V 21 N ">VALUE"
$PAD
Sh "1" R 480 880 0 0 0
Dr 0 0 0 
At SMD N 00888000
Ne 0 ""
Po -910 1220 
$EndPAD
$PAD
Sh "2" R 480 880 0 0 0
Dr 0 0 0 
At SMD N 00888000
Ne 0 ""
Po 0 1220 
$EndPAD
$PAD
Sh "3" R 480 880 0 0 0
Dr 0 0 0 
At SMD N 00888000
Ne 0 ""
Po 910 1220 
$EndPAD
$PAD
Sh "4" R 1417 866 0 0 0
Dr 0 0 0 
At SMD N 00888000
Ne 0 ""
Po 0 -1220 
$EndPAD
$EndMODULE SOT223
$MODULE _markg-SWITCH-TILT-RB231X2
Po 0 0 0 15 00200000 00000000 ~~
Li _markg-SWITCH-TILT-RB231X2
Cd TILT SWITCH - MECHANICAL
Kw TILT SWITCH - MECHANICAL
Sc 00000000
Op 0 0 0
At VIRTUAL
DS 708 984 708 -984 50 24
DS 708 -984 864 -984 50 24
DS 934 -954 944 -944 50 24
DS 708 984 864 984 50 24
DS 934 954 944 944 50 24
DS 944 944 944 787 50 24
DS 944 787 944 -787 50 24
DS 944 -787 944 -944 50 24
DS 944 787 1574 787 50 24
DS 1574 -787 944 -787 50 24
DS 1574 -787 5511 -787 50 21
DS 5511 -787 5511 787 50 21
DS 5511 787 1574 787 50 21
DS 0 0 -250 0 50 21
DS 750 0 0 0 50 24
DS -250 0 -500 0 50 24
DA 864 -884 864 -984 4049 50 24 
DA 864 884 934 954 4049 50 24 
T0 3005 -1250 500 500 0 40 N V 21 N ">NAME"
$PAD
Sh "PIN" O 593 1187 0 0 900
Dr 393 0 0 
At STD N 00CCFFFF
Ne 0 ""
Po -944 0 
$EndPAD
$PAD
Sh "TAB" C 1659 3319 0 0 0
Dr 1259 0 0 
At STD N 00CCFFFF
Ne 0 ""
Po 964 0 
$EndPAD
$EndMODULE SWITCH-TILT-RB231X2
$MODULE _markg-TACTILE-PTH-02IN
Po 0 0 0 15 00200000 00000000 ~~
Li _markg-TACTILE-PTH-02IN
Cd C&K TACTILE SWITCH: KSL0V
Kw C&K TACTILE SWITCH: KSL0V
Sc 00000000
Op 0 0 0
At VIRTUAL
DS -500 3375 500 3375 50 21
DS 500 3375 500 875 50 21
DS -500 3375 -500 875 50 21
DS 1500 -500 1500 500 50 21
DS 1500 500 1000 500 50 21
DS 1000 500 1000 875 50 21
DS 1000 875 -1000 875 50 21
DS -1000 875 -1000 500 50 21
DS -1000 500 -1500 500 50 21
DS -1500 500 -1500 -500 50 21
T0 750 -1250 500 500 0 40 N V 21 N ">NAME"
$PAD
Sh "1" C 554 554 0 0 0
Dr 354 0 0 
At STD N 00CCFFFF
Ne 0 ""
Po -1000 0 
$EndPAD
$PAD
Sh "2" C 554 554 0 0 0
Dr 354 0 0 
At STD N 00CCFFFF
Ne 0 ""
Po 1000 0 
$EndPAD
$PAD
Sh "3" C 708 708 0 0 0
Dr 472 0 0 
At STD N 00CCFFFF
Ne 0 ""
Po 1500 -1000 
$EndPAD
$PAD
Sh "4" C 708 708 0 0 0
Dr 472 0 0 
At STD N 00CCFFFF
Ne 0 ""
Po -1500 -1000 
$EndPAD
$EndMODULE TACTILE-PTH-02IN
$MODULE _markg-TO92-IR-SIDELOOKER
Po 0 0 0 15 00200000 00000000 ~~
Li _markg-TO92-IR-SIDELOOKER
Cd 
Kw 
Sc 00000000
Op 0 0 0
At VIRTUAL
DS -900 400 900 400 80 21
DS 900 400 900 -700 80 21
DS 900 -700 500 -700 80 21
DS 500 -700 -500 -700 80 21
DS -500 -700 -900 -700 80 21
DS -900 -700 -900 400 80 21
DS -500 -700 -500 -400 80 21
DS -500 -400 -300 -400 80 21
DS -300 -400 300 -400 80 21
DS 300 -400 500 -400 80 21
DS 500 -400 500 -700 80 21
DS -900 -700 -500 -700 50 24
DS -500 -700 500 -700 50 24
DS 500 -700 900 -700 50 24
DS 900 -700 900 400 50 24
DS 900 400 -900 400 50 24
DS -900 400 -900 -700 50 24
DS -500 -700 -500 -400 50 24
DS -500 -400 500 -400 50 24
DS 500 -400 500 -700 50 24
DS 0 -500 0 -1000 50 24
DS 0 500 0 1000 50 24
DA 0 -400 -300 -400 5400 80 21 
T0 250 -1250 500 500 0 40 N V 21 N ">NAME"
T1 500 750 500 500 0 40 N V 21 N ">VALUE"
$PAD
Sh "A" C 554 554 0 0 0
Dr 354 0 0 
At STD N 00CCFFFF
Ne 0 ""
Po -500 0 
$EndPAD
$PAD
Sh "C" C 554 554 0 0 0
Dr 354 0 0 
At STD N 00CCFFFF
Ne 0 ""
Po 500 0 
$EndPAD
$EndMODULE TO92-IR-SIDELOOKER
$MODULE _markg-TQFP64-10X10X1MM
Po 0 0 0 15 00200000 00000000 ~~
Li _markg-TQFP64-10X10X1MM
Cd 64-LEAD PLASTIC THIN QUAD FLATPAK (PT) - 10X10X1 MM BODY
Kw 64-LEAD PLASTIC THIN QUAD FLATPAK (PT) - 10X10X1 MM BODY
Sc 00000000
Op 0 0 0
At SMD
DS -2362 -1421 -1968 -1421 26 24
DS -1968 -1421 -1968 -1531 26 24
DS -2362 -1531 -1968 -1531 26 24
DS -2362 -1421 -2362 -1531 26 24
DS -2362 -1224 -1968 -1224 26 24
DS -1968 -1224 -1968 -1334 26 24
DS -2362 -1334 -1968 -1334 26 24
DS -2362 -1224 -2362 -1334 26 24
DS -2362 -1027 -1968 -1027 26 24
DS -1968 -1027 -1968 -1137 26 24
DS -2362 -1137 -1968 -1137 26 24
DS -2362 -1027 -2362 -1137 26 24
DS -2362 -830 -1968 -830 26 24
DS -1968 -830 -1968 -940 26 24
DS -2362 -940 -1968 -940 26 24
DS -2362 -830 -2362 -940 26 24
DS -2362 -633 -1968 -633 26 24
DS -1968 -633 -1968 -744 26 24
DS -2362 -744 -1968 -744 26 24
DS -2362 -633 -2362 -744 26 24
DS -2362 -437 -1968 -437 26 24
DS -1968 -437 -1968 -547 26 24
DS -2362 -547 -1968 -547 26 24
DS -2362 -437 -2362 -547 26 24
DS -2362 -240 -1968 -240 26 24
DS -1968 -240 -1968 -350 26 24
DS -2362 -350 -1968 -350 26 24
DS -2362 -240 -2362 -350 26 24
DS -2362 -43 -1968 -43 26 24
DS -1968 -43 -1968 -153 26 24
DS -2362 -153 -1968 -153 26 24
DS -2362 -43 -2362 -153 26 24
DS -2362 153 -1968 153 26 24
DS -1968 153 -1968 43 26 24
DS -2362 43 -1968 43 26 24
DS -2362 153 -2362 43 26 24
DS -2362 350 -1968 350 26 24
DS -1968 350 -1968 240 26 24
DS -2362 240 -1968 240 26 24
DS -2362 350 -2362 240 26 24
DS -2362 547 -1968 547 26 24
DS -1968 547 -1968 437 26 24
DS -2362 437 -1968 437 26 24
DS -2362 547 -2362 437 26 24
DS -2362 744 -1968 744 26 24
DS -1968 744 -1968 633 26 24
DS -2362 633 -1968 633 26 24
DS -2362 744 -2362 633 26 24
DS -2362 940 -1968 940 26 24
DS -1968 940 -1968 830 26 24
DS -2362 830 -1968 830 26 24
DS -2362 940 -2362 830 26 24
DS -2362 1137 -1968 1137 26 24
DS -1968 1137 -1968 1027 26 24
DS -2362 1027 -1968 1027 26 24
DS -2362 1137 -2362 1027 26 24
DS -2362 1334 -1968 1334 26 24
DS -1968 1334 -1968 1224 26 24
DS -2362 1224 -1968 1224 26 24
DS -2362 1334 -2362 1224 26 24
DS -2362 1531 -1968 1531 26 24
DS -1968 1531 -1968 1421 26 24
DS -2362 1421 -1968 1421 26 24
DS -2362 1531 -2362 1421 26 24
DS -1531 2362 -1421 2362 26 24
DS -1421 2362 -1421 1968 26 24
DS -1531 1968 -1421 1968 26 24
DS -1531 2362 -1531 1968 26 24
DS -1334 2362 -1224 2362 26 24
DS -1224 2362 -1224 1968 26 24
DS -1334 1968 -1224 1968 26 24
DS -1334 2362 -1334 1968 26 24
DS -1137 2362 -1027 2362 26 24
DS -1027 2362 -1027 1968 26 24
DS -1137 1968 -1027 1968 26 24
DS -1137 2362 -1137 1968 26 24
DS -940 2362 -830 2362 26 24
DS -830 2362 -830 1968 26 24
DS -940 1968 -830 1968 26 24
DS -940 2362 -940 1968 26 24
DS -744 2362 -633 2362 26 24
DS -633 2362 -633 1968 26 24
DS -744 1968 -633 1968 26 24
DS -744 2362 -744 1968 26 24
DS -547 2362 -437 2362 26 24
DS -437 2362 -437 1968 26 24
DS -547 1968 -437 1968 26 24
DS -547 2362 -547 1968 26 24
DS -350 2362 -240 2362 26 24
DS -240 2362 -240 1968 26 24
DS -350 1968 -240 1968 26 24
DS -350 2362 -350 1968 26 24
DS -153 2362 -43 2362 26 24
DS -43 2362 -43 1968 26 24
DS -153 1968 -43 1968 26 24
DS -153 2362 -153 1968 26 24
DS 43 2362 153 2362 26 24
DS 153 2362 153 1968 26 24
DS 43 1968 153 1968 26 24
DS 43 2362 43 1968 26 24
DS 240 2362 350 2362 26 24
DS 350 2362 350 1968 26 24
DS 240 1968 350 1968 26 24
DS 240 2362 240 1968 26 24
DS 437 2362 547 2362 26 24
DS 547 2362 547 1968 26 24
DS 437 1968 547 1968 26 24
DS 437 2362 437 1968 26 24
DS 633 2362 744 2362 26 24
DS 744 2362 744 1968 26 24
DS 633 1968 744 1968 26 24
DS 633 2362 633 1968 26 24
DS 830 2362 940 2362 26 24
DS 940 2362 940 1968 26 24
DS 830 1968 940 1968 26 24
DS 830 2362 830 1968 26 24
DS 1027 2362 1137 2362 26 24
DS 1137 2362 1137 1968 26 24
DS 1027 1968 1137 1968 26 24
DS 1027 2362 1027 1968 26 24
DS 1224 2362 1334 2362 26 24
DS 1334 2362 1334 1968 26 24
DS 1224 1968 1334 1968 26 24
DS 1224 2362 1224 1968 26 24
DS 1421 2362 1531 2362 26 24
DS 1531 2362 1531 1968 26 24
DS 1421 1968 1531 1968 26 24
DS 1421 2362 1421 1968 26 24
DS 1968 1531 2362 1531 26 24
DS 2362 1531 2362 1421 26 24
DS 1968 1421 2362 1421 26 24
DS 1968 1531 1968 1421 26 24
DS 1968 1334 2362 1334 26 24
DS 2362 1334 2362 1224 26 24
DS 1968 1224 2362 1224 26 24
DS 1968 1334 1968 1224 26 24
DS 1968 1137 2362 1137 26 24
DS 2362 1137 2362 1027 26 24
DS 1968 1027 2362 1027 26 24
DS 1968 1137 1968 1027 26 24
DS 1968 940 2362 940 26 24
DS 2362 940 2362 830 26 24
DS 1968 830 2362 830 26 24
DS 1968 940 1968 830 26 24
DS 1968 744 2362 744 26 24
DS 2362 744 2362 633 26 24
DS 1968 633 2362 633 26 24
DS 1968 744 1968 633 26 24
DS 1968 547 2362 547 26 24
DS 2362 547 2362 437 26 24
DS 1968 437 2362 437 26 24
DS 1968 547 1968 437 26 24
DS 1968 350 2362 350 26 24
DS 2362 350 2362 240 26 24
DS 1968 240 2362 240 26 24
DS 1968 350 1968 240 26 24
DS 1968 153 2362 153 26 24
DS 2362 153 2362 43 26 24
DS 1968 43 2362 43 26 24
DS 1968 153 1968 43 26 24
DS 1968 -43 2362 -43 26 24
DS 2362 -43 2362 -153 26 24
DS 1968 -153 2362 -153 26 24
DS 1968 -43 1968 -153 26 24
DS 1968 -240 2362 -240 26 24
DS 2362 -240 2362 -350 26 24
DS 1968 -350 2362 -350 26 24
DS 1968 -240 1968 -350 26 24
DS 1968 -437 2362 -437 26 24
DS 2362 -437 2362 -547 26 24
DS 1968 -547 2362 -547 26 24
DS 1968 -437 1968 -547 26 24
DS 1968 -633 2362 -633 26 24
DS 2362 -633 2362 -744 26 24
DS 1968 -744 2362 -744 26 24
DS 1968 -633 1968 -744 26 24
DS 1968 -830 2362 -830 26 24
DS 2362 -830 2362 -940 26 24
DS 1968 -940 2362 -940 26 24
DS 1968 -830 1968 -940 26 24
DS 1968 -1027 2362 -1027 26 24
DS 2362 -1027 2362 -1137 26 24
DS 1968 -1137 2362 -1137 26 24
DS 1968 -1027 1968 -1137 26 24
DS 1968 -1224 2362 -1224 26 24
DS 2362 -1224 2362 -1334 26 24
DS 1968 -1334 2362 -1334 26 24
DS 1968 -1224 1968 -1334 26 24
DS 1968 -1421 2362 -1421 26 24
DS 2362 -1421 2362 -1531 26 24
DS 1968 -1531 2362 -1531 26 24
DS 1968 -1421 1968 -1531 26 24
DS 1421 -1968 1531 -1968 26 24
DS 1531 -1968 1531 -2362 26 24
DS 1421 -2362 1531 -2362 26 24
DS 1421 -1968 1421 -2362 26 24
DS 1224 -1968 1334 -1968 26 24
DS 1334 -1968 1334 -2362 26 24
DS 1224 -2362 1334 -2362 26 24
DS 1224 -1968 1224 -2362 26 24
DS 1027 -1968 1137 -1968 26 24
DS 1137 -1968 1137 -2362 26 24
DS 1027 -2362 1137 -2362 26 24
DS 1027 -1968 1027 -2362 26 24
DS 830 -1968 940 -1968 26 24
DS 940 -1968 940 -2362 26 24
DS 830 -2362 940 -2362 26 24
DS 830 -1968 830 -2362 26 24
DS 633 -1968 744 -1968 26 24
DS 744 -1968 744 -2362 26 24
DS 633 -2362 744 -2362 26 24
DS 633 -1968 633 -2362 26 24
DS 437 -1968 547 -1968 26 24
DS 547 -1968 547 -2362 26 24
DS 437 -2362 547 -2362 26 24
DS 437 -1968 437 -2362 26 24
DS 240 -1968 350 -1968 26 24
DS 350 -1968 350 -2362 26 24
DS 240 -2362 350 -2362 26 24
DS 240 -1968 240 -2362 26 24
DS 43 -1968 153 -1968 26 24
DS 153 -1968 153 -2362 26 24
DS 43 -2362 153 -2362 26 24
DS 43 -1968 43 -2362 26 24
DS -153 -1968 -43 -1968 26 24
DS -43 -1968 -43 -2362 26 24
DS -153 -2362 -43 -2362 26 24
DS -153 -1968 -153 -2362 26 24
DS -350 -1968 -240 -1968 26 24
DS -240 -1968 -240 -2362 26 24
DS -350 -2362 -240 -2362 26 24
DS -350 -1968 -350 -2362 26 24
DS -547 -1968 -437 -1968 26 24
DS -437 -1968 -437 -2362 26 24
DS -547 -2362 -437 -2362 26 24
DS -547 -1968 -547 -2362 26 24
DS -744 -1968 -633 -1968 26 24
DS -633 -1968 -633 -2362 26 24
DS -744 -2362 -633 -2362 26 24
DS -744 -1968 -744 -2362 26 24
DS -940 -1968 -830 -1968 26 24
DS -830 -1968 -830 -2362 26 24
DS -940 -2362 -830 -2362 26 24
DS -940 -1968 -940 -2362 26 24
DS -1137 -1968 -1027 -1968 26 24
DS -1027 -1968 -1027 -2362 26 24
DS -1137 -2362 -1027 -2362 26 24
DS -1137 -1968 -1137 -2362 26 24
DS -1334 -1968 -1224 -1968 26 24
DS -1224 -1968 -1224 -2362 26 24
DS -1334 -2362 -1224 -2362 26 24
DS -1334 -1968 -1334 -2362 26 24
DS -1531 -1968 -1421 -1968 26 24
DS -1421 -1968 -1421 -2362 26 24
DS -1531 -2362 -1421 -2362 26 24
DS -1531 -1968 -1531 -2362 26 24
DS -2568 -1407 -1929 -1407 26 23
DS -1929 -1407 -1929 -1545 26 23
DS -2568 -1545 -1929 -1545 26 23
DS -2568 -1407 -2568 -1545 26 23
DS -2568 -1210 -1929 -1210 26 23
DS -1929 -1210 -1929 -1348 26 23
DS -2568 -1348 -1929 -1348 26 23
DS -2568 -1210 -2568 -1348 26 23
DS -2568 -1013 -1929 -1013 26 23
DS -1929 -1013 -1929 -1151 26 23
DS -2568 -1151 -1929 -1151 26 23
DS -2568 -1013 -2568 -1151 26 23
DS -2568 -816 -1929 -816 26 23
DS -1929 -816 -1929 -954 26 23
DS -2568 -954 -1929 -954 26 23
DS -2568 -816 -2568 -954 26 23
DS -2568 -620 -1929 -620 26 23
DS -1929 -620 -1929 -757 26 23
DS -2568 -757 -1929 -757 26 23
DS -2568 -620 -2568 -757 26 23
DS -2568 -423 -1929 -423 26 23
DS -1929 -423 -1929 -561 26 23
DS -2568 -561 -1929 -561 26 23
DS -2568 -423 -2568 -561 26 23
DS -2568 -226 -1929 -226 26 23
DS -1929 -226 -1929 -364 26 23
DS -2568 -364 -1929 -364 26 23
DS -2568 -226 -2568 -364 26 23
DS -2568 -29 -1929 -29 26 23
DS -1929 -29 -1929 -167 26 23
DS -2568 -167 -1929 -167 26 23
DS -2568 -29 -2568 -167 26 23
DS -2568 167 -1929 167 26 23
DS -1929 167 -1929 29 26 23
DS -2568 29 -1929 29 26 23
DS -2568 167 -2568 29 26 23
DS -2568 364 -1929 364 26 23
DS -1929 364 -1929 226 26 23
DS -2568 226 -1929 226 26 23
DS -2568 364 -2568 226 26 23
DS -2568 561 -1929 561 26 23
DS -1929 561 -1929 423 26 23
DS -2568 423 -1929 423 26 23
DS -2568 561 -2568 423 26 23
DS -2568 757 -1929 757 26 23
DS -1929 757 -1929 620 26 23
DS -2568 620 -1929 620 26 23
DS -2568 757 -2568 620 26 23
DS -2568 954 -1929 954 26 23
DS -1929 954 -1929 816 26 23
DS -2568 816 -1929 816 26 23
DS -2568 954 -2568 816 26 23
DS -2568 1151 -1929 1151 26 23
DS -1929 1151 -1929 1013 26 23
DS -2568 1013 -1929 1013 26 23
DS -2568 1151 -2568 1013 26 23
DS -2568 1348 -1929 1348 26 23
DS -1929 1348 -1929 1210 26 23
DS -2568 1210 -1929 1210 26 23
DS -2568 1348 -2568 1210 26 23
DS -2568 1545 -1929 1545 26 23
DS -1929 1545 -1929 1407 26 23
DS -2568 1407 -1929 1407 26 23
DS -2568 1545 -2568 1407 26 23
DS -1407 2568 -1545 2568 26 23
DS -1545 2568 -1545 1929 26 23
DS -1407 1929 -1545 1929 26 23
DS -1407 2568 -1407 1929 26 23
DS -1210 2568 -1348 2568 26 23
DS -1348 2568 -1348 1929 26 23
DS -1210 1929 -1348 1929 26 23
DS -1210 2568 -1210 1929 26 23
DS -1013 2568 -1151 2568 26 23
DS -1151 2568 -1151 1929 26 23
DS -1013 1929 -1151 1929 26 23
DS -1013 2568 -1013 1929 26 23
DS -816 2568 -954 2568 26 23
DS -954 2568 -954 1929 26 23
DS -816 1929 -954 1929 26 23
DS -816 2568 -816 1929 26 23
DS -620 2568 -757 2568 26 23
DS -757 2568 -757 1929 26 23
DS -620 1929 -757 1929 26 23
DS -620 2568 -620 1929 26 23
DS -423 2568 -561 2568 26 23
DS -561 2568 -561 1929 26 23
DS -423 1929 -561 1929 26 23
DS -423 2568 -423 1929 26 23
DS -226 2568 -364 2568 26 23
DS -364 2568 -364 1929 26 23
DS -226 1929 -364 1929 26 23
DS -226 2568 -226 1929 26 23
DS -29 2568 -167 2568 26 23
DS -167 2568 -167 1929 26 23
DS -29 1929 -167 1929 26 23
DS -29 2568 -29 1929 26 23
DS 167 2568 29 2568 26 23
DS 29 2568 29 1929 26 23
DS 167 1929 29 1929 26 23
DS 167 2568 167 1929 26 23
DS 364 2568 226 2568 26 23
DS 226 2568 226 1929 26 23
DS 364 1929 226 1929 26 23
DS 364 2568 364 1929 26 23
DS 561 2568 423 2568 26 23
DS 423 2568 423 1929 26 23
DS 561 1929 423 1929 26 23
DS 561 2568 561 1929 26 23
DS 757 2568 620 2568 26 23
DS 620 2568 620 1929 26 23
DS 757 1929 620 1929 26 23
DS 757 2568 757 1929 26 23
DS 954 2568 816 2568 26 23
DS 816 2568 816 1929 26 23
DS 954 1929 816 1929 26 23
DS 954 2568 954 1929 26 23
DS 1151 2568 1013 2568 26 23
DS 1013 2568 1013 1929 26 23
DS 1151 1929 1013 1929 26 23
DS 1151 2568 1151 1929 26 23
DS 1348 2568 1210 2568 26 23
DS 1210 2568 1210 1929 26 23
DS 1348 1929 1210 1929 26 23
DS 1348 2568 1348 1929 26 23
DS 1545 2568 1407 2568 26 23
DS 1407 2568 1407 1929 26 23
DS 1545 1929 1407 1929 26 23
DS 1545 2568 1545 1929 26 23
DS 2568 1407 1929 1407 26 23
DS 1929 1407 1929 1545 26 23
DS 2568 1545 1929 1545 26 23
DS 2568 1407 2568 1545 26 23
DS 2568 1210 1929 1210 26 23
DS 1929 1210 1929 1348 26 23
DS 2568 1348 1929 1348 26 23
DS 2568 1210 2568 1348 26 23
DS 2568 1013 1929 1013 26 23
DS 1929 1013 1929 1151 26 23
DS 2568 1151 1929 1151 26 23
DS 2568 1013 2568 1151 26 23
DS 2568 816 1929 816 26 23
DS 1929 816 1929 954 26 23
DS 2568 954 1929 954 26 23
DS 2568 816 2568 954 26 23
DS 2568 620 1929 620 26 23
DS 1929 620 1929 757 26 23
DS 2568 757 1929 757 26 23
DS 2568 620 2568 757 26 23
DS 2568 423 1929 423 26 23
DS 1929 423 1929 561 26 23
DS 2568 561 1929 561 26 23
DS 2568 423 2568 561 26 23
DS 2568 226 1929 226 26 23
DS 1929 226 1929 364 26 23
DS 2568 364 1929 364 26 23
DS 2568 226 2568 364 26 23
DS 2568 29 1929 29 26 23
DS 1929 29 1929 167 26 23
DS 2568 167 1929 167 26 23
DS 2568 29 2568 167 26 23
DS 2568 -167 1929 -167 26 23
DS 1929 -167 1929 -29 26 23
DS 2568 -29 1929 -29 26 23
DS 2568 -167 2568 -29 26 23
DS 2568 -364 1929 -364 26 23
DS 1929 -364 1929 -226 26 23
DS 2568 -226 1929 -226 26 23
DS 2568 -364 2568 -226 26 23
DS 2568 -561 1929 -561 26 23
DS 1929 -561 1929 -423 26 23
DS 2568 -423 1929 -423 26 23
DS 2568 -561 2568 -423 26 23
DS 2568 -757 1929 -757 26 23
DS 1929 -757 1929 -620 26 23
DS 2568 -620 1929 -620 26 23
DS 2568 -757 2568 -620 26 23
DS 2568 -954 1929 -954 26 23
DS 1929 -954 1929 -816 26 23
DS 2568 -816 1929 -816 26 23
DS 2568 -954 2568 -816 26 23
DS 2568 -1151 1929 -1151 26 23
DS 1929 -1151 1929 -1013 26 23
DS 2568 -1013 1929 -1013 26 23
DS 2568 -1151 2568 -1013 26 23
DS 2568 -1348 1929 -1348 26 23
DS 1929 -1348 1929 -1210 26 23
DS 2568 -1210 1929 -1210 26 23
DS 2568 -1348 2568 -1210 26 23
DS 2568 -1545 1929 -1545 26 23
DS 1929 -1545 1929 -1407 26 23
DS 2568 -1407 1929 -1407 26 23
DS 2568 -1545 2568 -1407 26 23
DS 1407 -2568 1545 -2568 26 23
DS 1545 -2568 1545 -1929 26 23
DS 1407 -1929 1545 -1929 26 23
DS 1407 -2568 1407 -1929 26 23
DS 1210 -2568 1348 -2568 26 23
DS 1348 -2568 1348 -1929 26 23
DS 1210 -1929 1348 -1929 26 23
DS 1210 -2568 1210 -1929 26 23
DS 1013 -2568 1151 -2568 26 23
DS 1151 -2568 1151 -1929 26 23
DS 1013 -1929 1151 -1929 26 23
DS 1013 -2568 1013 -1929 26 23
DS 816 -2568 954 -2568 26 23
DS 954 -2568 954 -1929 26 23
DS 816 -1929 954 -1929 26 23
DS 816 -2568 816 -1929 26 23
DS 620 -2568 757 -2568 26 23
DS 757 -2568 757 -1929 26 23
DS 620 -1929 757 -1929 26 23
DS 620 -2568 620 -1929 26 23
DS 423 -2568 561 -2568 26 23
DS 561 -2568 561 -1929 26 23
DS 423 -1929 561 -1929 26 23
DS 423 -2568 423 -1929 26 23
DS 226 -2568 364 -2568 26 23
DS 364 -2568 364 -1929 26 23
DS 226 -1929 364 -1929 26 23
DS 226 -2568 226 -1929 26 23
DS 29 -2568 167 -2568 26 23
DS 167 -2568 167 -1929 26 23
DS 29 -1929 167 -1929 26 23
DS 29 -2568 29 -1929 26 23
DS -167 -2568 -29 -2568 26 23
DS -29 -2568 -29 -1929 26 23
DS -167 -1929 -29 -1929 26 23
DS -167 -2568 -167 -1929 26 23
DS -364 -2568 -226 -2568 26 23
DS -226 -2568 -226 -1929 26 23
DS -364 -1929 -226 -1929 26 23
DS -364 -2568 -364 -1929 26 23
DS -561 -2568 -423 -2568 26 23
DS -423 -2568 -423 -1929 26 23
DS -561 -1929 -423 -1929 26 23
DS -561 -2568 -561 -1929 26 23
DS -757 -2568 -620 -2568 26 23
DS -620 -2568 -620 -1929 26 23
DS -757 -1929 -620 -1929 26 23
DS -757 -2568 -757 -1929 26 23
DS -954 -2568 -816 -2568 26 23
DS -816 -2568 -816 -1929 26 23
DS -954 -1929 -816 -1929 26 23
DS -954 -2568 -954 -1929 26 23
DS -1151 -2568 -1013 -2568 26 23
DS -1013 -2568 -1013 -1929 26 23
DS -1151 -1929 -1013 -1929 26 23
DS -1151 -2568 -1151 -1929 26 23
DS -1348 -2568 -1210 -2568 26 23
DS -1210 -2568 -1210 -1929 26 23
DS -1348 -1929 -1210 -1929 26 23
DS -1348 -2568 -1348 -1929 26 23
DS -1545 -2568 -1407 -2568 26 23
DS -1407 -2568 -1407 -1929 26 23
DS -1545 -1929 -1407 -1929 26 23
DS -1545 -2568 -1545 -1929 26 23
DS -1850 1850 1850 1850 80 21
DS 1850 1850 1850 -1850 80 21
DS 1850 -1850 -1751 -1850 80 21
DS -1751 -1850 -1850 -1751 80 21
DS -1850 -1751 -1850 1850 80 21
DC -1574 -1574 -1574 -1679 50 21
T0 -1112 -2862 500 500 0 40 N V 21 N ">NAME"
T1 -862 2862 500 500 0 40 N V 21 N ">VALUE"
$PAD
Sh "1" R 590 118 0 0 0
Dr 0 0 0 
At SMD N 00888000
Ne 0 ""
Po -2244 -1476 
$EndPAD
$PAD
Sh "2" R 590 118 0 0 0
Dr 0 0 0 
At SMD N 00888000
Ne 0 ""
Po -2244 -1279 
$EndPAD
$PAD
Sh "3" R 590 118 0 0 0
Dr 0 0 0 
At SMD N 00888000
Ne 0 ""
Po -2244 -1082 
$EndPAD
$PAD
Sh "4" R 590 118 0 0 0
Dr 0 0 0 
At SMD N 00888000
Ne 0 ""
Po -2244 -885 
$EndPAD
$PAD
Sh "5" R 590 118 0 0 0
Dr 0 0 0 
At SMD N 00888000
Ne 0 ""
Po -2244 -688 
$EndPAD
$PAD
Sh "6" R 590 118 0 0 0
Dr 0 0 0 
At SMD N 00888000
Ne 0 ""
Po -2244 -492 
$EndPAD
$PAD
Sh "7" R 590 118 0 0 0
Dr 0 0 0 
At SMD N 00888000
Ne 0 ""
Po -2244 -295 
$EndPAD
$PAD
Sh "8" R 590 118 0 0 0
Dr 0 0 0 
At SMD N 00888000
Ne 0 ""
Po -2244 -98 
$EndPAD
$PAD
Sh "9" R 590 118 0 0 0
Dr 0 0 0 
At SMD N 00888000
Ne 0 ""
Po -2244 98 
$EndPAD
$PAD
Sh "10" R 590 118 0 0 0
Dr 0 0 0 
At SMD N 00888000
Ne 0 ""
Po -2244 295 
$EndPAD
$PAD
Sh "11" R 590 118 0 0 0
Dr 0 0 0 
At SMD N 00888000
Ne 0 ""
Po -2244 492 
$EndPAD
$PAD
Sh "12" R 590 118 0 0 0
Dr 0 0 0 
At SMD N 00888000
Ne 0 ""
Po -2244 688 
$EndPAD
$PAD
Sh "13" R 590 118 0 0 0
Dr 0 0 0 
At SMD N 00888000
Ne 0 ""
Po -2244 885 
$EndPAD
$PAD
Sh "14" R 590 118 0 0 0
Dr 0 0 0 
At SMD N 00888000
Ne 0 ""
Po -2244 1082 
$EndPAD
$PAD
Sh "15" R 590 118 0 0 0
Dr 0 0 0 
At SMD N 00888000
Ne 0 ""
Po -2244 1279 
$EndPAD
$PAD
Sh "16" R 590 118 0 0 0
Dr 0 0 0 
At SMD N 00888000
Ne 0 ""
Po -2244 1476 
$EndPAD
$PAD
Sh "17" R 118 590 0 0 0
Dr 0 0 0 
At SMD N 00888000
Ne 0 ""
Po -1476 2244 
$EndPAD
$PAD
Sh "18" R 118 590 0 0 0
Dr 0 0 0 
At SMD N 00888000
Ne 0 ""
Po -1279 2244 
$EndPAD
$PAD
Sh "19" R 118 590 0 0 0
Dr 0 0 0 
At SMD N 00888000
Ne 0 ""
Po -1082 2244 
$EndPAD
$PAD
Sh "20" R 118 590 0 0 0
Dr 0 0 0 
At SMD N 00888000
Ne 0 ""
Po -885 2244 
$EndPAD
$PAD
Sh "21" R 118 590 0 0 0
Dr 0 0 0 
At SMD N 00888000
Ne 0 ""
Po -688 2244 
$EndPAD
$PAD
Sh "22" R 118 590 0 0 0
Dr 0 0 0 
At SMD N 00888000
Ne 0 ""
Po -492 2244 
$EndPAD
$PAD
Sh "23" R 118 590 0 0 0
Dr 0 0 0 
At SMD N 00888000
Ne 0 ""
Po -295 2244 
$EndPAD
$PAD
Sh "24" R 118 590 0 0 0
Dr 0 0 0 
At SMD N 00888000
Ne 0 ""
Po -98 2244 
$EndPAD
$PAD
Sh "25" R 118 590 0 0 0
Dr 0 0 0 
At SMD N 00888000
Ne 0 ""
Po 98 2244 
$EndPAD
$PAD
Sh "26" R 118 590 0 0 0
Dr 0 0 0 
At SMD N 00888000
Ne 0 ""
Po 295 2244 
$EndPAD
$PAD
Sh "27" R 118 590 0 0 0
Dr 0 0 0 
At SMD N 00888000
Ne 0 ""
Po 492 2244 
$EndPAD
$PAD
Sh "28" R 118 590 0 0 0
Dr 0 0 0 
At SMD N 00888000
Ne 0 ""
Po 688 2244 
$EndPAD
$PAD
Sh "29" R 118 590 0 0 0
Dr 0 0 0 
At SMD N 00888000
Ne 0 ""
Po 885 2244 
$EndPAD
$PAD
Sh "30" R 118 590 0 0 0
Dr 0 0 0 
At SMD N 00888000
Ne 0 ""
Po 1082 2244 
$EndPAD
$PAD
Sh "31" R 118 590 0 0 0
Dr 0 0 0 
At SMD N 00888000
Ne 0 ""
Po 1279 2244 
$EndPAD
$PAD
Sh "32" R 118 590 0 0 0
Dr 0 0 0 
At SMD N 00888000
Ne 0 ""
Po 1476 2244 
$EndPAD
$PAD
Sh "33" R 590 118 0 0 0
Dr 0 0 0 
At SMD N 00888000
Ne 0 ""
Po 2244 1476 
$EndPAD
$PAD
Sh "34" R 590 118 0 0 0
Dr 0 0 0 
At SMD N 00888000
Ne 0 ""
Po 2244 1279 
$EndPAD
$PAD
Sh "35" R 590 118 0 0 0
Dr 0 0 0 
At SMD N 00888000
Ne 0 ""
Po 2244 1082 
$EndPAD
$PAD
Sh "36" R 590 118 0 0 0
Dr 0 0 0 
At SMD N 00888000
Ne 0 ""
Po 2244 885 
$EndPAD
$PAD
Sh "37" R 590 118 0 0 0
Dr 0 0 0 
At SMD N 00888000
Ne 0 ""
Po 2244 688 
$EndPAD
$PAD
Sh "38" R 590 118 0 0 0
Dr 0 0 0 
At SMD N 00888000
Ne 0 ""
Po 2244 492 
$EndPAD
$PAD
Sh "39" R 590 118 0 0 0
Dr 0 0 0 
At SMD N 00888000
Ne 0 ""
Po 2244 295 
$EndPAD
$PAD
Sh "40" R 590 118 0 0 0
Dr 0 0 0 
At SMD N 00888000
Ne 0 ""
Po 2244 98 
$EndPAD
$PAD
Sh "41" R 590 118 0 0 0
Dr 0 0 0 
At SMD N 00888000
Ne 0 ""
Po 2244 -98 
$EndPAD
$PAD
Sh "42" R 590 118 0 0 0
Dr 0 0 0 
At SMD N 00888000
Ne 0 ""
Po 2244 -295 
$EndPAD
$PAD
Sh "43" R 590 118 0 0 0
Dr 0 0 0 
At SMD N 00888000
Ne 0 ""
Po 2244 -492 
$EndPAD
$PAD
Sh "44" R 590 118 0 0 0
Dr 0 0 0 
At SMD N 00888000
Ne 0 ""
Po 2244 -688 
$EndPAD
$PAD
Sh "45" R 590 118 0 0 0
Dr 0 0 0 
At SMD N 00888000
Ne 0 ""
Po 2244 -885 
$EndPAD
$PAD
Sh "46" R 590 118 0 0 0
Dr 0 0 0 
At SMD N 00888000
Ne 0 ""
Po 2244 -1082 
$EndPAD
$PAD
Sh "47" R 590 118 0 0 0
Dr 0 0 0 
At SMD N 00888000
Ne 0 ""
Po 2244 -1279 
$EndPAD
$PAD
Sh "48" R 590 118 0 0 0
Dr 0 0 0 
At SMD N 00888000
Ne 0 ""
Po 2244 -1476 
$EndPAD
$PAD
Sh "49" R 118 590 0 0 0
Dr 0 0 0 
At SMD N 00888000
Ne 0 ""
Po 1476 -2244 
$EndPAD
$PAD
Sh "50" R 118 590 0 0 0
Dr 0 0 0 
At SMD N 00888000
Ne 0 ""
Po 1279 -2244 
$EndPAD
$PAD
Sh "51" R 118 590 0 0 0
Dr 0 0 0 
At SMD N 00888000
Ne 0 ""
Po 1082 -2244 
$EndPAD
$PAD
Sh "52" R 118 590 0 0 0
Dr 0 0 0 
At SMD N 00888000
Ne 0 ""
Po 885 -2244 
$EndPAD
$PAD
Sh "53" R 118 590 0 0 0
Dr 0 0 0 
At SMD N 00888000
Ne 0 ""
Po 688 -2244 
$EndPAD
$PAD
Sh "54" R 118 590 0 0 0
Dr 0 0 0 
At SMD N 00888000
Ne 0 ""
Po 492 -2244 
$EndPAD
$PAD
Sh "55" R 118 590 0 0 0
Dr 0 0 0 
At SMD N 00888000
Ne 0 ""
Po 295 -2244 
$EndPAD
$PAD
Sh "56" R 118 590 0 0 0
Dr 0 0 0 
At SMD N 00888000
Ne 0 ""
Po 98 -2244 
$EndPAD
$PAD
Sh "57" R 118 590 0 0 0
Dr 0 0 0 
At SMD N 00888000
Ne 0 ""
Po -98 -2244 
$EndPAD
$PAD
Sh "58" R 118 590 0 0 0
Dr 0 0 0 
At SMD N 00888000
Ne 0 ""
Po -295 -2244 
$EndPAD
$PAD
Sh "59" R 118 590 0 0 0
Dr 0 0 0 
At SMD N 00888000
Ne 0 ""
Po -492 -2244 
$EndPAD
$PAD
Sh "60" R 118 590 0 0 0
Dr 0 0 0 
At SMD N 00888000
Ne 0 ""
Po -688 -2244 
$EndPAD
$PAD
Sh "61" R 118 590 0 0 0
Dr 0 0 0 
At SMD N 00888000
Ne 0 ""
Po -885 -2244 
$EndPAD
$PAD
Sh "62" R 118 590 0 0 0
Dr 0 0 0 
At SMD N 00888000
Ne 0 ""
Po -1082 -2244 
$EndPAD
$PAD
Sh "63" R 118 590 0 0 0
Dr 0 0 0 
At SMD N 00888000
Ne 0 ""
Po -1279 -2244 
$EndPAD
$PAD
Sh "64" R 118 590 0 0 0
Dr 0 0 0 
At SMD N 00888000
Ne 0 ""
Po -1476 -2244 
$EndPAD
$EndMODULE TQFP64-10X10X1MM
$MODULE _markg-TSW-108-02-S-D
Po 0 0 0 15 00200000 00000000 ~~
Li _markg-TSW-108-02-S-D
Cd THROUGH-HOLE .025" SQ POST HEADER
Kw THROUGH-HOLE .025" SQ POST HEADER
Sc 00000000
Op 0 0 0
At VIRTUAL
DS -3637 637 -3362 637 26 24
DS -3362 637 -3362 362 26 24
DS -3637 362 -3362 362 26 24
DS -3637 637 -3637 362 26 24
DS -3637 -362 -3362 -362 26 24
DS -3362 -362 -3362 -637 26 24
DS -3637 -637 -3362 -637 26 24
DS -3637 -362 -3637 -637 26 24
DS -2637 637 -2362 637 26 24
DS -2362 637 -2362 362 26 24
DS -2637 362 -2362 362 26 24
DS -2637 637 -2637 362 26 24
DS -2637 -362 -2362 -362 26 24
DS -2362 -362 -2362 -637 26 24
DS -2637 -637 -2362 -637 26 24
DS -2637 -362 -2637 -637 26 24
DS -1637 637 -1362 637 26 24
DS -1362 637 -1362 362 26 24
DS -1637 362 -1362 362 26 24
DS -1637 637 -1637 362 26 24
DS -1637 -362 -1362 -362 26 24
DS -1362 -362 -1362 -637 26 24
DS -1637 -637 -1362 -637 26 24
DS -1637 -362 -1637 -637 26 24
DS -637 637 -362 637 26 24
DS -362 637 -362 362 26 24
DS -637 362 -362 362 26 24
DS -637 637 -637 362 26 24
DS -637 -362 -362 -362 26 24
DS -362 -362 -362 -637 26 24
DS -637 -637 -362 -637 26 24
DS -637 -362 -637 -637 26 24
DS 362 637 637 637 26 24
DS 637 637 637 362 26 24
DS 362 362 637 362 26 24
DS 362 637 362 362 26 24
DS 362 -362 637 -362 26 24
DS 637 -362 637 -637 26 24
DS 362 -637 637 -637 26 24
DS 362 -362 362 -637 26 24
DS 1362 637 1637 637 26 24
DS 1637 637 1637 362 26 24
DS 1362 362 1637 362 26 24
DS 1362 637 1362 362 26 24
DS 1362 -362 1637 -362 26 24
DS 1637 -362 1637 -637 26 24
DS 1362 -637 1637 -637 26 24
DS 1362 -362 1362 -637 26 24
DS 2362 637 2637 637 26 24
DS 2637 637 2637 362 26 24
DS 2362 362 2637 362 26 24
DS 2362 637 2362 362 26 24
DS 2362 -362 2637 -362 26 24
DS 2637 -362 2637 -637 26 24
DS 2362 -637 2637 -637 26 24
DS 2362 -362 2362 -637 26 24
DS 3362 637 3637 637 26 24
DS 3637 637 3637 362 26 24
DS 3362 362 3637 362 26 24
DS 3362 637 3362 362 26 24
DS 3362 -362 3637 -362 26 24
DS 3637 -362 3637 -637 26 24
DS 3362 -637 3637 -637 26 24
DS 3362 -362 3362 -637 26 24
DS -4050 -954 4050 -954 80 21
DS 4050 -954 4050 954 80 21
DS 4050 954 -4050 954 80 21
DS -4050 954 -4050 -954 80 21
DS 3250 1125 4250 1125 120 21
DS 4250 1125 4250 250 120 21
T0 -4500 -250 500 500 900 40 N V 21 N ">NAME"
T1 4500 -500 500 500 900 40 N V 21 N ">VALUE"
$PAD
Sh "1" C 590 1181 0 0 0
Dr 393 0 0 
At STD N 00CCFFFF
Ne 0 ""
Po 3500 500 
$EndPAD
$PAD
Sh "2" C 590 1181 0 0 0
Dr 393 0 0 
At STD N 00CCFFFF
Ne 0 ""
Po 3500 -500 
$EndPAD
$PAD
Sh "3" C 590 1181 0 0 0
Dr 393 0 0 
At STD N 00CCFFFF
Ne 0 ""
Po 2500 500 
$EndPAD
$PAD
Sh "4" C 590 1181 0 0 0
Dr 393 0 0 
At STD N 00CCFFFF
Ne 0 ""
Po 2500 -500 
$EndPAD
$PAD
Sh "5" C 590 1181 0 0 0
Dr 393 0 0 
At STD N 00CCFFFF
Ne 0 ""
Po 1500 500 
$EndPAD
$PAD
Sh "6" C 590 1181 0 0 0
Dr 393 0 0 
At STD N 00CCFFFF
Ne 0 ""
Po 1500 -500 
$EndPAD
$PAD
Sh "7" C 590 1181 0 0 0
Dr 393 0 0 
At STD N 00CCFFFF
Ne 0 ""
Po 500 500 
$EndPAD
$PAD
Sh "8" C 590 1181 0 0 0
Dr 393 0 0 
At STD N 00CCFFFF
Ne 0 ""
Po 500 -500 
$EndPAD
$PAD
Sh "9" C 590 1181 0 0 0
Dr 393 0 0 
At STD N 00CCFFFF
Ne 0 ""
Po -500 500 
$EndPAD
$PAD
Sh "10" C 590 1181 0 0 0
Dr 393 0 0 
At STD N 00CCFFFF
Ne 0 ""
Po -500 -500 
$EndPAD
$PAD
Sh "11" C 590 1181 0 0 0
Dr 393 0 0 
At STD N 00CCFFFF
Ne 0 ""
Po -1500 500 
$EndPAD
$PAD
Sh "12" C 590 1181 0 0 0
Dr 393 0 0 
At STD N 00CCFFFF
Ne 0 ""
Po -1500 -500 
$EndPAD
$PAD
Sh "13" C 590 1181 0 0 0
Dr 393 0 0 
At STD N 00CCFFFF
Ne 0 ""
Po -2500 500 
$EndPAD
$PAD
Sh "14" C 590 1181 0 0 0
Dr 393 0 0 
At STD N 00CCFFFF
Ne 0 ""
Po -2500 -500 
$EndPAD
$PAD
Sh "15" C 590 1181 0 0 0
Dr 393 0 0 
At STD N 00CCFFFF
Ne 0 ""
Po -3500 500 
$EndPAD
$PAD
Sh "16" C 590 1181 0 0 0
Dr 393 0 0 
At STD N 00CCFFFF
Ne 0 ""
Po -3500 -500 
$EndPAD
$EndMODULE TSW-108-02-S-D
$MODULE _markg-TSW-108-02-S-D-RA
Po 0 0 0 15 00200000 00000000 ~~
Li _markg-TSW-108-02-S-D-RA
Cd THROUGH-HOLE .025" SQ POST HEADER
Kw THROUGH-HOLE .025" SQ POST HEADER
Sc 00000000
Op 0 0 0
At VIRTUAL
DS -3600 0 -3400 0 26 24
DS -3400 0 -3400 -1700 26 24
DS -3600 -1700 -3400 -1700 26 24
DS -3600 0 -3600 -1700 26 24
DS -2600 0 -2400 0 26 24
DS -2400 0 -2400 -1700 26 24
DS -2600 -1700 -2400 -1700 26 24
DS -2600 0 -2600 -1700 26 24
DS -1600 0 -1400 0 26 24
DS -1400 0 -1400 -1700 26 24
DS -1600 -1700 -1400 -1700 26 24
DS -1600 0 -1600 -1700 26 24
DS -600 0 -400 0 26 24
DS -400 0 -400 -1700 26 24
DS -600 -1700 -400 -1700 26 24
DS -600 0 -600 -1700 26 24
DS 400 0 600 0 26 24
DS 600 0 600 -1700 26 24
DS 400 -1700 600 -1700 26 24
DS 400 0 400 -1700 26 24
DS 1400 0 1600 0 26 24
DS 1600 0 1600 -1700 26 24
DS 1400 -1700 1600 -1700 26 24
DS 1400 0 1400 -1700 26 24
DS 2400 0 2600 0 26 24
DS 2600 0 2600 -1700 26 24
DS 2400 -1700 2600 -1700 26 24
DS 2400 0 2400 -1700 26 24
DS 3400 0 3600 0 26 24
DS 3600 0 3600 -1700 26 24
DS 3400 -1700 3600 -1700 26 24
DS 3400 0 3400 -1700 26 24
DS -3600 3106 -3400 3106 26 21
DS -3400 3106 -3400 803 26 21
DS -3600 803 -3400 803 26 21
DS -3600 3106 -3600 803 26 21
DS -2600 3106 -2400 3106 26 21
DS -2400 3106 -2400 803 26 21
DS -2600 803 -2400 803 26 21
DS -2600 3106 -2600 803 26 21
DS -1600 3106 -1400 3106 26 21
DS -1400 3106 -1400 803 26 21
DS -1600 803 -1400 803 26 21
DS -1600 3106 -1600 803 26 21
DS -600 3106 -400 3106 26 21
DS -400 3106 -400 803 26 21
DS -600 803 -400 803 26 21
DS -600 3106 -600 803 26 21
DS 400 3106 600 3106 26 21
DS 600 3106 600 803 26 21
DS 400 803 600 803 26 21
DS 400 3106 400 803 26 21
DS 1400 3106 1600 3106 26 21
DS 1600 3106 1600 803 26 21
DS 1400 803 1600 803 26 21
DS 1400 3106 1400 803 26 21
DS 2400 3106 2600 3106 26 21
DS 2600 3106 2600 803 26 21
DS 2400 803 2600 803 26 21
DS 2400 3106 2400 803 26 21
DS 3400 3106 3600 3106 26 21
DS 3600 3106 3600 803 26 21
DS 3400 803 3600 803 26 21
DS 3400 3106 3400 803 26 21
DS -4050 805 4050 805 80 21
DS 4050 805 4050 41 80 21
DS 4050 41 -4050 41 80 21
DS -4050 41 -4050 805 80 21
T0 -4500 1750 500 500 900 40 N V 21 N ">NAME"
T1 4500 1500 500 500 900 40 N V 21 N ">VALUE"
T2 4222 -521 433 433 0 30 N V 21 N "1"
T2 4208 -1511 433 433 0 30 N V 21 N "2"
$PAD
Sh "1" C 590 1181 0 0 0
Dr 393 0 0 
At STD N 00CCFFFF
Ne 0 ""
Po 3500 -600 
$EndPAD
$PAD
Sh "2" C 590 1181 0 0 0
Dr 393 0 0 
At STD N 00CCFFFF
Ne 0 ""
Po 3500 -1600 
$EndPAD
$PAD
Sh "3" C 590 1181 0 0 0
Dr 393 0 0 
At STD N 00CCFFFF
Ne 0 ""
Po 2500 -600 
$EndPAD
$PAD
Sh "4" C 590 1181 0 0 0
Dr 393 0 0 
At STD N 00CCFFFF
Ne 0 ""
Po 2500 -1600 
$EndPAD
$PAD
Sh "5" C 590 1181 0 0 0
Dr 393 0 0 
At STD N 00CCFFFF
Ne 0 ""
Po 1500 -600 
$EndPAD
$PAD
Sh "6" C 590 1181 0 0 0
Dr 393 0 0 
At STD N 00CCFFFF
Ne 0 ""
Po 1500 -1600 
$EndPAD
$PAD
Sh "7" C 590 1181 0 0 0
Dr 393 0 0 
At STD N 00CCFFFF
Ne 0 ""
Po 500 -600 
$EndPAD
$PAD
Sh "8" C 590 1181 0 0 0
Dr 393 0 0 
At STD N 00CCFFFF
Ne 0 ""
Po 500 -1600 
$EndPAD
$PAD
Sh "9" C 590 1181 0 0 0
Dr 393 0 0 
At STD N 00CCFFFF
Ne 0 ""
Po -500 -600 
$EndPAD
$PAD
Sh "10" C 590 1181 0 0 0
Dr 393 0 0 
At STD N 00CCFFFF
Ne 0 ""
Po -500 -1600 
$EndPAD
$PAD
Sh "11" C 590 1181 0 0 0
Dr 393 0 0 
At STD N 00CCFFFF
Ne 0 ""
Po -1500 -600 
$EndPAD
$PAD
Sh "12" C 590 1181 0 0 0
Dr 393 0 0 
At STD N 00CCFFFF
Ne 0 ""
Po -1500 -1600 
$EndPAD
$PAD
Sh "13" C 590 1181 0 0 0
Dr 393 0 0 
At STD N 00CCFFFF
Ne 0 ""
Po -2500 -600 
$EndPAD
$PAD
Sh "14" C 590 1181 0 0 0
Dr 393 0 0 
At STD N 00CCFFFF
Ne 0 ""
Po -2500 -1600 
$EndPAD
$PAD
Sh "15" C 590 1181 0 0 0
Dr 393 0 0 
At STD N 00CCFFFF
Ne 0 ""
Po -3500 -600 
$EndPAD
$PAD
Sh "16" C 590 1181 0 0 0
Dr 393 0 0 
At STD N 00CCFFFF
Ne 0 ""
Po -3500 -1600 
$EndPAD
$EndMODULE TSW-108-02-S-D-RA
$EndLIBRARY
