<?xml version="1.0" encoding="utf-8"?>
<!DOCTYPE eagle SYSTEM "eagle.dtd">
<eagle version="6.4">
<drawing>
<settings>
<setting alwaysvectorfont="no"/>
<setting verticaltext="up"/>
</settings>
<grid distance="1" unitdist="mic" unit="mic" style="lines" multiple="1" display="no" altdistance="0.01" altunitdist="inch" altunit="inch"/>
<layers>
<layer number="1" name="Top" color="4" fill="1" visible="yes" active="yes"/>
<layer number="16" name="Bottom" color="1" fill="1" visible="yes" active="yes"/>
<layer number="17" name="Pads" color="2" fill="1" visible="yes" active="yes"/>
<layer number="18" name="Vias" color="2" fill="1" visible="yes" active="yes"/>
<layer number="19" name="Unrouted" color="6" fill="1" visible="yes" active="yes"/>
<layer number="20" name="Dimension" color="15" fill="1" visible="yes" active="yes"/>
<layer number="21" name="tPlace" color="7" fill="1" visible="yes" active="yes"/>
<layer number="22" name="bPlace" color="7" fill="1" visible="yes" active="yes"/>
<layer number="23" name="tOrigins" color="15" fill="1" visible="yes" active="yes"/>
<layer number="24" name="bOrigins" color="15" fill="1" visible="yes" active="yes"/>
<layer number="25" name="tNames" color="7" fill="1" visible="yes" active="yes"/>
<layer number="26" name="bNames" color="7" fill="1" visible="yes" active="yes"/>
<layer number="27" name="tValues" color="7" fill="1" visible="yes" active="yes"/>
<layer number="28" name="bValues" color="7" fill="1" visible="yes" active="yes"/>
<layer number="29" name="tStop" color="7" fill="3" visible="no" active="yes"/>
<layer number="30" name="bStop" color="7" fill="6" visible="no" active="yes"/>
<layer number="31" name="tCream" color="7" fill="4" visible="yes" active="yes"/>
<layer number="32" name="bCream" color="7" fill="5" visible="no" active="yes"/>
<layer number="33" name="tFinish" color="6" fill="3" visible="no" active="yes"/>
<layer number="34" name="bFinish" color="6" fill="6" visible="no" active="yes"/>
<layer number="35" name="tGlue" color="7" fill="4" visible="no" active="yes"/>
<layer number="36" name="bGlue" color="7" fill="5" visible="no" active="yes"/>
<layer number="37" name="tTest" color="7" fill="1" visible="no" active="yes"/>
<layer number="38" name="bTest" color="7" fill="1" visible="no" active="yes"/>
<layer number="39" name="tKeepout" color="4" fill="11" visible="yes" active="yes"/>
<layer number="40" name="bKeepout" color="1" fill="11" visible="yes" active="yes"/>
<layer number="41" name="tRestrict" color="4" fill="10" visible="yes" active="yes"/>
<layer number="42" name="bRestrict" color="1" fill="10" visible="yes" active="yes"/>
<layer number="43" name="vRestrict" color="2" fill="10" visible="yes" active="yes"/>
<layer number="44" name="Drills" color="7" fill="1" visible="no" active="yes"/>
<layer number="45" name="Holes" color="7" fill="1" visible="no" active="yes"/>
<layer number="46" name="Milling" color="3" fill="1" visible="no" active="yes"/>
<layer number="47" name="Measures" color="7" fill="1" visible="no" active="yes"/>
<layer number="48" name="Document" color="7" fill="1" visible="yes" active="yes"/>
<layer number="49" name="Reference" color="7" fill="1" visible="yes" active="yes"/>
<layer number="50" name="dxf" color="7" fill="1" visible="yes" active="yes"/>
<layer number="51" name="tDocu" color="7" fill="1" visible="yes" active="yes"/>
<layer number="52" name="bDocu" color="7" fill="1" visible="yes" active="yes"/>
<layer number="53" name="tGND_GNDA" color="7" fill="1" visible="yes" active="yes"/>
<layer number="54" name="bGND_GNDA" color="7" fill="1" visible="yes" active="yes"/>
<layer number="56" name="wert" color="7" fill="1" visible="yes" active="yes"/>
<layer number="91" name="Nets" color="2" fill="1" visible="yes" active="yes"/>
<layer number="92" name="Busses" color="1" fill="1" visible="yes" active="yes"/>
<layer number="93" name="Pins" color="2" fill="1" visible="yes" active="yes"/>
<layer number="94" name="Symbols" color="4" fill="1" visible="yes" active="yes"/>
<layer number="95" name="Names" color="7" fill="1" visible="yes" active="yes"/>
<layer number="96" name="Values" color="7" fill="1" visible="yes" active="yes"/>
<layer number="97" name="Info" color="7" fill="1" visible="yes" active="yes"/>
<layer number="98" name="Guide" color="6" fill="1" visible="yes" active="yes"/>
<layer number="100" name="Muster" color="7" fill="1" visible="yes" active="yes"/>
<layer number="101" name="Patch_Top" color="7" fill="1" visible="yes" active="yes"/>
<layer number="102" name="Vscore" color="7" fill="1" visible="yes" active="yes"/>
<layer number="103" name="tMap" color="7" fill="1" visible="yes" active="yes"/>
<layer number="104" name="Name" color="7" fill="1" visible="yes" active="yes"/>
<layer number="105" name="tPlate" color="7" fill="1" visible="yes" active="yes"/>
<layer number="106" name="bPlate" color="7" fill="1" visible="yes" active="yes"/>
<layer number="107" name="Crop" color="7" fill="1" visible="yes" active="yes"/>
<layer number="116" name="Patch_BOT" color="7" fill="1" visible="yes" active="yes"/>
<layer number="121" name="_tsilk" color="7" fill="1" visible="yes" active="yes"/>
<layer number="122" name="_bsilk" color="7" fill="1" visible="yes" active="yes"/>
<layer number="151" name="HeatSink" color="7" fill="1" visible="yes" active="yes"/>
<layer number="200" name="200bmp" color="7" fill="1" visible="yes" active="yes"/>
<layer number="201" name="201bmp" color="7" fill="1" visible="yes" active="yes"/>
<layer number="202" name="202bmp" color="7" fill="1" visible="yes" active="yes"/>
<layer number="203" name="203bmp" color="7" fill="1" visible="yes" active="yes"/>
<layer number="204" name="204bmp" color="7" fill="1" visible="yes" active="yes"/>
<layer number="205" name="205bmp" color="7" fill="1" visible="yes" active="yes"/>
<layer number="206" name="206bmp" color="7" fill="1" visible="yes" active="yes"/>
<layer number="207" name="207bmp" color="7" fill="1" visible="yes" active="yes"/>
<layer number="208" name="208bmp" color="7" fill="1" visible="yes" active="yes"/>
<layer number="250" name="Descript" color="7" fill="1" visible="yes" active="yes"/>
<layer number="251" name="SMDround" color="7" fill="1" visible="yes" active="yes"/>
<layer number="254" name="cooling" color="7" fill="1" visible="yes" active="yes"/>
</layers>
<library>
<packages>
<package name="1X02">
<wire x1="-0.635" y1="1.27" x2="0.635" y2="1.27" width="0.2032" layer="21"/>
<wire x1="0.635" y1="1.27" x2="1.27" y2="0.635" width="0.2032" layer="21"/>
<wire x1="1.27" y1="-0.635" x2="0.635" y2="-1.27" width="0.2032" layer="21"/>
<wire x1="1.27" y1="0.635" x2="1.905" y2="1.27" width="0.2032" layer="21"/>
<wire x1="1.905" y1="1.27" x2="3.175" y2="1.27" width="0.2032" layer="21"/>
<wire x1="3.175" y1="1.27" x2="3.81" y2="0.635" width="0.2032" layer="21"/>
<wire x1="3.81" y1="-0.635" x2="3.175" y2="-1.27" width="0.2032" layer="21"/>
<wire x1="3.175" y1="-1.27" x2="1.905" y2="-1.27" width="0.2032" layer="21"/>
<wire x1="1.905" y1="-1.27" x2="1.27" y2="-0.635" width="0.2032" layer="21"/>
<wire x1="-1.27" y1="0.635" x2="-1.27" y2="-0.635" width="0.2032" layer="21"/>
<wire x1="-0.635" y1="1.27" x2="-1.27" y2="0.635" width="0.2032" layer="21"/>
<wire x1="-1.27" y1="-0.635" x2="-0.635" y2="-1.27" width="0.2032" layer="21"/>
<wire x1="0.635" y1="-1.27" x2="-0.635" y2="-1.27" width="0.2032" layer="21"/>
<wire x1="3.81" y1="0.635" x2="3.81" y2="-0.635" width="0.2032" layer="21"/>
<rectangle x1="2.286" y1="-0.254" x2="2.794" y2="0.254" layer="51"/>
<rectangle x1="-0.254" y1="-0.254" x2="0.254" y2="0.254" layer="51"/>
<pad name="1" x="0" y="0" drill="1.016" diameter="1.8796" rot="R90"/>
<pad name="2" x="2.54" y="0" drill="1.016" diameter="1.8796" rot="R90"/>
<text x="-1.3462" y="1.8288" size="1.27" layer="25" ratio="10">&gt;NAME</text>
<text x="-1.27" y="-3.175" size="1.27" layer="27">&gt;VALUE</text>
</package>
<package name="1X02_BIG">
<wire x1="-1.27" y1="1.27" x2="-1.27" y2="-1.27" width="0.127" layer="21"/>
<wire x1="-1.27" y1="-1.27" x2="5.08" y2="-1.27" width="0.127" layer="21"/>
<wire x1="5.08" y1="-1.27" x2="5.08" y2="1.27" width="0.127" layer="21"/>
<wire x1="5.08" y1="1.27" x2="-1.27" y2="1.27" width="0.127" layer="21"/>
<pad name="P$1" x="0" y="0" drill="1.0668"/>
<pad name="P$2" x="3.81" y="0" drill="1.0668"/>
</package>
<package name="1X02_LOCK">
<wire x1="-0.635" y1="1.27" x2="0.635" y2="1.27" width="0.2032" layer="21"/>
<wire x1="0.635" y1="1.27" x2="1.27" y2="0.635" width="0.2032" layer="21"/>
<wire x1="1.27" y1="-0.635" x2="0.635" y2="-1.27" width="0.2032" layer="21"/>
<wire x1="1.27" y1="0.635" x2="1.905" y2="1.27" width="0.2032" layer="21"/>
<wire x1="1.905" y1="1.27" x2="3.175" y2="1.27" width="0.2032" layer="21"/>
<wire x1="3.175" y1="1.27" x2="3.81" y2="0.635" width="0.2032" layer="21"/>
<wire x1="3.81" y1="-0.635" x2="3.175" y2="-1.27" width="0.2032" layer="21"/>
<wire x1="3.175" y1="-1.27" x2="1.905" y2="-1.27" width="0.2032" layer="21"/>
<wire x1="1.905" y1="-1.27" x2="1.27" y2="-0.635" width="0.2032" layer="21"/>
<wire x1="-1.27" y1="0.635" x2="-1.27" y2="-0.635" width="0.2032" layer="21"/>
<wire x1="-0.635" y1="1.27" x2="-1.27" y2="0.635" width="0.2032" layer="21"/>
<wire x1="-1.27" y1="-0.635" x2="-0.635" y2="-1.27" width="0.2032" layer="21"/>
<wire x1="0.635" y1="-1.27" x2="-0.635" y2="-1.27" width="0.2032" layer="21"/>
<wire x1="3.81" y1="0.635" x2="3.81" y2="-0.635" width="0.2032" layer="21"/>
<rectangle x1="-0.2921" y1="-0.2921" x2="0.2921" y2="0.2921" layer="51"/>
<rectangle x1="2.2479" y1="-0.2921" x2="2.8321" y2="0.2921" layer="51"/>
<pad name="1" x="-0.1778" y="0" drill="1.016" diameter="1.8796" rot="R90"/>
<pad name="2" x="2.7178" y="0" drill="1.016" diameter="1.8796" rot="R90"/>
<text x="-1.3462" y="1.8288" size="1.27" layer="25" ratio="10">&gt;NAME</text>
<text x="-1.27" y="-3.175" size="1.27" layer="27">&gt;VALUE</text>
</package>
<package name="1X02_LOCK_LONGPADS">
<description>This footprint was designed to help hold the alignment of a through-hole component (i.e.  6-pin header) while soldering it into place.  
You may notice that each hole has been shifted either up or down by 0.005 of an inch from it's more standard position (which is a perfectly straight line).  
This slight alteration caused the pins (the squares in the middle) to touch the edges of the holes.  Because they are alternating, it causes a "brace" 
to hold the component in place.  0.005 has proven to be the perfect amount of "off-center" position when using our standard breakaway headers.
Although looks a little odd when you look at the bare footprint, once you have a header in there, the alteration is very hard to notice.  Also,
if you push a header all the way into place, it is covered up entirely on the bottom side.  This idea of altering the position of holes to aid alignment 
will be further integrated into the Sparkfun Library for other footprints.  It can help hold any component with 3 or more connection pins.</description>
<wire x1="1.651" y1="0" x2="0.889" y2="0" width="0.2032" layer="21"/>
<wire x1="-1.27" y1="0" x2="-1.016" y2="0" width="0.2032" layer="21"/>
<wire x1="-1.27" y1="0" x2="-1.27" y2="0.9906" width="0.2032" layer="21"/>
<wire x1="-1.27" y1="0.9906" x2="-0.9906" y2="1.27" width="0.2032" layer="21"/>
<wire x1="-1.27" y1="0" x2="-1.27" y2="-0.9906" width="0.2032" layer="21"/>
<wire x1="-1.27" y1="-0.9906" x2="-0.9906" y2="-1.27" width="0.2032" layer="21"/>
<wire x1="3.81" y1="0" x2="3.556" y2="0" width="0.2032" layer="21"/>
<wire x1="3.81" y1="0" x2="3.81" y2="-0.9906" width="0.2032" layer="21"/>
<wire x1="3.81" y1="-0.9906" x2="3.5306" y2="-1.27" width="0.2032" layer="21"/>
<wire x1="3.81" y1="0" x2="3.81" y2="0.9906" width="0.2032" layer="21"/>
<wire x1="3.81" y1="0.9906" x2="3.5306" y2="1.27" width="0.2032" layer="21"/>
<rectangle x1="-0.2921" y1="-0.2921" x2="0.2921" y2="0.2921" layer="51"/>
<rectangle x1="2.2479" y1="-0.2921" x2="2.8321" y2="0.2921" layer="51"/>
<pad name="1" x="-0.127" y="0" drill="1.016" shape="long" rot="R90"/>
<pad name="2" x="2.667" y="0" drill="1.016" shape="long" rot="R90"/>
<text x="-1.27" y="1.778" size="1.27" layer="25" font="vector">&gt;NAME</text>
<text x="-1.27" y="-3.302" size="1.27" layer="27" font="vector">&gt;VALUE</text>
</package>
<package name="1X08">
<wire x1="14.605" y1="1.27" x2="15.875" y2="1.27" width="0.2032" layer="21"/>
<wire x1="15.875" y1="1.27" x2="16.51" y2="0.635" width="0.2032" layer="21"/>
<wire x1="16.51" y1="-0.635" x2="15.875" y2="-1.27" width="0.2032" layer="21"/>
<wire x1="11.43" y1="0.635" x2="12.065" y2="1.27" width="0.2032" layer="21"/>
<wire x1="12.065" y1="1.27" x2="13.335" y2="1.27" width="0.2032" layer="21"/>
<wire x1="13.335" y1="1.27" x2="13.97" y2="0.635" width="0.2032" layer="21"/>
<wire x1="13.97" y1="-0.635" x2="13.335" y2="-1.27" width="0.2032" layer="21"/>
<wire x1="13.335" y1="-1.27" x2="12.065" y2="-1.27" width="0.2032" layer="21"/>
<wire x1="12.065" y1="-1.27" x2="11.43" y2="-0.635" width="0.2032" layer="21"/>
<wire x1="14.605" y1="1.27" x2="13.97" y2="0.635" width="0.2032" layer="21"/>
<wire x1="13.97" y1="-0.635" x2="14.605" y2="-1.27" width="0.2032" layer="21"/>
<wire x1="15.875" y1="-1.27" x2="14.605" y2="-1.27" width="0.2032" layer="21"/>
<wire x1="6.985" y1="1.27" x2="8.255" y2="1.27" width="0.2032" layer="21"/>
<wire x1="8.255" y1="1.27" x2="8.89" y2="0.635" width="0.2032" layer="21"/>
<wire x1="8.89" y1="-0.635" x2="8.255" y2="-1.27" width="0.2032" layer="21"/>
<wire x1="8.89" y1="0.635" x2="9.525" y2="1.27" width="0.2032" layer="21"/>
<wire x1="9.525" y1="1.27" x2="10.795" y2="1.27" width="0.2032" layer="21"/>
<wire x1="10.795" y1="1.27" x2="11.43" y2="0.635" width="0.2032" layer="21"/>
<wire x1="11.43" y1="-0.635" x2="10.795" y2="-1.27" width="0.2032" layer="21"/>
<wire x1="10.795" y1="-1.27" x2="9.525" y2="-1.27" width="0.2032" layer="21"/>
<wire x1="9.525" y1="-1.27" x2="8.89" y2="-0.635" width="0.2032" layer="21"/>
<wire x1="3.81" y1="0.635" x2="4.445" y2="1.27" width="0.2032" layer="21"/>
<wire x1="4.445" y1="1.27" x2="5.715" y2="1.27" width="0.2032" layer="21"/>
<wire x1="5.715" y1="1.27" x2="6.35" y2="0.635" width="0.2032" layer="21"/>
<wire x1="6.35" y1="-0.635" x2="5.715" y2="-1.27" width="0.2032" layer="21"/>
<wire x1="5.715" y1="-1.27" x2="4.445" y2="-1.27" width="0.2032" layer="21"/>
<wire x1="4.445" y1="-1.27" x2="3.81" y2="-0.635" width="0.2032" layer="21"/>
<wire x1="6.985" y1="1.27" x2="6.35" y2="0.635" width="0.2032" layer="21"/>
<wire x1="6.35" y1="-0.635" x2="6.985" y2="-1.27" width="0.2032" layer="21"/>
<wire x1="8.255" y1="-1.27" x2="6.985" y2="-1.27" width="0.2032" layer="21"/>
<wire x1="-0.635" y1="1.27" x2="0.635" y2="1.27" width="0.2032" layer="21"/>
<wire x1="0.635" y1="1.27" x2="1.27" y2="0.635" width="0.2032" layer="21"/>
<wire x1="1.27" y1="-0.635" x2="0.635" y2="-1.27" width="0.2032" layer="21"/>
<wire x1="1.27" y1="0.635" x2="1.905" y2="1.27" width="0.2032" layer="21"/>
<wire x1="1.905" y1="1.27" x2="3.175" y2="1.27" width="0.2032" layer="21"/>
<wire x1="3.175" y1="1.27" x2="3.81" y2="0.635" width="0.2032" layer="21"/>
<wire x1="3.81" y1="-0.635" x2="3.175" y2="-1.27" width="0.2032" layer="21"/>
<wire x1="3.175" y1="-1.27" x2="1.905" y2="-1.27" width="0.2032" layer="21"/>
<wire x1="1.905" y1="-1.27" x2="1.27" y2="-0.635" width="0.2032" layer="21"/>
<wire x1="-1.27" y1="0.635" x2="-1.27" y2="-0.635" width="0.2032" layer="21"/>
<wire x1="-0.635" y1="1.27" x2="-1.27" y2="0.635" width="0.2032" layer="21"/>
<wire x1="-1.27" y1="-0.635" x2="-0.635" y2="-1.27" width="0.2032" layer="21"/>
<wire x1="0.635" y1="-1.27" x2="-0.635" y2="-1.27" width="0.2032" layer="21"/>
<wire x1="17.145" y1="1.27" x2="18.415" y2="1.27" width="0.2032" layer="21"/>
<wire x1="18.415" y1="1.27" x2="19.05" y2="0.635" width="0.2032" layer="21"/>
<wire x1="19.05" y1="0.635" x2="19.05" y2="-0.635" width="0.2032" layer="21"/>
<wire x1="19.05" y1="-0.635" x2="18.415" y2="-1.27" width="0.2032" layer="21"/>
<wire x1="17.145" y1="1.27" x2="16.51" y2="0.635" width="0.2032" layer="21"/>
<wire x1="16.51" y1="-0.635" x2="17.145" y2="-1.27" width="0.2032" layer="21"/>
<wire x1="18.415" y1="-1.27" x2="17.145" y2="-1.27" width="0.2032" layer="21"/>
<rectangle x1="14.986" y1="-0.254" x2="15.494" y2="0.254" layer="51"/>
<rectangle x1="12.446" y1="-0.254" x2="12.954" y2="0.254" layer="51"/>
<rectangle x1="9.906" y1="-0.254" x2="10.414" y2="0.254" layer="51"/>
<rectangle x1="7.366" y1="-0.254" x2="7.874" y2="0.254" layer="51"/>
<rectangle x1="4.826" y1="-0.254" x2="5.334" y2="0.254" layer="51"/>
<rectangle x1="2.286" y1="-0.254" x2="2.794" y2="0.254" layer="51"/>
<rectangle x1="-0.254" y1="-0.254" x2="0.254" y2="0.254" layer="51"/>
<rectangle x1="17.526" y1="-0.254" x2="18.034" y2="0.254" layer="51"/>
<pad name="1" x="0" y="0" drill="1.016" diameter="1.8288" shape="square" rot="R90"/>
<pad name="2" x="2.54" y="0" drill="1.016" diameter="1.8288" rot="R90"/>
<pad name="3" x="5.08" y="0" drill="1.016" diameter="1.8288" rot="R90"/>
<pad name="4" x="7.62" y="0" drill="1.016" diameter="1.8288" rot="R90"/>
<pad name="5" x="10.16" y="0" drill="1.016" diameter="1.8288" rot="R90"/>
<pad name="6" x="12.7" y="0" drill="1.016" diameter="1.8288" rot="R90"/>
<pad name="7" x="15.24" y="0" drill="1.016" diameter="1.8288" rot="R90"/>
<pad name="8" x="17.78" y="0" drill="1.016" diameter="1.8288" rot="R90"/>
<text x="-1.3462" y="1.8288" size="1.27" layer="25" ratio="10">&gt;NAME</text>
<text x="-1.27" y="-3.175" size="1.27" layer="27">&gt;VALUE</text>
</package>
<package name="1X08_LOCK">
<wire x1="14.605" y1="1.27" x2="15.875" y2="1.27" width="0.2032" layer="21"/>
<wire x1="15.875" y1="1.27" x2="16.51" y2="0.635" width="0.2032" layer="21"/>
<wire x1="16.51" y1="-0.635" x2="15.875" y2="-1.27" width="0.2032" layer="21"/>
<wire x1="11.43" y1="0.635" x2="12.065" y2="1.27" width="0.2032" layer="21"/>
<wire x1="12.065" y1="1.27" x2="13.335" y2="1.27" width="0.2032" layer="21"/>
<wire x1="13.335" y1="1.27" x2="13.97" y2="0.635" width="0.2032" layer="21"/>
<wire x1="13.97" y1="-0.635" x2="13.335" y2="-1.27" width="0.2032" layer="21"/>
<wire x1="13.335" y1="-1.27" x2="12.065" y2="-1.27" width="0.2032" layer="21"/>
<wire x1="12.065" y1="-1.27" x2="11.43" y2="-0.635" width="0.2032" layer="21"/>
<wire x1="14.605" y1="1.27" x2="13.97" y2="0.635" width="0.2032" layer="21"/>
<wire x1="13.97" y1="-0.635" x2="14.605" y2="-1.27" width="0.2032" layer="21"/>
<wire x1="15.875" y1="-1.27" x2="14.605" y2="-1.27" width="0.2032" layer="21"/>
<wire x1="6.985" y1="1.27" x2="8.255" y2="1.27" width="0.2032" layer="21"/>
<wire x1="8.255" y1="1.27" x2="8.89" y2="0.635" width="0.2032" layer="21"/>
<wire x1="8.89" y1="-0.635" x2="8.255" y2="-1.27" width="0.2032" layer="21"/>
<wire x1="8.89" y1="0.635" x2="9.525" y2="1.27" width="0.2032" layer="21"/>
<wire x1="9.525" y1="1.27" x2="10.795" y2="1.27" width="0.2032" layer="21"/>
<wire x1="10.795" y1="1.27" x2="11.43" y2="0.635" width="0.2032" layer="21"/>
<wire x1="11.43" y1="-0.635" x2="10.795" y2="-1.27" width="0.2032" layer="21"/>
<wire x1="10.795" y1="-1.27" x2="9.525" y2="-1.27" width="0.2032" layer="21"/>
<wire x1="9.525" y1="-1.27" x2="8.89" y2="-0.635" width="0.2032" layer="21"/>
<wire x1="3.81" y1="0.635" x2="4.445" y2="1.27" width="0.2032" layer="21"/>
<wire x1="4.445" y1="1.27" x2="5.715" y2="1.27" width="0.2032" layer="21"/>
<wire x1="5.715" y1="1.27" x2="6.35" y2="0.635" width="0.2032" layer="21"/>
<wire x1="6.35" y1="-0.635" x2="5.715" y2="-1.27" width="0.2032" layer="21"/>
<wire x1="5.715" y1="-1.27" x2="4.445" y2="-1.27" width="0.2032" layer="21"/>
<wire x1="4.445" y1="-1.27" x2="3.81" y2="-0.635" width="0.2032" layer="21"/>
<wire x1="6.985" y1="1.27" x2="6.35" y2="0.635" width="0.2032" layer="21"/>
<wire x1="6.35" y1="-0.635" x2="6.985" y2="-1.27" width="0.2032" layer="21"/>
<wire x1="8.255" y1="-1.27" x2="6.985" y2="-1.27" width="0.2032" layer="21"/>
<wire x1="-0.635" y1="1.27" x2="0.635" y2="1.27" width="0.2032" layer="21"/>
<wire x1="0.635" y1="1.27" x2="1.27" y2="0.635" width="0.2032" layer="21"/>
<wire x1="1.27" y1="-0.635" x2="0.635" y2="-1.27" width="0.2032" layer="21"/>
<wire x1="1.27" y1="0.635" x2="1.905" y2="1.27" width="0.2032" layer="21"/>
<wire x1="1.905" y1="1.27" x2="3.175" y2="1.27" width="0.2032" layer="21"/>
<wire x1="3.175" y1="1.27" x2="3.81" y2="0.635" width="0.2032" layer="21"/>
<wire x1="3.81" y1="-0.635" x2="3.175" y2="-1.27" width="0.2032" layer="21"/>
<wire x1="3.175" y1="-1.27" x2="1.905" y2="-1.27" width="0.2032" layer="21"/>
<wire x1="1.905" y1="-1.27" x2="1.27" y2="-0.635" width="0.2032" layer="21"/>
<wire x1="-1.27" y1="0.635" x2="-1.27" y2="-0.635" width="0.2032" layer="21"/>
<wire x1="-0.635" y1="1.27" x2="-1.27" y2="0.635" width="0.2032" layer="21"/>
<wire x1="-1.27" y1="-0.635" x2="-0.635" y2="-1.27" width="0.2032" layer="21"/>
<wire x1="0.635" y1="-1.27" x2="-0.635" y2="-1.27" width="0.2032" layer="21"/>
<wire x1="17.145" y1="1.27" x2="18.415" y2="1.27" width="0.2032" layer="21"/>
<wire x1="18.415" y1="1.27" x2="19.05" y2="0.635" width="0.2032" layer="21"/>
<wire x1="19.05" y1="0.635" x2="19.05" y2="-0.635" width="0.2032" layer="21"/>
<wire x1="19.05" y1="-0.635" x2="18.415" y2="-1.27" width="0.2032" layer="21"/>
<wire x1="17.145" y1="1.27" x2="16.51" y2="0.635" width="0.2032" layer="21"/>
<wire x1="16.51" y1="-0.635" x2="17.145" y2="-1.27" width="0.2032" layer="21"/>
<wire x1="18.415" y1="-1.27" x2="17.145" y2="-1.27" width="0.2032" layer="21"/>
<rectangle x1="14.986" y1="-0.254" x2="15.494" y2="0.254" layer="51"/>
<rectangle x1="12.446" y1="-0.254" x2="12.954" y2="0.254" layer="51"/>
<rectangle x1="9.906" y1="-0.254" x2="10.414" y2="0.254" layer="51"/>
<rectangle x1="7.366" y1="-0.254" x2="7.874" y2="0.254" layer="51"/>
<rectangle x1="4.826" y1="-0.254" x2="5.334" y2="0.254" layer="51"/>
<rectangle x1="2.286" y1="-0.254" x2="2.794" y2="0.254" layer="51"/>
<rectangle x1="-0.254" y1="-0.254" x2="0.254" y2="0.254" layer="51"/>
<rectangle x1="17.526" y1="-0.254" x2="18.034" y2="0.254" layer="51"/>
<pad name="1" x="0" y="0.127" drill="1.016" diameter="1.8796" shape="square" rot="R90"/>
<pad name="2" x="2.54" y="-0.127" drill="1.016" diameter="1.8796" rot="R90"/>
<pad name="3" x="5.08" y="0.127" drill="1.016" diameter="1.8796" rot="R90"/>
<pad name="4" x="7.62" y="-0.127" drill="1.016" diameter="1.8796" rot="R90"/>
<pad name="5" x="10.16" y="0.127" drill="1.016" diameter="1.8796" rot="R90"/>
<pad name="6" x="12.7" y="-0.127" drill="1.016" diameter="1.8796" rot="R90"/>
<pad name="7" x="15.24" y="0.127" drill="1.016" diameter="1.8796" rot="R90"/>
<pad name="8" x="17.78" y="-0.127" drill="1.016" diameter="1.8796" rot="R90"/>
<text x="-1.3462" y="1.8288" size="1.27" layer="25" ratio="10">&gt;NAME</text>
<text x="-1.27" y="-3.175" size="1.27" layer="27">&gt;VALUE</text>
</package>
<package name="1X08_LOCK_LONGPADS">
<wire x1="1.524" y1="0" x2="1.016" y2="0" width="0.2032" layer="21"/>
<wire x1="4.064" y1="0" x2="3.556" y2="0" width="0.2032" layer="21"/>
<wire x1="6.604" y1="0" x2="6.096" y2="0" width="0.2032" layer="21"/>
<wire x1="9.144" y1="0" x2="8.636" y2="0" width="0.2032" layer="21"/>
<wire x1="11.684" y1="0" x2="11.176" y2="0" width="0.2032" layer="21"/>
<wire x1="-1.27" y1="0" x2="-1.016" y2="0" width="0.2032" layer="21"/>
<wire x1="-1.27" y1="0" x2="-1.27" y2="0.9906" width="0.2032" layer="21"/>
<wire x1="-1.27" y1="0.9906" x2="-0.9906" y2="1.27" width="0.2032" layer="21"/>
<wire x1="-1.27" y1="0" x2="-1.27" y2="-0.9906" width="0.2032" layer="21"/>
<wire x1="-1.27" y1="-0.9906" x2="-0.9906" y2="-1.27" width="0.2032" layer="21"/>
<wire x1="14.224" y1="0" x2="13.716" y2="0" width="0.2032" layer="21"/>
<wire x1="16.764" y1="0" x2="16.256" y2="0" width="0.2032" layer="21"/>
<wire x1="19.05" y1="-0.9906" x2="18.7706" y2="-1.27" width="0.2032" layer="21"/>
<wire x1="19.05" y1="-0.9906" x2="19.05" y2="0" width="0.2032" layer="21"/>
<wire x1="19.05" y1="0" x2="19.05" y2="0.9906" width="0.2032" layer="21"/>
<wire x1="19.05" y1="0.9906" x2="18.7706" y2="1.27" width="0.2032" layer="21"/>
<wire x1="19.05" y1="0" x2="18.796" y2="0" width="0.2032" layer="21"/>
<rectangle x1="-0.2921" y1="-0.2921" x2="0.2921" y2="0.2921" layer="51"/>
<rectangle x1="2.2479" y1="-0.2921" x2="2.8321" y2="0.2921" layer="51"/>
<rectangle x1="4.7879" y1="-0.2921" x2="5.3721" y2="0.2921" layer="51"/>
<rectangle x1="7.3279" y1="-0.2921" x2="7.9121" y2="0.2921" layer="51" rot="R90"/>
<rectangle x1="9.8679" y1="-0.2921" x2="10.4521" y2="0.2921" layer="51"/>
<rectangle x1="12.4079" y1="-0.2921" x2="12.9921" y2="0.2921" layer="51"/>
<rectangle x1="14.9479" y1="-0.2921" x2="15.5321" y2="0.2921" layer="51"/>
<rectangle x1="17.4879" y1="-0.2921" x2="18.0721" y2="0.2921" layer="51"/>
<pad name="1" x="0" y="0.127" drill="1.016" shape="long" rot="R90"/>
<pad name="2" x="2.54" y="-0.127" drill="1.016" shape="long" rot="R90"/>
<pad name="3" x="5.08" y="0.127" drill="1.016" shape="long" rot="R90"/>
<pad name="4" x="7.62" y="-0.127" drill="1.016" shape="long" rot="R90"/>
<pad name="5" x="10.16" y="0.127" drill="1.016" shape="long" rot="R90"/>
<pad name="6" x="12.7" y="-0.127" drill="1.016" shape="long" rot="R90"/>
<pad name="7" x="15.24" y="0.127" drill="1.016" shape="long" rot="R90"/>
<pad name="8" x="17.78" y="-0.127" drill="1.016" shape="long" rot="R90"/>
<text x="-1.27" y="1.905" size="1.27" layer="25" font="vector">&gt;NAME</text>
<text x="-1.27" y="-3.175" size="1.27" layer="27" font="vector">&gt;VALUE</text>
</package>
<package name="MOLEX-1X2">
<wire x1="-1.27" y1="3.048" x2="-1.27" y2="-2.54" width="0.127" layer="21"/>
<wire x1="3.81" y1="3.048" x2="3.81" y2="-2.54" width="0.127" layer="21"/>
<wire x1="3.81" y1="3.048" x2="-1.27" y2="3.048" width="0.127" layer="21"/>
<wire x1="3.81" y1="-2.54" x2="2.54" y2="-2.54" width="0.127" layer="21"/>
<wire x1="2.54" y1="-2.54" x2="0" y2="-2.54" width="0.127" layer="21"/>
<wire x1="0" y1="-2.54" x2="-1.27" y2="-2.54" width="0.127" layer="21"/>
<wire x1="0" y1="-2.54" x2="0" y2="-1.27" width="0.127" layer="21"/>
<wire x1="0" y1="-1.27" x2="2.54" y2="-1.27" width="0.127" layer="21"/>
<wire x1="2.54" y1="-1.27" x2="2.54" y2="-2.54" width="0.127" layer="21"/>
<pad name="1" x="0" y="0" drill="1.016" diameter="1.8796" shape="square"/>
<pad name="2" x="2.54" y="0" drill="1.016" diameter="1.8796"/>
</package>
<package name="MOLEX-1X2_LOCK">
<wire x1="-1.27" y1="3.048" x2="-1.27" y2="-2.54" width="0.127" layer="21"/>
<wire x1="3.81" y1="3.048" x2="3.81" y2="-2.54" width="0.127" layer="21"/>
<wire x1="3.81" y1="3.048" x2="-1.27" y2="3.048" width="0.127" layer="21"/>
<wire x1="3.81" y1="-2.54" x2="2.54" y2="-2.54" width="0.127" layer="21"/>
<wire x1="2.54" y1="-2.54" x2="0" y2="-2.54" width="0.127" layer="21"/>
<wire x1="0" y1="-2.54" x2="-1.27" y2="-2.54" width="0.127" layer="21"/>
<wire x1="0" y1="-2.54" x2="0" y2="-1.27" width="0.127" layer="21"/>
<wire x1="0" y1="-1.27" x2="2.54" y2="-1.27" width="0.127" layer="21"/>
<wire x1="2.54" y1="-1.27" x2="2.54" y2="-2.54" width="0.127" layer="21"/>
<rectangle x1="-0.2921" y1="-0.2921" x2="0.2921" y2="0.2921" layer="51"/>
<rectangle x1="2.2479" y1="-0.2921" x2="2.8321" y2="0.2921" layer="51"/>
<pad name="1" x="-0.127" y="0" drill="1.016" diameter="1.8796" shape="square"/>
<pad name="2" x="2.667" y="0" drill="1.016" diameter="1.8796"/>
</package>
<package name="RESONATOR-PTH">
<wire x1="-2.286" y1="1.778" x2="-2.286" y2="-1.778" width="0.2032" layer="21" curve="162.403081"/>
<wire x1="2.286" y1="-1.778" x2="2.286" y2="1.778" width="0.2032" layer="21" curve="162.403081"/>
<wire x1="-2.286" y1="-1.778" x2="2.286" y2="-1.778" width="0.2032" layer="21" curve="12.71932"/>
<wire x1="2.286" y1="1.778" x2="-2.286" y2="1.778" width="0.2032" layer="21" curve="12.758496"/>
<pad name="1" x="-2.54" y="0" drill="0.8" diameter="1.8796"/>
<pad name="2" x="0" y="0" drill="0.8" diameter="1.8796"/>
<pad name="3" x="2.54" y="0" drill="0.8" diameter="1.8796"/>
</package>
<package name="RESONATOR-SMD">
<wire x1="1.8" y1="0.65" x2="1.8" y2="-0.65" width="0.2032" layer="21"/>
<wire x1="-1.8" y1="-0.65" x2="-1.8" y2="0.65" width="0.2032" layer="21"/>
<wire x1="-1.6" y1="0.65" x2="1.6" y2="0.65" width="0.127" layer="51"/>
<wire x1="1.6" y1="0.65" x2="1.6" y2="-0.65" width="0.127" layer="51"/>
<wire x1="1.6" y1="-0.65" x2="-1.6" y2="-0.65" width="0.127" layer="51"/>
<wire x1="-1.6" y1="-0.65" x2="-1.6" y2="0.65" width="0.127" layer="51"/>
<smd name="1" x="-1.2" y="0" dx="0.7" dy="1.7" layer="1"/>
<smd name="2" x="0" y="0" dx="0.7" dy="1.7" layer="1"/>
<smd name="3" x="1.2" y="0" dx="0.7" dy="1.7" layer="1"/>
<text x="-0.889" y="1.27" size="0.4064" layer="25">&gt;Name</text>
<text x="-0.889" y="-1.524" size="0.4064" layer="27">&gt;Value</text>
</package>
<package name="R_SW_TH">
<wire x1="-1.651" y1="19.2532" x2="-1.651" y2="-2.2352" width="0.2032" layer="21"/>
<wire x1="-1.651" y1="19.2532" x2="13.589" y2="19.2532" width="0.2032" layer="21"/>
<wire x1="13.589" y1="19.2532" x2="13.589" y2="-2.2352" width="0.2032" layer="21"/>
<wire x1="13.589" y1="-2.2352" x2="-1.651" y2="-2.2352" width="0.2032" layer="21"/>
<pad name="P$1" x="0" y="0" drill="1.6002"/>
<pad name="P$2" x="0" y="16.9926" drill="1.6002"/>
<pad name="P$3" x="12.0904" y="15.494" drill="1.6002"/>
<pad name="P$4" x="12.0904" y="8.4582" drill="1.6002"/>
</package>
<package name="S2B-PH">
<description>2mm SMD side-entry connector. tDocu layer indicates the actual physical plastic housing. +/- indicate SparkFun standard batteries and wiring.</description>
<wire x1="-4" y1="3" x2="4" y2="3" width="0.2032" layer="51"/>
<wire x1="4" y1="3" x2="4" y2="-4.5" width="0.2032" layer="51"/>
<wire x1="-4" y1="-4.5" x2="-4" y2="3" width="0.2032" layer="51"/>
<wire x1="3.2" y1="-2" x2="-3.2" y2="-2" width="0.2032" layer="51"/>
<wire x1="-3.2" y1="-2" x2="-3.2" y2="-4.5" width="0.2032" layer="51"/>
<wire x1="-3.2" y1="-4.5" x2="-4" y2="-4.5" width="0.2032" layer="51"/>
<wire x1="4" y1="-4.5" x2="3.2" y2="-4.5" width="0.2032" layer="51"/>
<wire x1="3.2" y1="-4.5" x2="3.2" y2="-2" width="0.2032" layer="51"/>
<smd name="1" x="-1" y="-3.7" dx="1" dy="4.6" layer="1"/>
<smd name="2" x="1" y="-3.7" dx="1" dy="4.6" layer="1"/>
<smd name="NC1" x="-3.4" y="1.5" dx="3.4" dy="1.6" layer="1" rot="R90"/>
<smd name="NC2" x="3.4" y="1.5" dx="3.4" dy="1.6" layer="1" rot="R90"/>
<text x="-1.27" y="1.27" size="0.4064" layer="25">&gt;Name</text>
<text x="-1.27" y="0" size="0.4064" layer="27">&gt;Value</text>
<text x="2.159" y="-4.445" size="1.27" layer="51">+</text>
<text x="-2.921" y="-4.445" size="1.27" layer="51">-</text>
</package>
<package name="S2B-PH-VERTICAL">
<wire x1="-4.1" y1="2.97" x2="4.2" y2="2.97" width="0.2032" layer="51"/>
<wire x1="4.2" y1="2.97" x2="4.2" y2="-2.13" width="0.2032" layer="51"/>
<wire x1="4.2" y1="-2.13" x2="-4.1" y2="-2.13" width="0.2032" layer="51"/>
<wire x1="-4.1" y1="-2.13" x2="-4.1" y2="2.97" width="0.2032" layer="51"/>
<wire x1="-4.1" y1="3" x2="4.2" y2="3" width="0.2032" layer="21"/>
<wire x1="4.2" y1="3" x2="4.2" y2="2.3" width="0.2032" layer="21"/>
<wire x1="-4.1" y1="3" x2="-4.1" y2="2.3" width="0.2032" layer="21"/>
<wire x1="2" y1="-2.1" x2="4.2" y2="-2.1" width="0.2032" layer="21"/>
<wire x1="4.2" y1="-2.1" x2="4.2" y2="-1.7" width="0.2032" layer="21"/>
<wire x1="-2" y1="-2.1" x2="-4.1" y2="-2.1" width="0.2032" layer="21"/>
<wire x1="-4.1" y1="-2.1" x2="-4.1" y2="-1.8" width="0.2032" layer="21"/>
<smd name="GND" x="1" y="-2" dx="1" dy="5.5" layer="1"/>
<smd name="P$1" x="-3.4" y="0.27" dx="3" dy="1.6" layer="1" rot="R90"/>
<smd name="P$2" x="3.4" y="0.27" dx="3" dy="1.6" layer="1" rot="R90"/>
<smd name="VCC" x="-1" y="-2" dx="1" dy="5.5" layer="1"/>
<text x="2.54" y="-5.08" size="1.27" layer="25">&gt;Name</text>
<text x="2.24" y="3.48" size="1.27" layer="27">&gt;Value</text>
</package>
<package name="SCREWTERMINAL-3.5MM-2">
<circle x="2" y="3" radius="0.2828" width="0.127" layer="51"/>
<wire x1="-1.75" y1="3.4" x2="5.25" y2="3.4" width="0.2032" layer="21"/>
<wire x1="5.25" y1="3.4" x2="5.25" y2="-2.8" width="0.2032" layer="21"/>
<wire x1="5.25" y1="-2.8" x2="5.25" y2="-3.6" width="0.2032" layer="21"/>
<wire x1="5.25" y1="-3.6" x2="-1.75" y2="-3.6" width="0.2032" layer="21"/>
<wire x1="-1.75" y1="-3.6" x2="-1.75" y2="-2.8" width="0.2032" layer="21"/>
<wire x1="-1.75" y1="-2.8" x2="-1.75" y2="3.4" width="0.2032" layer="21"/>
<wire x1="5.25" y1="-2.8" x2="-1.75" y2="-2.8" width="0.2032" layer="21"/>
<wire x1="-1.75" y1="-1.35" x2="-2.15" y2="-1.35" width="0.2032" layer="51"/>
<wire x1="-2.15" y1="-1.35" x2="-2.15" y2="-2.35" width="0.2032" layer="51"/>
<wire x1="-2.15" y1="-2.35" x2="-1.75" y2="-2.35" width="0.2032" layer="51"/>
<wire x1="5.25" y1="3.15" x2="5.65" y2="3.15" width="0.2032" layer="51"/>
<wire x1="5.65" y1="3.15" x2="5.65" y2="2.15" width="0.2032" layer="51"/>
<wire x1="5.65" y1="2.15" x2="5.25" y2="2.15" width="0.2032" layer="51"/>
<pad name="1" x="0" y="0" drill="1.2" diameter="2.032" shape="square"/>
<pad name="2" x="3.5" y="0" drill="1.2" diameter="2.032"/>
<text x="-1.27" y="2.54" size="0.4064" layer="25">&gt;NAME</text>
<text x="-1.27" y="1.27" size="0.4064" layer="27">&gt;VALUE</text>
</package>
<package name="SCREWTERMINAL-3.5MM-2_LOCK">
<circle x="2" y="3" radius="0.2828" width="0.127" layer="51"/>
<circle x="0" y="0" radius="0.4318" width="0.0254" layer="51"/>
<circle x="3.5" y="0" radius="0.4318" width="0.0254" layer="51"/>
<wire x1="-1.75" y1="3.4" x2="5.25" y2="3.4" width="0.2032" layer="21"/>
<wire x1="5.25" y1="3.4" x2="5.25" y2="-2.8" width="0.2032" layer="21"/>
<wire x1="5.25" y1="-2.8" x2="5.25" y2="-3.6" width="0.2032" layer="21"/>
<wire x1="5.25" y1="-3.6" x2="-1.75" y2="-3.6" width="0.2032" layer="21"/>
<wire x1="-1.75" y1="-3.6" x2="-1.75" y2="-2.8" width="0.2032" layer="21"/>
<wire x1="-1.75" y1="-2.8" x2="-1.75" y2="3.4" width="0.2032" layer="21"/>
<wire x1="5.25" y1="-2.8" x2="-1.75" y2="-2.8" width="0.2032" layer="21"/>
<wire x1="-1.75" y1="-1.35" x2="-2.15" y2="-1.35" width="0.2032" layer="51"/>
<wire x1="-2.15" y1="-1.35" x2="-2.15" y2="-2.35" width="0.2032" layer="51"/>
<wire x1="-2.15" y1="-2.35" x2="-1.75" y2="-2.35" width="0.2032" layer="51"/>
<wire x1="5.25" y1="3.15" x2="5.65" y2="3.15" width="0.2032" layer="51"/>
<wire x1="5.65" y1="3.15" x2="5.65" y2="2.15" width="0.2032" layer="51"/>
<wire x1="5.65" y1="2.15" x2="5.25" y2="2.15" width="0.2032" layer="51"/>
<pad name="1" x="-0.1778" y="0" drill="1.2" diameter="2.032" shape="square"/>
<pad name="2" x="3.6778" y="0" drill="1.2" diameter="2.032"/>
<text x="-1.27" y="2.54" size="0.4064" layer="25">&gt;NAME</text>
<text x="-1.27" y="1.27" size="0.4064" layer="27">&gt;VALUE</text>
</package>
<package name="SCREWTERMINAL-5MM-2">
<circle x="2.5" y="3.7" radius="0.2828" width="0.127" layer="51"/>
<wire x1="-3.1" y1="4.2" x2="8.1" y2="4.2" width="0.2032" layer="21"/>
<wire x1="8.1" y1="4.2" x2="8.1" y2="-2.3" width="0.2032" layer="21"/>
<wire x1="8.1" y1="-2.3" x2="8.1" y2="-3.3" width="0.2032" layer="21"/>
<wire x1="8.1" y1="-3.3" x2="-3.1" y2="-3.3" width="0.2032" layer="21"/>
<wire x1="-3.1" y1="-3.3" x2="-3.1" y2="-2.3" width="0.2032" layer="21"/>
<wire x1="-3.1" y1="-2.3" x2="-3.1" y2="4.2" width="0.2032" layer="21"/>
<wire x1="8.1" y1="-2.3" x2="-3.1" y2="-2.3" width="0.2032" layer="21"/>
<wire x1="-3.1" y1="-1.35" x2="-3.7" y2="-1.35" width="0.2032" layer="51"/>
<wire x1="-3.7" y1="-1.35" x2="-3.7" y2="-2.35" width="0.2032" layer="51"/>
<wire x1="-3.7" y1="-2.35" x2="-3.1" y2="-2.35" width="0.2032" layer="51"/>
<wire x1="8.1" y1="4" x2="8.7" y2="4" width="0.2032" layer="51"/>
<wire x1="8.7" y1="4" x2="8.7" y2="3" width="0.2032" layer="51"/>
<wire x1="8.7" y1="3" x2="8.1" y2="3" width="0.2032" layer="51"/>
<pad name="1" x="0" y="0" drill="1.3" diameter="2.032" shape="square"/>
<pad name="2" x="5" y="0" drill="1.3" diameter="2.032"/>
<text x="-1.27" y="2.54" size="0.4064" layer="25">&gt;NAME</text>
<text x="-1.27" y="1.27" size="0.4064" layer="27">&gt;VALUE</text>
</package>
<package name="SJ_2S">
<description>Small solder jumper with big paste layer so it will short during reflow.</description>
<wire x1="0.8" y1="-1" x2="-0.8" y2="-1" width="0.1524" layer="21"/>
<wire x1="0.8" y1="1" x2="1.1" y2="0.75" width="0.1524" layer="21" curve="-90"/>
<wire x1="-1.1" y1="0.75" x2="-0.8" y2="1" width="0.1524" layer="21" curve="-90"/>
<wire x1="-1.1" y1="-0.75" x2="-0.8" y2="-1" width="0.1524" layer="21" curve="90.114706"/>
<wire x1="0.8" y1="-1" x2="1.1" y2="-0.75" width="0.1524" layer="21" curve="90"/>
<wire x1="1.1" y1="-0.75" x2="1.1" y2="0.75" width="0.1524" layer="21"/>
<wire x1="-1.1" y1="-0.75" x2="-1.1" y2="0.75" width="0.1524" layer="21"/>
<wire x1="-0.8" y1="1" x2="0.8" y2="1" width="0.1524" layer="21"/>
<rectangle x1="-1.2192" y1="-1.143" x2="1.2192" y2="1.143" layer="31"/>
<smd name="1" x="-0.45" y="0" dx="0.635" dy="1.27" layer="1"/>
<smd name="2" x="0.45" y="0" dx="0.635" dy="1.27" layer="1"/>
<text x="-0.9498" y="1.27" size="0.4064" layer="25">&gt;NAME</text>
<text x="-0.9498" y="-1.651" size="0.4064" layer="27">&gt;VALUE</text>
</package>
<package name="SJ_2S-NO">
<description>Small solder jumper with no paste layer so it will open after reflow.</description>
<wire x1="0.8" y1="-1" x2="-0.8" y2="-1" width="0.2032" layer="21"/>
<wire x1="0.8" y1="1" x2="1" y2="0.7" width="0.2032" layer="21" curve="-90"/>
<wire x1="-1" y1="0.7" x2="-0.8" y2="1" width="0.2032" layer="21" curve="-90"/>
<wire x1="-1" y1="-0.7" x2="-0.8" y2="-1" width="0.2032" layer="21" curve="90"/>
<wire x1="0.8" y1="-1" x2="1" y2="-0.7" width="0.2032" layer="21" curve="90"/>
<wire x1="-0.8" y1="1" x2="0.8" y2="1" width="0.2032" layer="21"/>
<smd name="1" x="-0.45" y="0" dx="0.635" dy="1.27" layer="1" cream="no"/>
<smd name="2" x="0.45" y="0" dx="0.635" dy="1.27" layer="1" cream="no"/>
<text x="-0.908" y="1.27" size="0.4064" layer="25">&gt;NAME</text>
<text x="-0.908" y="-1.651" size="0.4064" layer="27">&gt;VALUE</text>
</package>
<package name="SJ_2S-NOTRACE">
<wire x1="0.8" y1="-1" x2="-0.8" y2="-1" width="0.2032" layer="21"/>
<wire x1="0.8" y1="1" x2="1" y2="0.7" width="0.2032" layer="21" curve="-90.076445"/>
<wire x1="-1" y1="0.7" x2="-0.8" y2="1" width="0.2032" layer="21" curve="-90.03821"/>
<wire x1="-1" y1="-0.7" x2="-0.8" y2="-1" width="0.2032" layer="21" curve="90.03821"/>
<wire x1="0.8" y1="-1" x2="1" y2="-0.7" width="0.2032" layer="21" curve="90.03821"/>
<wire x1="-0.8" y1="1" x2="0.8" y2="1" width="0.2032" layer="21"/>
<rectangle x1="-1.016" y1="-1.016" x2="1.016" y2="1.016" layer="31"/>
<smd name="1" x="-0.45" y="0" dx="0.635" dy="1.27" layer="1" cream="no"/>
<smd name="2" x="0.4" y="0" dx="0.635" dy="1.27" layer="1" cream="no"/>
<text x="-0.9525" y="1.27" size="0.4064" layer="25">&gt;NAME</text>
<text x="-0.9525" y="-1.651" size="0.4064" layer="27">&gt;VALUE</text>
</package>
<package name="SJ_2S-TRACE">
<description>Solder jumper, small, shorted with trace. No paste layer. Trace is cuttable.</description>
<wire x1="0.8255" y1="-1.016" x2="-0.8255" y2="-1.016" width="0.2032" layer="21"/>
<wire x1="0.8255" y1="1.016" x2="1.0795" y2="0.762" width="0.2032" layer="21" curve="-90"/>
<wire x1="-1.0795" y1="0.762" x2="-0.8255" y2="1.016" width="0.2032" layer="21" curve="-90"/>
<wire x1="-1.0795" y1="-0.762" x2="-0.8255" y2="-1.016" width="0.2032" layer="21" curve="90"/>
<wire x1="0.8255" y1="-1.016" x2="1.0795" y2="-0.762" width="0.2032" layer="21" curve="90"/>
<wire x1="-0.8255" y1="1.016" x2="0.8255" y2="1.016" width="0.2032" layer="21"/>
<wire x1="-0.381" y1="0" x2="0.381" y2="0" width="0.2032" layer="1"/>
<smd name="1" x="-0.508" y="0" dx="0.635" dy="1.27" layer="1" cream="no"/>
<smd name="2" x="0.508" y="0" dx="0.635" dy="1.27" layer="1" cream="no"/>
<text x="-0.9525" y="1.27" size="0.4064" layer="25">&gt;NAME</text>
<text x="-0.9525" y="-1.651" size="0.4064" layer="27">&gt;VALUE</text>
</package>
</packages>
<symbols>
<symbol name="M02">
<wire x1="3.81" y1="-2.54" x2="-2.54" y2="-2.54" width="0.4064" layer="94"/>
<wire x1="1.27" y1="2.54" x2="2.54" y2="2.54" width="0.6096" layer="94"/>
<wire x1="1.27" y1="0" x2="2.54" y2="0" width="0.6096" layer="94"/>
<wire x1="-2.54" y1="5.08" x2="-2.54" y2="-2.54" width="0.4064" layer="94"/>
<wire x1="3.81" y1="-2.54" x2="3.81" y2="5.08" width="0.4064" layer="94"/>
<wire x1="-2.54" y1="5.08" x2="3.81" y2="5.08" width="0.4064" layer="94"/>
<pin name="1" x="7.62" y="0" visible="pad" length="middle" direction="pas" swaplevel="1" rot="R180"/>
<pin name="2" x="7.62" y="2.54" visible="pad" length="middle" direction="pas" swaplevel="1" rot="R180"/>
<text x="-2.54" y="-5.08" size="1.778" layer="96">&gt;VALUE</text>
<text x="-2.54" y="5.842" size="1.778" layer="95">&gt;NAME</text>
</symbol>
<symbol name="M08">
<wire x1="1.27" y1="-10.16" x2="-5.08" y2="-10.16" width="0.4064" layer="94"/>
<wire x1="-1.27" y1="-2.54" x2="0" y2="-2.54" width="0.6096" layer="94"/>
<wire x1="-1.27" y1="-5.08" x2="0" y2="-5.08" width="0.6096" layer="94"/>
<wire x1="-1.27" y1="-7.62" x2="0" y2="-7.62" width="0.6096" layer="94"/>
<wire x1="-5.08" y1="12.7" x2="-5.08" y2="-10.16" width="0.4064" layer="94"/>
<wire x1="1.27" y1="-10.16" x2="1.27" y2="12.7" width="0.4064" layer="94"/>
<wire x1="-5.08" y1="12.7" x2="1.27" y2="12.7" width="0.4064" layer="94"/>
<wire x1="-1.27" y1="2.54" x2="0" y2="2.54" width="0.6096" layer="94"/>
<wire x1="-1.27" y1="0" x2="0" y2="0" width="0.6096" layer="94"/>
<wire x1="-1.27" y1="5.08" x2="0" y2="5.08" width="0.6096" layer="94"/>
<wire x1="-1.27" y1="7.62" x2="0" y2="7.62" width="0.6096" layer="94"/>
<wire x1="-1.27" y1="10.16" x2="0" y2="10.16" width="0.6096" layer="94"/>
<pin name="1" x="5.08" y="-7.62" visible="pad" length="middle" direction="pas" swaplevel="1" rot="R180"/>
<pin name="2" x="5.08" y="-5.08" visible="pad" length="middle" direction="pas" swaplevel="1" rot="R180"/>
<pin name="3" x="5.08" y="-2.54" visible="pad" length="middle" direction="pas" swaplevel="1" rot="R180"/>
<pin name="4" x="5.08" y="0" visible="pad" length="middle" direction="pas" swaplevel="1" rot="R180"/>
<pin name="5" x="5.08" y="2.54" visible="pad" length="middle" direction="pas" swaplevel="1" rot="R180"/>
<pin name="6" x="5.08" y="5.08" visible="pad" length="middle" direction="pas" swaplevel="1" rot="R180"/>
<pin name="7" x="5.08" y="7.62" visible="pad" length="middle" direction="pas" swaplevel="1" rot="R180"/>
<pin name="8" x="5.08" y="10.16" visible="pad" length="middle" direction="pas" swaplevel="1" rot="R180"/>
<text x="-5.08" y="-12.7" size="1.778" layer="96">&gt;VALUE</text>
<text x="-5.08" y="13.462" size="1.778" layer="95">&gt;NAME</text>
</symbol>
<symbol name="RESONATOR">
<wire x1="1.016" y1="0" x2="2.54" y2="0" width="0.1524" layer="94"/>
<wire x1="-2.54" y1="0" x2="-1.016" y2="0" width="0.1524" layer="94"/>
<wire x1="-0.381" y1="1.524" x2="-0.381" y2="-1.524" width="0.1524" layer="94"/>
<wire x1="-0.381" y1="-1.524" x2="0.381" y2="-1.524" width="0.1524" layer="94"/>
<wire x1="0.381" y1="-1.524" x2="0.381" y2="1.524" width="0.1524" layer="94"/>
<wire x1="0.381" y1="1.524" x2="-0.381" y2="1.524" width="0.1524" layer="94"/>
<wire x1="1.016" y1="1.778" x2="1.016" y2="0" width="0.1524" layer="94"/>
<wire x1="1.016" y1="0" x2="1.016" y2="-1.778" width="0.1524" layer="94"/>
<wire x1="-1.016" y1="1.778" x2="-1.016" y2="0" width="0.1524" layer="94"/>
<wire x1="-1.016" y1="0" x2="-1.016" y2="-1.778" width="0.1524" layer="94"/>
<wire x1="2.54" y1="0" x2="2.54" y2="-2.032" width="0.1524" layer="94"/>
<wire x1="3.302" y1="-2.032" x2="2.54" y2="-2.032" width="0.1524" layer="94"/>
<wire x1="2.54" y1="-2.032" x2="1.778" y2="-2.032" width="0.1524" layer="94"/>
<wire x1="3.302" y1="-3.048" x2="2.54" y2="-3.048" width="0.1524" layer="94"/>
<wire x1="2.54" y1="-3.048" x2="1.778" y2="-3.048" width="0.1524" layer="94"/>
<wire x1="2.54" y1="-3.048" x2="2.54" y2="-5.08" width="0.1524" layer="94"/>
<wire x1="-1.778" y1="-3.048" x2="-2.54" y2="-3.048" width="0.1524" layer="94"/>
<wire x1="-2.54" y1="-3.048" x2="-3.302" y2="-3.048" width="0.1524" layer="94"/>
<wire x1="-2.54" y1="-3.048" x2="-2.54" y2="-5.08" width="0.1524" layer="94"/>
<wire x1="-1.778" y1="-2.032" x2="-2.54" y2="-2.032" width="0.1524" layer="94"/>
<wire x1="-2.54" y1="-2.032" x2="-3.302" y2="-2.032" width="0.1524" layer="94"/>
<wire x1="-2.54" y1="-2.032" x2="-2.54" y2="0" width="0.1524" layer="94"/>
<wire x1="2.54" y1="-5.08" x2="0" y2="-5.08" width="0.1524" layer="94"/>
<wire x1="0" y1="-5.08" x2="-2.54" y2="-5.08" width="0.1524" layer="94"/>
<wire x1="0" y1="-5.08" x2="0" y2="-7.62" width="0.1524" layer="94"/>
<pin name="1" x="-2.54" y="0" visible="off" length="point" direction="pas" swaplevel="1"/>
<pin name="2" x="0" y="-7.62" visible="off" length="point" direction="pas" swaplevel="1" rot="R90"/>
<pin name="3" x="2.54" y="0" visible="off" length="point" direction="pas" swaplevel="1" rot="R180"/>
<text x="2.54" y="1.016" size="1.778" layer="95">&gt;NAME</text>
<text x="2.54" y="-7.62" size="1.778" layer="96">&gt;VALUE</text>
</symbol>
<symbol name="SJ">
<wire x1="0.381" y1="0.635" x2="0.381" y2="-0.635" width="1.27" layer="94" curve="-180" cap="flat"/>
<wire x1="-0.381" y1="-0.635" x2="-0.381" y2="0.635" width="1.27" layer="94" curve="-180" cap="flat"/>
<wire x1="2.54" y1="0" x2="1.651" y2="0" width="0.1524" layer="94"/>
<wire x1="-2.54" y1="0" x2="-1.651" y2="0" width="0.1524" layer="94"/>
<pin name="1" x="-5.08" y="0" visible="off" length="short" direction="pas" swaplevel="1"/>
<pin name="2" x="5.08" y="0" visible="off" length="short" direction="pas" swaplevel="1" rot="R180"/>
<text x="-2.54" y="2.54" size="1.778" layer="95">&gt;NAME</text>
</symbol>
<symbol name="VCC2">
<wire x1="0.762" y1="1.27" x2="0" y2="2.54" width="0.254" layer="94"/>
<wire x1="0" y1="2.54" x2="-0.762" y2="1.27" width="0.254" layer="94"/>
<pin name="VCC" x="0" y="0" visible="off" length="short" direction="sup" rot="R90"/>
<text x="-1.016" y="3.556" size="1.778" layer="96">&gt;VALUE</text>
</symbol>
</symbols>
<devicesets>
<deviceset name="M02" prefix="JP" uservalue="yes">
<description>&lt;b&gt;Header 2&lt;/b&gt;
Standard 2-pin 0.1" header. Use with straight break away headers (SKU : PRT-00116), right angle break away headers (PRT-00553), swiss pins (PRT-00743), machine pins (PRT-00117), and female headers (PRT-00115). Molex polarized connector foot print use with SKU : PRT-08233 with associated crimp pins and housings.</description>
<gates>
<gate name="G$1" symbol="M02" x="-2.54" y="0"/>
</gates>
<devices>
<device name="-JST-2MM-SMT" package="S2B-PH">
<connects>
<connect gate="G$1" pin="1" pad="1"/>
<connect gate="G$1" pin="2" pad="2"/>
</connects>
<technologies>
<technology name=""/>
</technologies>
</device>
<device name="3.5MM" package="SCREWTERMINAL-3.5MM-2">
<connects>
<connect gate="G$1" pin="1" pad="1"/>
<connect gate="G$1" pin="2" pad="2"/>
</connects>
<technologies>
<technology name=""/>
</technologies>
</device>
<device name="3.5MM_LOCK" package="SCREWTERMINAL-3.5MM-2_LOCK">
<connects>
<connect gate="G$1" pin="1" pad="1"/>
<connect gate="G$1" pin="2" pad="2"/>
</connects>
<technologies>
<technology name=""/>
</technologies>
</device>
<device name="4UCON-15767" package="S2B-PH-VERTICAL">
<connects>
<connect gate="G$1" pin="1" pad="GND"/>
<connect gate="G$1" pin="2" pad="VCC"/>
</connects>
<technologies>
<technology name=""/>
</technologies>
</device>
<device name="5MM" package="SCREWTERMINAL-5MM-2">
<connects>
<connect gate="G$1" pin="1" pad="1"/>
<connect gate="G$1" pin="2" pad="2"/>
</connects>
<technologies>
<technology name=""/>
</technologies>
</device>
<device name="LOCK" package="1X02_LOCK">
<connects>
<connect gate="G$1" pin="1" pad="1"/>
<connect gate="G$1" pin="2" pad="2"/>
</connects>
<technologies>
<technology name=""/>
</technologies>
</device>
<device name="LOCK_LONGPADS" package="1X02_LOCK_LONGPADS">
<connects>
<connect gate="G$1" pin="1" pad="1"/>
<connect gate="G$1" pin="2" pad="2"/>
</connects>
<technologies>
<technology name=""/>
</technologies>
</device>
<device name="POLAR" package="MOLEX-1X2">
<connects>
<connect gate="G$1" pin="1" pad="1"/>
<connect gate="G$1" pin="2" pad="2"/>
</connects>
<technologies>
<technology name=""/>
</technologies>
</device>
<device name="POLAR_LOCK" package="MOLEX-1X2_LOCK">
<connects>
<connect gate="G$1" pin="1" pad="1"/>
<connect gate="G$1" pin="2" pad="2"/>
</connects>
<technologies>
<technology name=""/>
</technologies>
</device>
<device name="PTH" package="1X02">
<connects>
<connect gate="G$1" pin="1" pad="1"/>
<connect gate="G$1" pin="2" pad="2"/>
</connects>
<technologies>
<technology name=""/>
</technologies>
</device>
<device name="PTH2" package="1X02_BIG">
<connects>
<connect gate="G$1" pin="1" pad="P$1"/>
<connect gate="G$1" pin="2" pad="P$2"/>
</connects>
<technologies>
<technology name=""/>
</technologies>
</device>
<device name="ROCKER" package="R_SW_TH">
<connects>
<connect gate="G$1" pin="1" pad="P$3"/>
<connect gate="G$1" pin="2" pad="P$4"/>
</connects>
<technologies>
<technology name=""/>
</technologies>
</device>
</devices>
</deviceset>
<deviceset name="M08" prefix="JP" uservalue="yes">
<description>&lt;b&gt;Header 8&lt;/b&gt;
Standard 8-pin 0.1" header. Use with straight break away headers (SKU : PRT-00116), right angle break away headers (PRT-00553), swiss pins (PRT-00743), machine pins (PRT-00117), and female headers (PRT-00115).</description>
<gates>
<gate name="G$1" symbol="M08" x="-2.54" y="0"/>
</gates>
<devices>
<device name="" package="1X08">
<connects>
<connect gate="G$1" pin="1" pad="1"/>
<connect gate="G$1" pin="2" pad="2"/>
<connect gate="G$1" pin="3" pad="3"/>
<connect gate="G$1" pin="4" pad="4"/>
<connect gate="G$1" pin="5" pad="5"/>
<connect gate="G$1" pin="6" pad="6"/>
<connect gate="G$1" pin="7" pad="7"/>
<connect gate="G$1" pin="8" pad="8"/>
</connects>
<technologies>
<technology name=""/>
</technologies>
</device>
<device name="LOCK" package="1X08_LOCK">
<connects>
<connect gate="G$1" pin="1" pad="1"/>
<connect gate="G$1" pin="2" pad="2"/>
<connect gate="G$1" pin="3" pad="3"/>
<connect gate="G$1" pin="4" pad="4"/>
<connect gate="G$1" pin="5" pad="5"/>
<connect gate="G$1" pin="6" pad="6"/>
<connect gate="G$1" pin="7" pad="7"/>
<connect gate="G$1" pin="8" pad="8"/>
</connects>
<technologies>
<technology name=""/>
</technologies>
</device>
<device name="LOCK_LONGPADS" package="1X08_LOCK_LONGPADS">
<connects>
<connect gate="G$1" pin="1" pad="1"/>
<connect gate="G$1" pin="2" pad="2"/>
<connect gate="G$1" pin="3" pad="3"/>
<connect gate="G$1" pin="4" pad="4"/>
<connect gate="G$1" pin="5" pad="5"/>
<connect gate="G$1" pin="6" pad="6"/>
<connect gate="G$1" pin="7" pad="7"/>
<connect gate="G$1" pin="8" pad="8"/>
</connects>
<technologies>
<technology name=""/>
</technologies>
</device>
</devices>
</deviceset>
<deviceset name="RESONATOR">
<description>&lt;b&gt;Resonator&lt;/b&gt;
Small SMD resonator. This is the itty bitty 10/20MHz resonators with built in caps. CSTCE10M0G55 and CSTCE20M0V53. Footprint has been reviewed closely but hasn't been tested yet.</description>
<gates>
<gate name="G$1" symbol="RESONATOR" x="0" y="0"/>
</gates>
<devices>
<device name="PTH" package="RESONATOR-PTH">
<connects>
<connect gate="G$1" pin="1" pad="1"/>
<connect gate="G$1" pin="2" pad="2"/>
<connect gate="G$1" pin="3" pad="3"/>
</connects>
<technologies>
<technology name=""/>
</technologies>
</device>
<device name="SMD" package="RESONATOR-SMD">
<connects>
<connect gate="G$1" pin="1" pad="1"/>
<connect gate="G$1" pin="2" pad="2"/>
<connect gate="G$1" pin="3" pad="3"/>
</connects>
<technologies>
<technology name=""/>
</technologies>
</device>
</devices>
</deviceset>
<deviceset name="SOLDERJUMPER" prefix="SJ">
<description>&lt;b&gt;Solder Jumper&lt;/b&gt;
Standard SMD solder jumper. Used to automate production. Two varients : Normally Open and Normally Closed are the same, but have different paste layers. NC will have a large amount of paste and should jumper during reflow.</description>
<gates>
<gate name="1" symbol="SJ" x="0" y="0"/>
</gates>
<devices>
<device name="NC" package="SJ_2S">
<connects>
<connect gate="1" pin="1" pad="1"/>
<connect gate="1" pin="2" pad="2"/>
</connects>
<technologies>
<technology name=""/>
</technologies>
</device>
<device name="NC2" package="SJ_2S-NOTRACE">
<connects>
<connect gate="1" pin="1" pad="1"/>
<connect gate="1" pin="2" pad="2"/>
</connects>
<technologies>
<technology name=""/>
</technologies>
</device>
<device name="NO" package="SJ_2S-NO">
<connects>
<connect gate="1" pin="1" pad="1"/>
<connect gate="1" pin="2" pad="2"/>
</connects>
<technologies>
<technology name=""/>
</technologies>
</device>
<device name="TRACE" package="SJ_2S-TRACE">
<connects>
<connect gate="1" pin="1" pad="1"/>
<connect gate="1" pin="2" pad="2"/>
</connects>
<technologies>
<technology name=""/>
</technologies>
</device>
</devices>
</deviceset>
<deviceset name="VCC" prefix="P+">
<description>&lt;b&gt;SUPPLY SYMBOL&lt;/b&gt;</description>
<gates>
<gate name="1" symbol="VCC2" x="0" y="0"/>
</gates>
<devices>
<device name="">
<technologies>
<technology name=""/>
</technologies>
</device>
</devices>
</deviceset>
</devicesets>
</library>
</drawing>
</eagle>
