<?xml version="1.0" encoding="utf-8"?>
<!DOCTYPE eagle SYSTEM "eagle.dtd">
<eagle version="6.4">
<drawing>
<settings>
<setting alwaysvectorfont="no"/>
<setting verticaltext="up"/>
</settings>
<grid distance="0.05" unitdist="inch" unit="inch" style="lines" multiple="1" display="yes" altdistance="0.002" altunitdist="inch" altunit="inch"/>
<layers>
<layer number="1" name="Top" color="4" fill="1" visible="yes" active="yes"/>
<layer number="2" name="Route2" color="1" fill="3" visible="no" active="no"/>
<layer number="3" name="Route3" color="4" fill="3" visible="no" active="no"/>
<layer number="4" name="Route4" color="1" fill="4" visible="no" active="no"/>
<layer number="5" name="Route5" color="4" fill="4" visible="no" active="no"/>
<layer number="6" name="Route6" color="1" fill="8" visible="no" active="no"/>
<layer number="7" name="Route7" color="4" fill="8" visible="no" active="no"/>
<layer number="8" name="Route8" color="1" fill="2" visible="no" active="no"/>
<layer number="9" name="Route9" color="4" fill="2" visible="no" active="no"/>
<layer number="10" name="Route10" color="1" fill="7" visible="no" active="no"/>
<layer number="11" name="Route11" color="4" fill="7" visible="no" active="no"/>
<layer number="12" name="Route12" color="1" fill="5" visible="no" active="no"/>
<layer number="13" name="Route13" color="4" fill="5" visible="no" active="no"/>
<layer number="14" name="Route14" color="1" fill="6" visible="no" active="no"/>
<layer number="15" name="Route15" color="4" fill="6" visible="no" active="no"/>
<layer number="16" name="Bottom" color="1" fill="1" visible="yes" active="yes"/>
<layer number="17" name="Pads" color="2" fill="1" visible="yes" active="yes"/>
<layer number="18" name="Vias" color="2" fill="1" visible="yes" active="yes"/>
<layer number="19" name="Unrouted" color="6" fill="1" visible="yes" active="yes"/>
<layer number="20" name="Dimension" color="15" fill="1" visible="yes" active="yes"/>
<layer number="21" name="tPlace" color="16" fill="1" visible="yes" active="yes"/>
<layer number="22" name="bPlace" color="6" fill="1" visible="yes" active="yes"/>
<layer number="23" name="tOrigins" color="15" fill="1" visible="yes" active="yes"/>
<layer number="24" name="bOrigins" color="15" fill="1" visible="yes" active="yes"/>
<layer number="25" name="tNames" color="7" fill="1" visible="yes" active="yes"/>
<layer number="26" name="bNames" color="7" fill="1" visible="yes" active="yes"/>
<layer number="27" name="tValues" color="7" fill="1" visible="yes" active="yes"/>
<layer number="28" name="bValues" color="7" fill="1" visible="yes" active="yes"/>
<layer number="29" name="tStop" color="7" fill="3" visible="yes" active="yes"/>
<layer number="30" name="bStop" color="7" fill="6" visible="no" active="yes"/>
<layer number="31" name="tCream" color="7" fill="4" visible="no" active="yes"/>
<layer number="32" name="bCream" color="7" fill="5" visible="no" active="yes"/>
<layer number="33" name="tFinish" color="6" fill="3" visible="yes" active="yes"/>
<layer number="34" name="bFinish" color="6" fill="6" visible="no" active="yes"/>
<layer number="35" name="tGlue" color="7" fill="4" visible="no" active="yes"/>
<layer number="36" name="bGlue" color="7" fill="5" visible="no" active="yes"/>
<layer number="37" name="tTest" color="7" fill="1" visible="no" active="yes"/>
<layer number="38" name="bTest" color="7" fill="1" visible="no" active="yes"/>
<layer number="39" name="tKeepout" color="4" fill="11" visible="yes" active="yes"/>
<layer number="40" name="bKeepout" color="1" fill="11" visible="yes" active="yes"/>
<layer number="41" name="tRestrict" color="4" fill="10" visible="yes" active="yes"/>
<layer number="42" name="bRestrict" color="1" fill="10" visible="yes" active="yes"/>
<layer number="43" name="vRestrict" color="2" fill="10" visible="yes" active="yes"/>
<layer number="44" name="Drills" color="7" fill="1" visible="yes" active="yes"/>
<layer number="45" name="Holes" color="7" fill="1" visible="yes" active="yes"/>
<layer number="46" name="Milling" color="3" fill="1" visible="no" active="yes"/>
<layer number="47" name="Measures" color="7" fill="1" visible="no" active="yes"/>
<layer number="48" name="Document" color="5" fill="1" visible="yes" active="yes"/>
<layer number="49" name="Reference" color="7" fill="1" visible="yes" active="yes"/>
<layer number="51" name="tDocu" color="14" fill="1" visible="yes" active="yes"/>
<layer number="52" name="bDocu" color="7" fill="1" visible="yes" active="yes"/>
<layer number="91" name="Nets" color="2" fill="1" visible="yes" active="yes"/>
<layer number="92" name="Busses" color="1" fill="1" visible="yes" active="yes"/>
<layer number="93" name="Pins" color="2" fill="1" visible="yes" active="yes"/>
<layer number="94" name="Symbols" color="4" fill="1" visible="yes" active="yes"/>
<layer number="95" name="Names" color="7" fill="1" visible="yes" active="yes"/>
<layer number="96" name="Values" color="7" fill="1" visible="yes" active="yes"/>
<layer number="97" name="Info" color="7" fill="1" visible="yes" active="yes"/>
<layer number="98" name="Guide" color="6" fill="1" visible="yes" active="yes"/>
<layer number="118" name="Rect_Pads" color="4" fill="1" visible="yes" active="yes"/>
</layers>
<library>
<description>&lt;b&gt;The Mark G Library&lt;/b&gt;
&lt;br&gt;
_ Mark G's library of Misc Parts.</description>
<packages>
<package name="HEATSINK-TO220-JAPAN">
<wire x1="0" y1="8" x2="15" y2="8" width="0.2032" layer="21"/>
<wire x1="15" y1="8" x2="15" y2="7" width="0.2032" layer="21" curve="-180"/>
<wire x1="15" y1="7" x2="4.5" y2="7" width="0.2032" layer="21"/>
<wire x1="4.5" y1="7" x2="4.5" y2="3" width="0.127" layer="51"/>
<wire x1="4.5" y1="3" x2="15" y2="3" width="0.2032" layer="21"/>
<wire x1="15" y1="2" x2="4.5" y2="2" width="0.2032" layer="21"/>
<wire x1="15" y1="3" x2="15" y2="2" width="0.2032" layer="21" curve="-180"/>
<wire x1="0" y1="8" x2="0" y2="-8" width="0.2032" layer="21"/>
<wire x1="0" y1="-8" x2="15" y2="-8" width="0.2032" layer="21"/>
<wire x1="15" y1="-8" x2="15" y2="-7" width="0.2032" layer="21" curve="180"/>
<wire x1="15" y1="-7" x2="4.5" y2="-7" width="0.2032" layer="21"/>
<wire x1="4.5" y1="-7" x2="4.5" y2="-3" width="0.127" layer="51"/>
<wire x1="4.5" y1="-3" x2="15" y2="-3" width="0.2032" layer="21"/>
<wire x1="15" y1="-2" x2="4.5" y2="-2" width="0.2032" layer="21"/>
<wire x1="4.5" y1="-2" x2="4.5" y2="2" width="0.127" layer="51"/>
<wire x1="15" y1="-3" x2="15" y2="-2" width="0.2032" layer="21" curve="180"/>
<wire x1="4.445" y1="6.985" x2="15.24" y2="6.985" width="0.127" layer="51"/>
<wire x1="15.24" y1="6.985" x2="15.24" y2="7.955" width="0.127" layer="51"/>
<wire x1="15.24" y1="7.955" x2="0" y2="7.955" width="0.127" layer="51"/>
<wire x1="0" y1="7.955" x2="0" y2="-7.955" width="0.127" layer="51"/>
<wire x1="0" y1="-7.955" x2="15.24" y2="-7.955" width="0.127" layer="51"/>
<wire x1="15.24" y1="-7.955" x2="15.24" y2="-6.985" width="0.127" layer="51"/>
<wire x1="15.24" y1="-6.985" x2="4.445" y2="-6.985" width="0.127" layer="51"/>
<wire x1="4.545" y1="-2.975" x2="15.24" y2="-2.975" width="0.127" layer="51"/>
<wire x1="15.24" y1="-2.975" x2="15.24" y2="-2.005" width="0.127" layer="51"/>
<wire x1="15.24" y1="-2.005" x2="4.545" y2="-2.005" width="0.127" layer="51"/>
<wire x1="4.545" y1="2.005" x2="15.24" y2="2.005" width="0.127" layer="51"/>
<wire x1="15.24" y1="2.005" x2="15.24" y2="2.975" width="0.127" layer="51"/>
<wire x1="15.24" y1="2.975" x2="4.545" y2="2.975" width="0.127" layer="51"/>
<pad name="P$1" x="3" y="5" drill="2.8"/>
<pad name="P$2" x="3" y="0" drill="2.8"/>
<pad name="P$3" x="3" y="-5" drill="2.8"/>
<text x="7.62" y="0" size="1.27" layer="25">&gt;NAME</text>
<text x="7.62" y="-5.08" size="1.27" layer="27">&gt;VALUE</text>
<hole x="3" y="5" drill="2.8"/>
<hole x="3" y="0" drill="2.8"/>
<hole x="3" y="-5" drill="2.8"/>
</package>
<package name="HEATSINK-TO220-JAPAN-NOPADS">
<wire x1="0" y1="0" x2="0" y2="8" width="0.2032" layer="21"/>
<wire x1="0" y1="8" x2="15" y2="8" width="0.2032" layer="21"/>
<wire x1="15" y1="8" x2="15" y2="7" width="0.2032" layer="21" curve="-180"/>
<wire x1="15" y1="7" x2="4.5" y2="7" width="0.2032" layer="21"/>
<wire x1="4.5" y1="7" x2="4.5" y2="3" width="0.127" layer="51"/>
<wire x1="4.5" y1="3" x2="15" y2="3" width="0.2032" layer="21"/>
<wire x1="15" y1="2" x2="4.5" y2="2" width="0.2032" layer="21"/>
<wire x1="15" y1="3" x2="15" y2="2" width="0.2032" layer="21" curve="-180"/>
<wire x1="0" y1="0" x2="0" y2="-8" width="0.2032" layer="21"/>
<wire x1="0" y1="-8" x2="15" y2="-8" width="0.2032" layer="21"/>
<wire x1="15" y1="-8" x2="15" y2="-7" width="0.2032" layer="21" curve="180"/>
<wire x1="15" y1="-7" x2="4.5" y2="-7" width="0.2032" layer="21"/>
<wire x1="4.5" y1="-7" x2="4.5" y2="-3" width="0.127" layer="51"/>
<wire x1="4.5" y1="-3" x2="15" y2="-3" width="0.2032" layer="21"/>
<wire x1="15" y1="-2" x2="4.5" y2="-2" width="0.2032" layer="21"/>
<wire x1="4.5" y1="-2" x2="4.5" y2="2" width="0.127" layer="51"/>
<wire x1="15" y1="-3" x2="15" y2="-2" width="0.2032" layer="21" curve="180"/>
<wire x1="4.5" y1="7" x2="15" y2="7" width="0.127" layer="51"/>
<wire x1="15.1" y1="7" x2="15" y2="7" width="0.127" layer="51"/>
<wire x1="15" y1="7" x2="15" y2="8" width="0.127" layer="51"/>
<wire x1="15" y1="8" x2="0" y2="8" width="0.127" layer="51"/>
<wire x1="0" y1="8" x2="0" y2="-8" width="0.127" layer="51"/>
<wire x1="0" y1="-8" x2="15" y2="-8" width="0.127" layer="51"/>
<wire x1="15" y1="-8" x2="15" y2="-7" width="0.127" layer="51"/>
<wire x1="15" y1="-7" x2="4.5" y2="-7" width="0.127" layer="51"/>
<wire x1="4.5" y1="-3" x2="15" y2="-3" width="0.127" layer="51"/>
<wire x1="15" y1="-3" x2="15" y2="-2" width="0.127" layer="51"/>
<wire x1="15" y1="-2" x2="4.5" y2="-2" width="0.127" layer="51"/>
<wire x1="4.5" y1="2" x2="15" y2="2" width="0.127" layer="51"/>
<wire x1="15" y1="2" x2="15" y2="3" width="0.127" layer="51"/>
<wire x1="15" y1="3" x2="4.5" y2="3" width="0.127" layer="51"/>
<text x="6.35" y="-5.08" size="1.27" layer="27">&gt;VALUE</text>
<text x="6.35" y="0" size="1.27" layer="25">&gt;NAMES</text>
<hole x="3" y="5" drill="2.8"/>
<hole x="3" y="0" drill="2.8"/>
<hole x="3" y="-5" drill="2.8"/>
</package>
<package name="HEATSINK-TO220-11-THK-1.0IN">
</package>
<package name="HEATSINK-TO220-11-THK-0.5IN">
<description>Heatsink for 11 pin TO-220 pkg.  0.5 inch think sink.</description>
<wire x1="16.383" y1="5.08" x2="17.399" y2="4.318" width="0.2032" layer="21" curve="-180"/>
<wire x1="16.637" y1="2.286" x2="17.1547" y2="1.1217" width="0.2032" layer="21" curve="-179.045338"/>
<wire x1="12.7" y1="2.159" x2="12.7" y2="0.381" width="0.1524" layer="51"/>
<wire x1="14.8844" y1="1.8542" x2="16.637" y2="2.286" width="0.2032" layer="21"/>
<wire x1="14.0208" y1="2.5908" x2="16.4846" y2="5.1816" width="0.2032" layer="21"/>
<wire x1="14.8844" y1="1.8542" x2="14.8844" y2="1.905" width="0.1524" layer="21"/>
<wire x1="14.8844" y1="1.905" x2="17.399" y2="4.318" width="0.2032" layer="21"/>
<wire x1="6.35" y1="-6.096" x2="7.747" y2="-6.35" width="0.2032" layer="21" curve="180"/>
<wire x1="16.383" y1="-6.604" x2="17.399" y2="-5.842" width="0.2032" layer="21" curve="180"/>
<wire x1="12.7" y1="-6.4262" x2="14.1364" y2="-6.3138" width="0.2032" layer="21" curve="167.619158"/>
<wire x1="16.637" y1="-3.81" x2="17.1547" y2="-2.6457" width="0.2032" layer="21" curve="179.045338"/>
<wire x1="6.35" y1="-6.096" x2="6.35" y2="-1.524" width="0.2032" layer="21"/>
<wire x1="14.1478" y1="-6.223" x2="14.1986" y2="-4.7244" width="0.2032" layer="21"/>
<wire x1="15.1384" y1="-3.2512" x2="16.637" y2="-3.81" width="0.2032" layer="21"/>
<wire x1="14.1986" y1="-4.7244" x2="14.4018" y2="-4.6228" width="0.2032" layer="21"/>
<wire x1="14.4018" y1="-4.6228" x2="16.4846" y2="-6.7056" width="0.2032" layer="21"/>
<wire x1="15.1384" y1="-3.2512" x2="15.0114" y2="-3.429" width="0.2032" layer="21"/>
<wire x1="15.0114" y1="-3.429" x2="17.399" y2="-5.842" width="0.2032" layer="21"/>
<wire x1="-0.0635" y1="0" x2="9.7155" y2="0" width="0.2032" layer="21"/>
<wire x1="9.652" y1="0" x2="11.811" y2="0" width="0.1524" layer="51"/>
<wire x1="11.811" y1="0" x2="11.8745" y2="0" width="0.1524" layer="51"/>
<wire x1="15.113" y1="0.381" x2="17.1704" y2="1.143" width="0.2032" layer="21"/>
<wire x1="15.113" y1="-1.905" x2="17.1958" y2="-2.667" width="0.2032" layer="21"/>
<wire x1="-7.366" y1="1.778" x2="-7.366" y2="0.254" width="0.2032" layer="21"/>
<wire x1="-7.366" y1="0.127" x2="-7.62" y2="0.635" width="0.2032" layer="21"/>
<wire x1="-7.112" y1="0.635" x2="-7.366" y2="0.127" width="0.2032" layer="21"/>
<wire x1="-7.366" y1="0.127" x2="-7.239" y2="0.635" width="0.2032" layer="21"/>
<wire x1="-7.239" y1="0.635" x2="-7.112" y2="0.635" width="0.2032" layer="21"/>
<wire x1="-7.62" y1="0.635" x2="-7.493" y2="0.635" width="0.2032" layer="21"/>
<wire x1="-7.493" y1="0.635" x2="-7.239" y2="0.635" width="0.2032" layer="21"/>
<wire x1="-7.493" y1="0.635" x2="-7.366" y2="0.254" width="0.2032" layer="21"/>
<wire x1="-7.366" y1="0.254" x2="-7.366" y2="0.127" width="0.1524" layer="21"/>
<wire x1="12.7" y1="2.159" x2="12.7" y2="4.826" width="0.2032" layer="21"/>
<wire x1="15.113" y1="0.381" x2="15.113" y2="0" width="0.2032" layer="21"/>
<wire x1="15.113" y1="0" x2="17.018" y2="0" width="0.2032" layer="21"/>
<wire x1="17.018" y1="-1.27" x2="15.113" y2="-1.27" width="0.2032" layer="21"/>
<wire x1="15.113" y1="-1.27" x2="15.113" y2="-1.905" width="0.2032" layer="21"/>
<wire x1="17.018" y1="0" x2="17.018" y2="-1.27" width="0.2032" layer="21" curve="-180"/>
<wire x1="13.97" y1="2.667" x2="13.97" y2="4.826" width="0.2032" layer="21"/>
<wire x1="12.7" y1="4.826" x2="13.97" y2="4.826" width="0.2032" layer="21" curve="-180"/>
<wire x1="12.7" y1="0.381" x2="11.811" y2="0" width="0.127" layer="51" curve="-309.966213"/>
<wire x1="12.7" y1="-3.81" x2="10.922" y2="-3.81" width="0.2032" layer="21"/>
<wire x1="10.922" y1="-3.81" x2="10.922" y2="-6.35" width="0.2032" layer="21"/>
<wire x1="9.398" y1="-6.35" x2="9.398" y2="-3.81" width="0.2032" layer="21"/>
<wire x1="9.398" y1="-3.81" x2="7.747" y2="-3.81" width="0.2032" layer="21"/>
<wire x1="7.747" y1="-3.81" x2="7.747" y2="-6.35" width="0.2032" layer="21"/>
<wire x1="12.7" y1="-3.81" x2="12.7" y2="-6.35" width="0.2032" layer="21"/>
<wire x1="10.922" y1="-6.35" x2="9.398" y2="-6.35" width="0.2032" layer="21" curve="-180"/>
<wire x1="-16.383" y1="5.08" x2="-17.399" y2="4.318" width="0.2032" layer="21" curve="180"/>
<wire x1="-16.637" y1="2.286" x2="-17.1547" y2="1.1217" width="0.2032" layer="21" curve="179.045338"/>
<wire x1="-12.7" y1="2.159" x2="-12.7" y2="0.381" width="0.1524" layer="51"/>
<wire x1="-14.8844" y1="1.8542" x2="-16.637" y2="2.286" width="0.2032" layer="21"/>
<wire x1="-14.0208" y1="2.5908" x2="-16.4846" y2="5.1816" width="0.2032" layer="21"/>
<wire x1="-14.8844" y1="1.8542" x2="-14.8844" y2="1.905" width="0.1524" layer="22"/>
<wire x1="-14.8844" y1="1.905" x2="-17.399" y2="4.318" width="0.2032" layer="21"/>
<wire x1="-6.35" y1="-6.096" x2="-7.747" y2="-6.35" width="0.2032" layer="21" curve="-180"/>
<wire x1="-16.383" y1="-6.604" x2="-17.399" y2="-5.842" width="0.2032" layer="21" curve="-180"/>
<wire x1="-12.7" y1="-6.4262" x2="-14.1364" y2="-6.3138" width="0.2032" layer="21" curve="-167.619158"/>
<wire x1="-16.637" y1="-3.81" x2="-17.1547" y2="-2.6457" width="0.2032" layer="21" curve="-179.045338"/>
<wire x1="-6.35" y1="-6.096" x2="-6.35" y2="-1.524" width="0.2032" layer="21"/>
<wire x1="-14.1478" y1="-6.223" x2="-14.1986" y2="-4.7244" width="0.2032" layer="21"/>
<wire x1="-15.1384" y1="-3.2512" x2="-16.637" y2="-3.81" width="0.2032" layer="21"/>
<wire x1="-14.1986" y1="-4.7244" x2="-14.4018" y2="-4.6228" width="0.2032" layer="21"/>
<wire x1="-14.4018" y1="-4.6228" x2="-16.4846" y2="-6.7056" width="0.2032" layer="21"/>
<wire x1="-15.1384" y1="-3.2512" x2="-15.0114" y2="-3.429" width="0.2032" layer="21"/>
<wire x1="-15.0114" y1="-3.429" x2="-17.399" y2="-5.842" width="0.2032" layer="21"/>
<wire x1="0.0635" y1="0" x2="-9.7155" y2="0" width="0.2032" layer="21"/>
<wire x1="-9.652" y1="0" x2="-11.8745" y2="0" width="0.1524" layer="51"/>
<wire x1="6.35" y1="-1.524" x2="-6.35" y2="-1.524" width="0.2032" layer="21"/>
<wire x1="-15.113" y1="0.381" x2="-17.1704" y2="1.143" width="0.2032" layer="21"/>
<wire x1="-15.113" y1="-1.905" x2="-17.1958" y2="-2.667" width="0.2032" layer="21"/>
<wire x1="-12.7" y1="2.159" x2="-12.7" y2="4.826" width="0.2032" layer="21"/>
<wire x1="-15.113" y1="0.381" x2="-15.113" y2="0" width="0.2032" layer="21"/>
<wire x1="-15.113" y1="0" x2="-17.018" y2="0" width="0.2032" layer="21"/>
<wire x1="-17.018" y1="-1.27" x2="-15.113" y2="-1.27" width="0.2032" layer="21"/>
<wire x1="-15.113" y1="-1.27" x2="-15.113" y2="-1.905" width="0.2032" layer="21"/>
<wire x1="-17.018" y1="0" x2="-17.018" y2="-1.27" width="0.2032" layer="21" curve="180"/>
<wire x1="-13.97" y1="2.667" x2="-13.97" y2="4.826" width="0.2032" layer="21"/>
<wire x1="-12.7" y1="4.826" x2="-13.97" y2="4.826" width="0.2032" layer="21" curve="180"/>
<wire x1="-12.7" y1="-3.81" x2="-10.922" y2="-3.81" width="0.2032" layer="21"/>
<wire x1="-10.922" y1="-3.81" x2="-10.922" y2="-6.35" width="0.2032" layer="21"/>
<wire x1="-9.398" y1="-6.35" x2="-9.398" y2="-3.81" width="0.2032" layer="21"/>
<wire x1="-9.398" y1="-3.81" x2="-7.747" y2="-3.81" width="0.2032" layer="21"/>
<wire x1="-7.747" y1="-3.81" x2="-7.747" y2="-6.35" width="0.2032" layer="21"/>
<wire x1="-12.7" y1="-3.81" x2="-12.7" y2="-6.35" width="0.2032" layer="21"/>
<wire x1="-10.922" y1="-6.35" x2="-9.398" y2="-6.35" width="0.2032" layer="21" curve="180"/>
<wire x1="-11.811" y1="0" x2="-12.7" y2="0.381" width="0.127" layer="51" curve="-309.961602"/>
<pad name="P$1" x="-12.7" y="-0.762" drill="2.54" diameter="3.81"/>
<pad name="P$2" x="12.7" y="-0.762" drill="2.54" diameter="3.81"/>
<text x="-5.334" y="-4.318" size="1.778" layer="25" ratio="10">&gt;NAME</text>
<text x="-5.334" y="-6.477" size="1.778" layer="27" ratio="10">&gt;VALUE</text>
</package>
<package name="OPTOLOGIC-SIDELOOKER">
<wire x1="-3" y1="-1" x2="3.05" y2="-1" width="0.2032" layer="21"/>
<wire x1="3.05" y1="-1" x2="3.05" y2="2.6" width="0.2032" layer="21"/>
<wire x1="3.05" y1="2.6" x2="1.25" y2="2.6" width="0.2032" layer="21"/>
<wire x1="1.25" y1="2.6" x2="-1.25" y2="2.6" width="0.2032" layer="21"/>
<wire x1="-1.25" y1="2.6" x2="-3" y2="2.6" width="0.2032" layer="21"/>
<wire x1="-3" y1="2.6" x2="-3" y2="-1" width="0.2032" layer="21"/>
<wire x1="-1.25" y1="2.6" x2="-1.25" y2="1.8" width="0.2032" layer="21"/>
<wire x1="-1.25" y1="1.8" x2="1.25" y2="1.8" width="0.2032" layer="21"/>
<wire x1="1.25" y1="1.8" x2="1.25" y2="2.6" width="0.2032" layer="21"/>
<wire x1="-0.75" y1="1.85" x2="0.8" y2="1.85" width="0.2032" layer="21" curve="-176.304779"/>
<wire x1="-3.048" y1="-1.016" x2="-3.048" y2="2.54" width="0.127" layer="51"/>
<wire x1="-3.048" y1="2.54" x2="-1.27" y2="2.54" width="0.127" layer="51"/>
<wire x1="-1.27" y1="2.54" x2="1.27" y2="2.54" width="0.127" layer="51"/>
<wire x1="1.27" y1="2.54" x2="3.048" y2="2.54" width="0.127" layer="51"/>
<wire x1="3.048" y1="2.54" x2="3.048" y2="-1.016" width="0.127" layer="51"/>
<wire x1="3.048" y1="-1.016" x2="-3.048" y2="-1.016" width="0.127" layer="51"/>
<wire x1="-1.27" y1="2.54" x2="-1.27" y2="1.778" width="0.127" layer="51"/>
<wire x1="-1.27" y1="1.778" x2="1.27" y2="1.778" width="0.127" layer="51"/>
<wire x1="1.27" y1="1.778" x2="1.27" y2="2.54" width="0.127" layer="51"/>
<wire x1="0" y1="1.905" x2="0" y2="3.175" width="0.127" layer="49"/>
<wire x1="0" y1="-1.27" x2="0" y2="-2.54" width="0.127" layer="49"/>
<pad name="VCC" x="-2" y="0" drill="0.9"/>
<pad name="VOUT" x="0" y="0" drill="0.9"/>
<pad name="GND" x="2" y="0" drill="0.9"/>
<text x="-2.54" y="3.81" size="1.27" layer="25">&gt;NAME</text>
<text x="-2.54" y="-2.54" size="1.27" layer="27">&gt;VALUE</text>
</package>
<package name="TO92-IR-SIDELOOKER">
<wire x1="-2.286" y1="-1.016" x2="2.286" y2="-1.016" width="0.2032" layer="21"/>
<wire x1="2.286" y1="-1.016" x2="2.286" y2="1.778" width="0.2032" layer="21"/>
<wire x1="2.286" y1="1.778" x2="1.27" y2="1.778" width="0.2032" layer="21"/>
<wire x1="1.27" y1="1.778" x2="-1.27" y2="1.778" width="0.2032" layer="21"/>
<wire x1="-1.27" y1="1.778" x2="-2.286" y2="1.778" width="0.2032" layer="21"/>
<wire x1="-2.286" y1="1.778" x2="-2.286" y2="-1.016" width="0.2032" layer="21"/>
<wire x1="-1.27" y1="1.778" x2="-1.27" y2="1.016" width="0.2032" layer="21"/>
<wire x1="-1.27" y1="1.016" x2="-0.762" y2="1.016" width="0.2032" layer="21"/>
<wire x1="-0.762" y1="1.016" x2="0.762" y2="1.016" width="0.2032" layer="21"/>
<wire x1="0.762" y1="1.016" x2="1.27" y2="1.016" width="0.2032" layer="21"/>
<wire x1="1.27" y1="1.016" x2="1.27" y2="1.778" width="0.2032" layer="21"/>
<wire x1="-0.762" y1="1.016" x2="0.762" y2="1.016" width="0.2032" layer="21" curve="-180"/>
<wire x1="-2.286" y1="1.778" x2="-1.27" y2="1.778" width="0.127" layer="51"/>
<wire x1="-1.27" y1="1.778" x2="1.27" y2="1.778" width="0.127" layer="51"/>
<wire x1="1.27" y1="1.778" x2="2.286" y2="1.778" width="0.127" layer="51"/>
<wire x1="2.286" y1="1.778" x2="2.286" y2="-1.016" width="0.127" layer="51"/>
<wire x1="2.286" y1="-1.016" x2="-2.286" y2="-1.016" width="0.127" layer="51"/>
<wire x1="-2.286" y1="-1.016" x2="-2.286" y2="1.778" width="0.127" layer="51"/>
<wire x1="-1.27" y1="1.778" x2="-1.27" y2="1.016" width="0.127" layer="51"/>
<wire x1="-1.27" y1="1.016" x2="1.27" y2="1.016" width="0.127" layer="51"/>
<wire x1="1.27" y1="1.016" x2="1.27" y2="1.778" width="0.127" layer="51"/>
<wire x1="0" y1="1.27" x2="0" y2="2.54" width="0.127" layer="49"/>
<wire x1="0" y1="-1.27" x2="0" y2="-2.54" width="0.127" layer="49"/>
<pad name="A" x="-1.27" y="0" drill="0.9"/>
<pad name="C" x="1.27" y="0" drill="0.9"/>
<text x="-2.54" y="-2.54" size="1.27" layer="27">&gt;VALUE</text>
<text x="-2.54" y="2.54" size="1.27" layer="25">&gt;NAME</text>
</package>
<package name="HO-TRACK-.75IN">
<wire x1="-10.16" y1="6.096" x2="-16.51" y2="6.096" width="0.2032" layer="21"/>
<wire x1="-16.51" y1="6.096" x2="-16.51" y2="9.271" width="0.2032" layer="21"/>
<wire x1="-16.51" y1="9.271" x2="-10.16" y2="9.271" width="0.2032" layer="21"/>
<wire x1="-7.62" y1="9.271" x2="7.62" y2="9.271" width="0.2032" layer="21"/>
<wire x1="-7.62" y1="6.096" x2="7.62" y2="6.096" width="0.2032" layer="21"/>
<wire x1="10.16" y1="9.271" x2="16.51" y2="9.271" width="0.2032" layer="21"/>
<wire x1="16.51" y1="9.271" x2="16.51" y2="6.096" width="0.2032" layer="21"/>
<wire x1="16.51" y1="6.096" x2="10.16" y2="6.096" width="0.2032" layer="21"/>
<wire x1="-10.16" y1="-1.524" x2="-16.51" y2="-1.524" width="0.2032" layer="21"/>
<wire x1="-16.51" y1="-1.524" x2="-16.51" y2="1.651" width="0.2032" layer="21"/>
<wire x1="-16.51" y1="1.651" x2="-10.16" y2="1.651" width="0.2032" layer="21"/>
<wire x1="-7.62" y1="1.651" x2="7.62" y2="1.651" width="0.2032" layer="21"/>
<wire x1="-7.62" y1="-1.524" x2="7.62" y2="-1.524" width="0.2032" layer="21"/>
<wire x1="10.16" y1="1.651" x2="16.51" y2="1.651" width="0.2032" layer="21"/>
<wire x1="16.51" y1="1.651" x2="16.51" y2="-1.524" width="0.2032" layer="21"/>
<wire x1="16.51" y1="-1.524" x2="10.16" y2="-1.524" width="0.2032" layer="21"/>
<wire x1="-10.16" y1="-9.144" x2="-16.51" y2="-9.144" width="0.2032" layer="21"/>
<wire x1="-16.51" y1="-9.144" x2="-16.51" y2="-5.969" width="0.2032" layer="21"/>
<wire x1="-16.51" y1="-5.969" x2="-10.16" y2="-5.969" width="0.2032" layer="21"/>
<wire x1="-7.62" y1="-5.969" x2="7.62" y2="-5.969" width="0.2032" layer="21"/>
<wire x1="-7.62" y1="-9.144" x2="7.62" y2="-9.144" width="0.2032" layer="21"/>
<wire x1="10.16" y1="-5.969" x2="16.51" y2="-5.969" width="0.2032" layer="21"/>
<wire x1="16.51" y1="-5.969" x2="16.51" y2="-9.144" width="0.2032" layer="21"/>
<wire x1="16.51" y1="-9.144" x2="10.16" y2="-9.144" width="0.2032" layer="21"/>
<wire x1="-16.51" y1="8.89" x2="16.51" y2="8.89" width="0.127" layer="51"/>
<wire x1="16.51" y1="8.89" x2="16.51" y2="6.35" width="0.127" layer="51"/>
<wire x1="16.51" y1="6.35" x2="-16.51" y2="6.35" width="0.127" layer="51"/>
<wire x1="-16.51" y1="6.35" x2="-16.51" y2="8.89" width="0.127" layer="51"/>
<wire x1="-16.51" y1="1.27" x2="16.51" y2="1.27" width="0.127" layer="51"/>
<wire x1="16.51" y1="1.27" x2="16.51" y2="-1.27" width="0.127" layer="51"/>
<wire x1="16.51" y1="-1.27" x2="-16.51" y2="-1.27" width="0.127" layer="51"/>
<wire x1="-16.51" y1="-1.27" x2="-16.51" y2="1.27" width="0.127" layer="51"/>
<wire x1="-16.51" y1="-6.35" x2="16.51" y2="-6.35" width="0.127" layer="51"/>
<wire x1="16.51" y1="-6.35" x2="16.51" y2="-8.89" width="0.127" layer="51"/>
<wire x1="16.51" y1="-8.89" x2="-16.51" y2="-8.89" width="0.127" layer="51"/>
<wire x1="-16.51" y1="-8.89" x2="-16.51" y2="-6.35" width="0.127" layer="51"/>
<wire x1="-10.16" y1="19.05" x2="-10.16" y2="11.43" width="0.127" layer="49"/>
<wire x1="-10.16" y1="11.43" x2="-10.16" y2="-11.43" width="0.127" layer="51"/>
<wire x1="-10.16" y1="-11.43" x2="-7.62" y2="-11.43" width="0.127" layer="51"/>
<wire x1="-7.62" y1="-11.43" x2="-7.62" y2="11.43" width="0.127" layer="51"/>
<wire x1="-7.62" y1="11.43" x2="-7.62" y2="19.05" width="0.127" layer="49"/>
<wire x1="-7.62" y1="19.05" x2="-10.16" y2="19.05" width="0.127" layer="49"/>
<wire x1="7.62" y1="19.05" x2="7.62" y2="11.43" width="0.127" layer="49"/>
<wire x1="7.62" y1="11.43" x2="7.62" y2="-11.43" width="0.127" layer="51"/>
<wire x1="7.62" y1="-11.43" x2="10.16" y2="-11.43" width="0.127" layer="51"/>
<wire x1="10.16" y1="-11.43" x2="10.16" y2="11.43" width="0.127" layer="51"/>
<wire x1="10.16" y1="11.43" x2="10.16" y2="19.05" width="0.127" layer="49"/>
<wire x1="10.16" y1="19.05" x2="7.62" y2="19.05" width="0.127" layer="49"/>
<wire x1="-10.16" y1="11.43" x2="-7.62" y2="11.43" width="0.127" layer="51"/>
<wire x1="7.62" y1="11.43" x2="10.16" y2="11.43" width="0.127" layer="51"/>
<wire x1="26.035" y1="-11.43" x2="26.035" y2="11.43" width="0.127" layer="49" style="shortdash"/>
<wire x1="26.035" y1="11.43" x2="-26.035" y2="11.43" width="0.127" layer="49" style="shortdash"/>
<wire x1="-26.035" y1="11.43" x2="-26.035" y2="-11.43" width="0.127" layer="49" style="shortdash"/>
<smd name="RA1" x="-10.795" y="7.62" dx="2.54" dy="1.27" layer="1" thermals="no"/>
<smd name="RA2" x="-6.985" y="7.62" dx="2.54" dy="1.27" layer="1" thermals="no"/>
<smd name="RB1" x="6.985" y="7.62" dx="2.54" dy="1.27" layer="1" thermals="no"/>
<smd name="RB2" x="10.795" y="7.62" dx="2.54" dy="1.27" layer="1" thermals="no"/>
<smd name="RA3" x="-10.795" y="0" dx="2.54" dy="1.27" layer="1" thermals="no"/>
<smd name="RA4" x="-6.985" y="0" dx="2.54" dy="1.27" layer="1" thermals="no"/>
<smd name="RB3" x="6.985" y="0" dx="2.54" dy="1.27" layer="1" thermals="no"/>
<smd name="RB4" x="10.795" y="0" dx="2.54" dy="1.27" layer="1" thermals="no"/>
<smd name="RA5" x="-10.795" y="-7.62" dx="2.54" dy="1.27" layer="1" thermals="no"/>
<smd name="RA6" x="-6.985" y="-7.62" dx="2.54" dy="1.27" layer="1" thermals="no"/>
<smd name="RB5" x="6.985" y="-7.62" dx="2.54" dy="1.27" layer="1" thermals="no"/>
<smd name="RB6" x="10.795" y="-7.62" dx="2.54" dy="1.27" layer="1" thermals="no"/>
<text x="-2.54" y="6.35" size="1.27" layer="25">&gt;NAME</text>
<rectangle x1="-10.16" y1="5.08" x2="-7.62" y2="6.35" layer="1"/>
<rectangle x1="-10.16" y1="-2.54" x2="-7.62" y2="-1.27" layer="1"/>
<rectangle x1="7.62" y1="-2.54" x2="10.16" y2="-1.27" layer="1"/>
<rectangle x1="7.62" y1="5.08" x2="10.16" y2="6.35" layer="1"/>
<rectangle x1="-10.16" y1="-10.16" x2="-7.62" y2="-8.89" layer="1"/>
<rectangle x1="7.62" y1="-10.16" x2="10.16" y2="-8.89" layer="1"/>
<hole x="0" y="0" drill="1.1"/>
</package>
<package name="DIL-01-MG">
<pad name="P1" x="0" y="0" drill="0.9" shape="long"/>
</package>
<package name="ANTENNA-915MHZ">
<pad name="P$1" x="0" y="2.27" drill="0.6" rot="R90" thermals="no"/>
<polygon width="0.254" layer="16">
<vertex x="-19" y="26"/>
<vertex x="19" y="26"/>
<vertex x="19" y="19"/>
<vertex x="-17" y="19"/>
<vertex x="-17" y="16"/>
<vertex x="19" y="16"/>
<vertex x="19" y="9"/>
<vertex x="1" y="9"/>
<vertex x="1" y="2"/>
<vertex x="0" y="1"/>
<vertex x="-1" y="2"/>
<vertex x="-1" y="11"/>
<vertex x="17" y="11"/>
<vertex x="17" y="14"/>
<vertex x="-19" y="14"/>
<vertex x="-19" y="21"/>
<vertex x="17" y="21"/>
<vertex x="17" y="24"/>
<vertex x="-19" y="24"/>
</polygon>
<pad name="P$2" x="0" y="6" drill="0.6" rot="R180" thermals="no"/>
<pad name="P$3" x="0" y="10" drill="0.6" rot="R180" thermals="no"/>
<pad name="P$4" x="18" y="10" drill="0.6" rot="R180" thermals="no"/>
<pad name="P$5" x="18" y="15" drill="0.6" rot="R180" thermals="no"/>
<pad name="P$6" x="-18" y="15" drill="0.6" rot="R180" thermals="no"/>
<pad name="P$7" x="-18" y="20" drill="0.6" rot="R180" thermals="no"/>
<pad name="P$8" x="4" y="10" drill="0.6" rot="R180" thermals="no"/>
<pad name="P$9" x="9" y="10" drill="0.6" rot="R180" thermals="no"/>
<pad name="P$10" x="14" y="10" drill="0.6" rot="R180" thermals="no"/>
<pad name="P$11" x="13" y="15" drill="0.6" rot="R180" thermals="no"/>
<pad name="P$12" x="8" y="15" drill="0.6" rot="R180" thermals="no"/>
<pad name="P$13" x="3" y="15" drill="0.6" rot="R180" thermals="no"/>
<pad name="P$14" x="-2" y="15" drill="0.6" rot="R180" thermals="no"/>
<pad name="P$15" x="-7" y="15" drill="0.6" rot="R180" thermals="no"/>
<pad name="P$16" x="-12" y="15" drill="0.6" rot="R180" thermals="no"/>
<pad name="P$17" x="-12" y="20" drill="0.6" rot="R180" thermals="no"/>
<pad name="P$18" x="-7" y="20" drill="0.6" rot="R180" thermals="no"/>
<pad name="P$19" x="-2" y="20" drill="0.6" rot="R180" thermals="no"/>
<pad name="P$20" x="3" y="20" drill="0.6" rot="R180" thermals="no"/>
<pad name="P$21" x="8" y="20" drill="0.6" rot="R180" thermals="no"/>
<pad name="P$22" x="13" y="20" drill="0.6" rot="R180" thermals="no"/>
<pad name="P$23" x="18" y="20" drill="0.6" rot="R180" thermals="no"/>
<pad name="P$24" x="18" y="25" drill="0.6" rot="R180" thermals="no"/>
<pad name="P$25" x="13" y="25" drill="0.6" rot="R180" thermals="no"/>
<pad name="P$26" x="8" y="25" drill="0.6" rot="R180" thermals="no"/>
<pad name="P$27" x="3" y="25" drill="0.6" rot="R180" thermals="no"/>
<pad name="P$28" x="-2" y="25" drill="0.6" rot="R180" thermals="no"/>
<pad name="P$29" x="-7" y="25" drill="0.6" rot="R180" thermals="no"/>
<pad name="P$30" x="-12" y="25" drill="0.6" rot="R180" thermals="no"/>
<pad name="P$31" x="-18" y="25" drill="0.6" rot="R180" thermals="no"/>
<polygon width="0.254" layer="1">
<vertex x="-19" y="26"/>
<vertex x="19" y="26"/>
<vertex x="19" y="19"/>
<vertex x="-17" y="19"/>
<vertex x="-17" y="16"/>
<vertex x="19" y="16"/>
<vertex x="19" y="9"/>
<vertex x="1" y="9"/>
<vertex x="1" y="2"/>
<vertex x="0" y="1"/>
<vertex x="-1" y="2"/>
<vertex x="-1" y="11"/>
<vertex x="17" y="11"/>
<vertex x="17" y="14"/>
<vertex x="-19" y="14"/>
<vertex x="-19" y="21"/>
<vertex x="17" y="21"/>
<vertex x="17" y="24"/>
<vertex x="-19" y="24"/>
</polygon>
</package>
<package name="BOARD-OUTLINE-SERPAC-H65-TOP">
<description>&lt;b&gt;SERPAC H65&lt;/b&gt;&lt;br&gt;
Mechanical board out line for the top cover of a SERPAC H65 enclosure.&lt;br&gt;
Including mounting holes and access cover area (tDoc line)
&lt;br&gt;
Version 1.1 - fixed battery end tab size. Was not symetrical and was slightly too small. &lt;br&gt;
Was 1.41 inch, increased to 1.448 inch per SERPAC drawing.</description>
<wire x1="0" y1="29.21" x2="0" y2="7.112" width="0" layer="20"/>
<wire x1="0" y1="29.21" x2="0" y2="52.832" width="0" layer="20"/>
<wire x1="8.89" y1="0" x2="10.668" y2="0" width="0" layer="20"/>
<wire x1="13.462" y1="0" x2="59.69" y2="0" width="0" layer="20"/>
<wire x1="59.69" y1="0" x2="69.342" y2="0" width="0" layer="20"/>
<wire x1="72.136" y1="0" x2="110.49" y2="0" width="0" layer="20"/>
<wire x1="118.11" y1="11.5824" x2="118.11" y2="29.21" width="0" layer="20"/>
<wire x1="118.11" y1="29.21" x2="118.11" y2="48.3616" width="0" layer="20"/>
<wire x1="110.49" y1="59.944" x2="72.136" y2="59.944" width="0" layer="20"/>
<wire x1="69.342" y1="59.944" x2="59.69" y2="59.944" width="0" layer="20"/>
<wire x1="59.69" y1="59.944" x2="13.462" y2="59.944" width="0" layer="20"/>
<wire x1="10.668" y1="59.944" x2="8.89" y2="59.944" width="0" layer="20"/>
<wire x1="6.35" y1="7.112" x2="8.89" y2="4.572" width="0" layer="20" curve="-90"/>
<wire x1="8.89" y1="0" x2="8.89" y2="4.572" width="0" layer="20"/>
<wire x1="6.35" y1="7.112" x2="0" y2="7.112" width="0" layer="20"/>
<wire x1="8.89" y1="55.372" x2="6.35" y2="52.832" width="0" layer="20" curve="-90"/>
<wire x1="110.49" y1="9.0424" x2="113.03" y2="11.5824" width="0" layer="20" curve="-90"/>
<wire x1="0" y1="52.832" x2="6.35" y2="52.832" width="0" layer="20"/>
<wire x1="8.89" y1="59.944" x2="8.89" y2="55.372" width="0" layer="20"/>
<wire x1="118.11" y1="48.3616" x2="113.03" y2="48.3616" width="0" layer="20"/>
<wire x1="110.49" y1="50.9016" x2="110.49" y2="59.944" width="0" layer="20"/>
<wire x1="113.03" y1="11.5824" x2="118.11" y2="11.5824" width="0" layer="20"/>
<wire x1="110.49" y1="9.0424" x2="110.49" y2="0" width="0" layer="20"/>
<wire x1="83.312" y1="57.912" x2="83.312" y2="2.032" width="0.127" layer="21"/>
<hole x="115.2398" y="45.466" drill="2.8"/>
<hole x="115.2398" y="14.478" drill="2.8"/>
<dimension x1="70.612" y1="59.944" x2="83.312" y2="59.944" x3="76.962" y3="61.976" textsize="1.27" layer="51" unit="inch"/>
<wire x1="109.22" y1="57.912" x2="109.22" y2="2.032" width="0.127" layer="21"/>
<wire x1="109.22" y1="2.032" x2="83.312" y2="2.032" width="0.127" layer="21"/>
<wire x1="109.22" y1="57.912" x2="83.312" y2="57.912" width="0.127" layer="21"/>
<wire x1="14.478" y1="57.912" x2="9.652" y2="57.912" width="0.127" layer="41" curve="-180"/>
<wire x1="14.478" y1="57.912" x2="9.652" y2="57.912" width="0.127" layer="42" curve="-180"/>
<wire x1="9.652" y1="57.912" x2="9.652" y2="59.944" width="0.127" layer="42"/>
<wire x1="9.652" y1="57.912" x2="9.652" y2="59.944" width="0.127" layer="41"/>
<wire x1="14.478" y1="57.912" x2="14.478" y2="59.944" width="0.127" layer="41"/>
<wire x1="73.152" y1="57.912" x2="68.326" y2="57.912" width="0.127" layer="42" curve="-180"/>
<wire x1="68.326" y1="57.912" x2="68.326" y2="59.944" width="0.127" layer="42"/>
<wire x1="73.152" y1="57.912" x2="73.152" y2="59.944" width="0.127" layer="42"/>
<wire x1="73.152" y1="57.912" x2="68.326" y2="57.912" width="0.127" layer="41" curve="-180"/>
<wire x1="68.326" y1="2.032" x2="73.152" y2="2.032" width="0.127" layer="42" curve="-180"/>
<wire x1="9.652" y1="2.032" x2="14.478" y2="2.032" width="0.127" layer="42" curve="-180"/>
<wire x1="73.152" y1="57.912" x2="73.152" y2="59.944" width="0.127" layer="41"/>
<wire x1="68.326" y1="57.912" x2="68.326" y2="59.944" width="0.127" layer="41"/>
<wire x1="68.326" y1="2.032" x2="68.326" y2="0" width="0.127" layer="42"/>
<wire x1="73.152" y1="2.032" x2="73.152" y2="0" width="0.127" layer="42"/>
<wire x1="9.652" y1="2.032" x2="9.652" y2="0" width="0.127" layer="42"/>
<wire x1="14.478" y1="2.032" x2="14.478" y2="0" width="0.127" layer="42"/>
<wire x1="9.652" y1="0" x2="9.652" y2="2.032" width="0.127" layer="41"/>
<wire x1="14.478" y1="0" x2="14.478" y2="2.032" width="0.127" layer="41"/>
<wire x1="9.652" y1="2.032" x2="14.478" y2="2.032" width="0.127" layer="41" curve="-180"/>
<wire x1="68.326" y1="0" x2="68.326" y2="2.032" width="0.127" layer="41"/>
<wire x1="73.152" y1="0" x2="73.152" y2="2.032" width="0.127" layer="41"/>
<wire x1="68.326" y1="2.032" x2="73.152" y2="2.032" width="0.127" layer="41" curve="-180"/>
<circle x="115.2398" y="45.466" radius="2.300065625" width="0.127" layer="42"/>
<circle x="115.2398" y="14.478" radius="2.300065625" width="0.127" layer="42"/>
<circle x="115.2398" y="14.478" radius="2.300065625" width="0.127" layer="41"/>
<circle x="115.2398" y="45.466" radius="2.300065625" width="0.127" layer="41"/>
<dimension x1="0" y1="-1.27" x2="118.11" y2="-1.27" x3="59.055" y3="-3.81" textsize="1.27" layer="51" unit="inch" precision="3"/>
<dimension x1="-1.27" y1="0" x2="-1.27" y2="59.8932" x3="-6.35" y3="29.9466" textsize="1.27" layer="51" unit="inch"/>
<dimension x1="109.22" y1="59.69" x2="83.82" y2="59.69" x3="96.52" y3="62.22999375" textsize="1.27" layer="51" unit="inch"/>
<wire x1="14.478" y1="57.912" x2="14.478" y2="59.944" width="0.127" layer="42"/>
<wire x1="101.6" y1="-1.27" x2="101.6" y2="-2.54" width="0.127" layer="48"/>
<wire x1="17.78" y1="29.972" x2="81.28" y2="29.972" width="0.127" layer="51"/>
<dimension x1="115.2398" y1="45.466" x2="115.2398" y2="29.972" x3="123.317" y3="37.719" textsize="1.27" layer="51" unit="inch" precision="3"/>
<dimension x1="115.2652" y1="29.972" x2="115.2652" y2="14.478" x3="123.3424" y3="22.225" textsize="1.27" layer="51" unit="inch" precision="3"/>
<hole x="70.739" y="2.032" drill="2.8"/>
<hole x="70.739" y="57.912" drill="2.8"/>
<hole x="12.065" y="57.912" drill="2.8"/>
<hole x="12.065" y="2.032" drill="2.8"/>
<wire x1="10.668" y1="59.944" x2="13.462" y2="59.944" width="0" layer="20"/>
<wire x1="69.342" y1="59.944" x2="72.136" y2="59.944" width="0" layer="20"/>
<wire x1="69.342" y1="0" x2="72.136" y2="0" width="0" layer="20"/>
<wire x1="10.668" y1="0" x2="13.462" y2="0" width="0" layer="20"/>
<wire x1="113.03" y1="48.3616" x2="110.49" y2="50.9016" width="0" layer="20" curve="-90"/>
<dimension x1="118.11" y1="11.5824" x2="118.11" y2="48.3616" x3="128.905" y3="29.972" textsize="1.27" layer="51" unit="inch" precision="3"/>
<dimension x1="0" y1="7.112" x2="0" y2="52.832" x3="-2.921" y3="29.972" textsize="1.27" layer="51" unit="inch" precision="3"/>
</package>
<package name="SIL-5X2-MG-PROTO">
<description>&lt;b&gt;SIL-5x2-MG&lt;/b&gt;
&lt;br&gt;A 5 x 2 array of prototyping holes on 0.1 inch centers.</description>
<pad name="P$1" x="0" y="0" drill="0.8"/>
<pad name="P$2" x="0" y="2.54" drill="0.8"/>
<pad name="P$3" x="0" y="5.08" drill="0.8"/>
<pad name="P$4" x="0" y="7.62" drill="0.8"/>
<pad name="P$5" x="0" y="10.16" drill="0.8"/>
<pad name="P$6" x="2.54" y="10.16" drill="0.8"/>
<pad name="P$7" x="2.54" y="7.62" drill="0.8"/>
<pad name="P$8" x="2.54" y="5.08" drill="0.8"/>
<pad name="P$9" x="2.54" y="2.54" drill="0.8"/>
<pad name="P$10" x="2.54" y="0" drill="0.8"/>
</package>
<package name="5X5-MG-PROTO">
<description>Plated hole is about 0.0393&lt;br&gt;

Use the cross hairs in the part's Document layer (48) to line up multiple parts into a larger prototyping array.</description>
<pad name="P$1" x="0" y="0" drill="1"/>
<pad name="P$2" x="0" y="2.54" drill="1" shape="octagon"/>
<pad name="P$3" x="0" y="5.08" drill="1" shape="octagon"/>
<pad name="P$4" x="0" y="7.62" drill="1" shape="octagon"/>
<pad name="P$5" x="0" y="10.16" drill="1" shape="octagon"/>
<pad name="P$6" x="2.54" y="10.16" drill="1" shape="octagon"/>
<pad name="P$7" x="2.54" y="7.62" drill="1" shape="octagon"/>
<pad name="P$8" x="2.54" y="5.08" drill="1" shape="octagon"/>
<pad name="P$9" x="2.54" y="2.54" drill="1" shape="octagon"/>
<pad name="P$10" x="2.54" y="0" drill="1" shape="octagon"/>
<pad name="P$11" x="5.08" y="10.16" drill="1" shape="octagon"/>
<pad name="P$12" x="5.08" y="7.62" drill="1" shape="octagon"/>
<pad name="P$13" x="5.08" y="5.08" drill="1" shape="octagon"/>
<pad name="P$14" x="5.08" y="2.54" drill="1" shape="octagon"/>
<pad name="P$15" x="5.08" y="0" drill="1" shape="octagon"/>
<pad name="P$16" x="7.62" y="10.16" drill="1" shape="octagon"/>
<pad name="P$17" x="7.62" y="7.62" drill="1" shape="octagon"/>
<pad name="P$18" x="7.62" y="5.08" drill="1" shape="octagon"/>
<pad name="P$19" x="7.62" y="2.54" drill="1" shape="octagon"/>
<pad name="P$20" x="7.62" y="0" drill="1" shape="octagon"/>
<pad name="P$21" x="10.16" y="10.16" drill="1" shape="octagon"/>
<pad name="P$22" x="10.16" y="7.62" drill="1" shape="octagon"/>
<pad name="P$23" x="10.16" y="5.08" drill="1" shape="octagon"/>
<pad name="P$24" x="10.16" y="2.54" drill="1" shape="octagon"/>
<pad name="P$25" x="10.16" y="0" drill="1" shape="octagon"/>
<wire x1="-1.27" y1="12.065" x2="-1.27" y2="10.795" width="0.127" layer="21"/>
<wire x1="-1.905" y1="11.43" x2="-0.635" y2="11.43" width="0.127" layer="21"/>
<wire x1="10.795" y1="-1.27" x2="12.065" y2="-1.27" width="0.127" layer="21"/>
<wire x1="11.43" y1="-0.635" x2="11.43" y2="-1.905" width="0.127" layer="21"/>
<wire x1="11.43" y1="12.065" x2="11.43" y2="10.795" width="0.127" layer="21"/>
<wire x1="10.795" y1="11.43" x2="12.065" y2="11.43" width="0.127" layer="21"/>
<wire x1="-1.27" y1="-0.635" x2="-1.27" y2="-1.905" width="0.127" layer="21"/>
<wire x1="-1.905" y1="-1.27" x2="-0.635" y2="-1.27" width="0.127" layer="21"/>
</package>
<package name="CR2032_HOLDER">
<description>&lt;b&gt;LI BATTERY HOLDER&lt;/b&gt;&lt;br&gt; Renata HU-2023-LF</description>
<wire x1="4.445" y1="13.335" x2="5.715" y2="13.335" width="0.254" layer="21"/>
<wire x1="5.08" y1="13.97" x2="5.08" y2="12.7" width="0.254" layer="21"/>
<wire x1="4.445" y1="-13.97" x2="5.715" y2="-13.97" width="0.254" layer="21"/>
<wire x1="-8.509" y1="7.239" x2="-8.509" y2="-7.239" width="0.1524" layer="21"/>
<wire x1="8.509" y1="-7.239" x2="8.509" y2="7.239" width="0.1524" layer="21"/>
<wire x1="-6.698" y1="7.5979" x2="10.033" y2="0" width="0.1524" layer="21" curve="227.397154"/>
<wire x1="3.556" y1="15.24" x2="-3.556" y2="15.24" width="0.1524" layer="21"/>
<wire x1="6.6203" y1="7.6668" x2="10.0331" y2="0" width="0.1524" layer="21" curve="-49.440271"/>
<pad name="+@1" x="-1.27" y="13.589" drill="1.1176" diameter="2.1844" shape="octagon"/>
<pad name="+" x="1.27" y="13.589" drill="1.1176" diameter="2.1844" shape="octagon"/>
<pad name="-" x="0" y="-13.589" drill="1.1176" diameter="2.1844" shape="octagon"/>
<text x="-2.54" y="5.08" size="1.27" layer="25" ratio="10">&gt;NAME</text>
<text x="5.08" y="-6.985" size="1.27" layer="27" ratio="10" rot="R90">&gt;VALUE</text>
<text x="-2.921" y="-5.08" size="1.27" layer="21" ratio="10">Lit.3V</text>
<wire x1="3.556" y1="-15.24" x2="-3.556" y2="-15.24" width="0.1524" layer="21"/>
<wire x1="3.81" y1="-15.24" x2="3.81" y2="-10.16" width="0.127" layer="51"/>
<wire x1="-3.81" y1="-15.24" x2="-3.81" y2="-10.16" width="0.127" layer="51"/>
<wire x1="-3.81" y1="15.24" x2="-3.81" y2="10.16" width="0.127" layer="51"/>
<wire x1="3.81" y1="15.24" x2="3.81" y2="10.16" width="0.127" layer="51"/>
<wire x1="3.81" y1="-10.16" x2="8.255" y2="-7.62" width="0.127" layer="51"/>
<wire x1="-3.81" y1="-10.16" x2="-8.255" y2="-7.62" width="0.127" layer="51"/>
<wire x1="3.81" y1="10.16" x2="8.255" y2="7.62" width="0.127" layer="51"/>
<wire x1="-3.81" y1="10.16" x2="-8.255" y2="7.62" width="0.127" layer="51"/>
<wire x1="-8.255" y1="7.62" x2="8.255" y2="7.62" width="0.1524" layer="21"/>
</package>
<package name="SOT-23">
<description>&lt;b&gt;Small Outline Transistor&lt;/b&gt;</description>
<wire x1="-1.4224" y1="0.381" x2="1.4732" y2="0.381" width="0.1524" layer="21"/>
<wire x1="1.4732" y1="0.381" x2="1.4732" y2="-0.381" width="0.1524" layer="21"/>
<wire x1="1.4732" y1="-0.381" x2="-1.4224" y2="-0.381" width="0.1524" layer="21"/>
<wire x1="-1.4224" y1="-0.381" x2="-1.4224" y2="0.381" width="0.1524" layer="21"/>
<smd name="3" x="0.9906" y="1.016" dx="0.7874" dy="0.889" layer="1"/>
<smd name="2" x="-0.9398" y="1.016" dx="0.7874" dy="0.889" layer="1"/>
<smd name="1" x="0.0254" y="-1.016" dx="0.7874" dy="0.889" layer="1"/>
<text x="-1.397" y="1.778" size="1.27" layer="27" ratio="10">&gt;VALUE</text>
<text x="-1.397" y="3.302" size="1.27" layer="25" ratio="10">&gt;NAME</text>
<rectangle x1="0.7874" y1="0.4318" x2="1.1684" y2="0.9398" layer="51"/>
<rectangle x1="-1.143" y1="0.4318" x2="-0.762" y2="0.9398" layer="51"/>
<rectangle x1="-0.1778" y1="-0.9398" x2="0.2032" y2="-0.4318" layer="51"/>
</package>
<package name="FIDUCIAL-1.5X4.5">
<description>&lt;b&gt;Fiducial&lt;/b&gt;&lt;br&gt;
1.5mm copper with 4.5mm stop&lt;br&gt;
&lt;br&gt;Hint: 
Made by setting the witdh of a circle to 0.</description>
<circle x="0" y="0" radius="0.75" width="0" layer="1"/>
<circle x="0" y="0" radius="2.25" width="0" layer="29"/>
<circle x="0" y="0" radius="2.31" width="0.127" layer="41"/>
</package>
<package name="SWITCH-TILT-RB231X2">
<description>&lt;b&gt;Tilt Switch - Mechanical&lt;/b&gt;
&lt;br&gt;CK Tilt switch RB-231x2&lt;br&gt;
MFG: Comax Electronics.
&lt;br&gt;
&lt;br&gt;Mouser: 611-RB-231X2
&lt;br&gt;DigiKey: CKN10375-ND</description>
<pad name="TAB" x="2.45" y="0" drill="3.2" shape="octagon" rot="R180"/>
<pad name="PIN" x="-2.4" y="0" drill="1" shape="long"/>
<text x="4.46" y="2.54" size="1.27" layer="25" font="vector">&gt;NAME</text>
<wire x1="1.8" y1="-2.5" x2="1.8" y2="2.5" width="0.127" layer="51"/>
<wire x1="1.8" y1="2.5" x2="2.194790625" y2="2.5" width="0.127" layer="51"/>
<wire x1="2.194790625" y1="2.5" x2="2.37439375" y2="2.42560625" width="0.127" layer="51" curve="-44.999502"/>
<wire x1="2.37439375" y1="2.42560625" x2="2.4" y2="2.4" width="0.127" layer="51"/>
<wire x1="1.8" y1="-2.5" x2="2.194790625" y2="-2.5" width="0.127" layer="51"/>
<wire x1="2.194790625" y1="-2.5" x2="2.37439375" y2="-2.42560625" width="0.127" layer="51" curve="44.999502"/>
<wire x1="2.37439375" y1="-2.42560625" x2="2.4" y2="-2.4" width="0.127" layer="51"/>
<wire x1="2.4" y1="-2.4" x2="2.4" y2="-2" width="0.127" layer="51"/>
<wire x1="2.4" y1="-2" x2="2.4" y2="2" width="0.127" layer="51"/>
<wire x1="2.4" y1="2" x2="2.4" y2="2.4" width="0.127" layer="51"/>
<wire x1="2.4" y1="-2" x2="4" y2="-2" width="0.127" layer="51"/>
<wire x1="4" y1="2" x2="2.4" y2="2" width="0.127" layer="51"/>
<wire x1="4" y1="2" x2="14" y2="2" width="0.127" layer="21"/>
<wire x1="14" y1="2" x2="14" y2="-2" width="0.127" layer="21"/>
<wire x1="14" y1="-2" x2="4" y2="-2" width="0.127" layer="21"/>
<wire x1="0" y1="0" x2="-0.635" y2="0" width="0.127" layer="21"/>
<wire x1="1.905" y1="0" x2="0" y2="0" width="0.127" layer="51"/>
<wire x1="-0.635" y1="0" x2="-1.27" y2="0" width="0.127" layer="51"/>
</package>
<package name="LOGO_G">
<description>Silk screen logo</description>
<wire x1="0" y1="0.635" x2="0.635" y2="0" width="0.2032" layer="21" curve="-90"/>
<wire x1="0.3175" y1="1.27" x2="1.27" y2="0" width="0.1778" layer="21" curve="-90"/>
<wire x1="0" y1="-0.635" x2="-0.635" y2="0" width="0.127" layer="21" curve="-90"/>
<wire x1="0" y1="-1.27" x2="-1.27" y2="0" width="0.127" layer="21" curve="-90"/>
<wire x1="1.905" y1="-0.635" x2="0" y2="1.905" width="0.4064" layer="21" curve="-250"/>
<wire x1="0.635" y1="1.905" x2="1.905" y2="0" width="0.1524" layer="21" curve="-75.963757"/>
<wire x1="0.9525" y1="2.54" x2="2.54" y2="0" width="0.127" layer="21" curve="-69.98404"/>
<wire x1="1.905" y1="-0.635" x2="0.635" y2="-0.635" width="0.4064" layer="21"/>
<wire x1="1.905" y1="-0.635" x2="1.905" y2="-1.905" width="0.4064" layer="21"/>
</package>
</packages>
<symbols>
<symbol name="HEATSINK-TO220-JAPAN">
<wire x1="0" y1="1.905" x2="7.62" y2="1.905" width="0.254" layer="94"/>
<wire x1="0" y1="1.905" x2="0" y2="-6.35" width="0.254" layer="94"/>
<wire x1="7.62" y1="1.905" x2="7.62" y2="1.27" width="0.254" layer="94"/>
<wire x1="7.62" y1="1.27" x2="1.905" y2="1.27" width="0.254" layer="94"/>
<wire x1="1.905" y1="1.27" x2="1.905" y2="-0.635" width="0.254" layer="94"/>
<wire x1="1.905" y1="-0.635" x2="7.62" y2="-0.635" width="0.254" layer="94"/>
<wire x1="7.62" y1="-0.635" x2="7.62" y2="-1.27" width="0.254" layer="94"/>
<wire x1="7.62" y1="-1.27" x2="1.905" y2="-1.27" width="0.254" layer="94"/>
<wire x1="1.905" y1="-1.27" x2="1.905" y2="-3.175" width="0.254" layer="94"/>
<wire x1="1.905" y1="-3.175" x2="7.62" y2="-3.175" width="0.254" layer="94"/>
<wire x1="7.62" y1="-3.175" x2="7.62" y2="-3.81" width="0.254" layer="94"/>
<wire x1="7.62" y1="-3.81" x2="1.905" y2="-3.81" width="0.254" layer="94"/>
<wire x1="1.905" y1="-3.81" x2="1.905" y2="-5.715" width="0.254" layer="94"/>
<wire x1="1.905" y1="-5.715" x2="7.62" y2="-5.715" width="0.254" layer="94"/>
<wire x1="7.62" y1="-5.715" x2="7.62" y2="-6.35" width="0.254" layer="94"/>
<wire x1="7.62" y1="-6.35" x2="0" y2="-6.35" width="0.254" layer="94"/>
<text x="0" y="2.54" size="1.778" layer="96">&gt;VALUE</text>
<text x="0" y="5.08" size="1.778" layer="95">&gt;NAME</text>
<pin name="P$1" x="-2.54" y="-5.08" visible="pad" length="short"/>
<pin name="P$2" x="-2.54" y="-2.54" visible="pad" length="short"/>
<pin name="P$3" x="-2.54" y="0" visible="pad" length="short"/>
</symbol>
<symbol name="HEATSINK-TO220-JAPAN-NOPADS">
<wire x1="0" y1="4.445" x2="7.62" y2="4.445" width="0.254" layer="94"/>
<wire x1="0" y1="4.445" x2="0" y2="-3.81" width="0.254" layer="94"/>
<wire x1="7.62" y1="4.445" x2="7.62" y2="3.81" width="0.254" layer="94"/>
<wire x1="7.62" y1="3.81" x2="1.905" y2="3.81" width="0.254" layer="94"/>
<wire x1="1.905" y1="3.81" x2="1.905" y2="1.905" width="0.254" layer="94"/>
<wire x1="1.905" y1="1.905" x2="7.62" y2="1.905" width="0.254" layer="94"/>
<wire x1="7.62" y1="1.905" x2="7.62" y2="1.27" width="0.254" layer="94"/>
<wire x1="7.62" y1="1.27" x2="1.905" y2="1.27" width="0.254" layer="94"/>
<wire x1="1.905" y1="1.27" x2="1.905" y2="-0.635" width="0.254" layer="94"/>
<wire x1="1.905" y1="-0.635" x2="7.62" y2="-0.635" width="0.254" layer="94"/>
<wire x1="7.62" y1="-0.635" x2="7.62" y2="-1.27" width="0.254" layer="94"/>
<wire x1="7.62" y1="-1.27" x2="1.905" y2="-1.27" width="0.254" layer="94"/>
<wire x1="1.905" y1="-1.27" x2="1.905" y2="-3.175" width="0.254" layer="94"/>
<wire x1="1.905" y1="-3.175" x2="7.62" y2="-3.175" width="0.254" layer="94"/>
<wire x1="7.62" y1="-3.175" x2="7.62" y2="-3.81" width="0.254" layer="94"/>
<wire x1="7.62" y1="-3.81" x2="0" y2="-3.81" width="0.254" layer="94"/>
<text x="0" y="5.08" size="1.778" layer="96">&gt;VALUE</text>
<text x="0" y="7.62" size="1.778" layer="95">&gt;NAME</text>
</symbol>
<symbol name="HEATSINK-TO220-11-THM">
<wire x1="-5.08" y1="0" x2="5.08" y2="0" width="0.254" layer="94"/>
<wire x1="5.08" y1="0" x2="5.08" y2="5.08" width="0.254" layer="94"/>
<wire x1="5.08" y1="5.08" x2="4.445" y2="5.08" width="0.254" layer="94"/>
<wire x1="4.445" y1="5.08" x2="4.445" y2="1.27" width="0.254" layer="94"/>
<wire x1="4.445" y1="1.27" x2="3.175" y2="1.27" width="0.254" layer="94"/>
<wire x1="3.175" y1="1.27" x2="3.175" y2="5.08" width="0.254" layer="94"/>
<wire x1="3.175" y1="5.08" x2="2.54" y2="5.08" width="0.254" layer="94"/>
<wire x1="2.54" y1="5.08" x2="2.54" y2="1.27" width="0.254" layer="94"/>
<wire x1="2.54" y1="1.27" x2="-2.54" y2="1.27" width="0.254" layer="94"/>
<wire x1="-2.54" y1="1.27" x2="-2.54" y2="5.08" width="0.254" layer="94"/>
<wire x1="-2.54" y1="5.08" x2="-3.175" y2="5.08" width="0.254" layer="94"/>
<wire x1="-3.175" y1="5.08" x2="-3.175" y2="1.27" width="0.254" layer="94"/>
<wire x1="-3.175" y1="1.27" x2="-4.445" y2="1.27" width="0.254" layer="94"/>
<wire x1="-4.445" y1="1.27" x2="-4.445" y2="5.08" width="0.254" layer="94"/>
<wire x1="-4.445" y1="5.08" x2="-5.08" y2="5.08" width="0.254" layer="94"/>
<wire x1="-5.08" y1="5.08" x2="-5.08" y2="0" width="0.254" layer="94"/>
<text x="5.715" y="3.175" size="1.778" layer="95">&gt;NAME</text>
<text x="5.715" y="0.635" size="1.778" layer="96">&gt;VALUE</text>
<pin name="K@1" x="-5.08" y="-2.54" visible="off" length="short" direction="pas" rot="R90"/>
<pin name="K@2" x="5.08" y="-2.54" visible="off" length="short" direction="pas" rot="R90"/>
</symbol>
<symbol name="OPTOLOGIC-DETECTOR">
<wire x1="0" y1="-8.128" x2="12.954" y2="0" width="0.254" layer="94"/>
<wire x1="12.954" y1="0" x2="0" y2="8.128" width="0.254" layer="94"/>
<wire x1="0" y1="8.128" x2="0" y2="-8.128" width="0.254" layer="94"/>
<wire x1="2.54" y1="2.54" x2="2.54" y2="-2.54" width="0.254" layer="94"/>
<wire x1="2.54" y1="-2.54" x2="3.81" y2="-2.54" width="0.254" layer="94"/>
<wire x1="5.08" y1="-2.54" x2="3.81" y2="-2.54" width="0.254" layer="94"/>
<wire x1="3.81" y1="-2.54" x2="3.81" y2="2.54" width="0.254" layer="94"/>
<wire x1="3.81" y1="2.54" x2="2.54" y2="2.54" width="0.254" layer="94"/>
<wire x1="1.524" y1="2.54" x2="2.54" y2="2.54" width="0.254" layer="94"/>
<wire x1="-5.334" y1="3.81" x2="-2.794" y2="2.54" width="0.254" layer="94"/>
<wire x1="-2.794" y1="2.54" x2="-4.318" y2="2.032" width="0.254" layer="94"/>
<wire x1="-4.318" y1="2.032" x2="-1.016" y2="0.508" width="0.254" layer="94"/>
<wire x1="-1.016" y1="0.508" x2="-1.524" y2="1.524" width="0.254" layer="94"/>
<wire x1="-1.016" y1="0.508" x2="-2.032" y2="0.254" width="0.254" layer="94"/>
<wire x1="-2.032" y1="0.254" x2="-1.524" y2="1.524" width="0.254" layer="94"/>
<text x="7.62" y="5.08" size="1.27" layer="95">&gt;NAME</text>
<text x="7.62" y="-7.62" size="1.27" layer="96">&gt;VALUE</text>
<pin name="GND" x="5.08" y="-10.16" visible="pad" length="middle" rot="R90"/>
<pin name="VOUT" x="17.78" y="0" length="middle" rot="R180"/>
<pin name="VCC" x="5.08" y="10.16" visible="pad" length="middle" rot="R270"/>
</symbol>
<symbol name="OPTOLOGIC-DETECTOR-OC">
<wire x1="0" y1="-8.128" x2="12.954" y2="0" width="0.254" layer="94"/>
<wire x1="12.954" y1="0" x2="0" y2="8.128" width="0.254" layer="94"/>
<wire x1="0" y1="8.128" x2="0" y2="-8.128" width="0.254" layer="94"/>
<wire x1="2.54" y1="2.54" x2="2.54" y2="-2.54" width="0.254" layer="94"/>
<wire x1="2.54" y1="-2.54" x2="3.81" y2="-2.54" width="0.254" layer="94"/>
<wire x1="5.08" y1="-2.54" x2="3.81" y2="-2.54" width="0.254" layer="94"/>
<wire x1="3.81" y1="-2.54" x2="3.81" y2="2.54" width="0.254" layer="94"/>
<wire x1="3.81" y1="2.54" x2="2.54" y2="2.54" width="0.254" layer="94"/>
<wire x1="1.524" y1="2.54" x2="2.54" y2="2.54" width="0.254" layer="94"/>
<wire x1="-5.334" y1="3.81" x2="-2.794" y2="2.54" width="0.254" layer="94"/>
<wire x1="-2.794" y1="2.54" x2="-4.318" y2="2.032" width="0.254" layer="94"/>
<wire x1="-4.318" y1="2.032" x2="-1.016" y2="0.508" width="0.254" layer="94"/>
<wire x1="-1.016" y1="0.508" x2="-1.524" y2="1.524" width="0.254" layer="94"/>
<wire x1="-1.016" y1="0.508" x2="-2.032" y2="0.254" width="0.254" layer="94"/>
<wire x1="-2.032" y1="0.254" x2="-1.524" y2="1.524" width="0.254" layer="94"/>
<wire x1="12.192" y1="-0.508" x2="12.192" y2="0.508" width="0.254" layer="94" curve="-180"/>
<text x="7.62" y="-7.62" size="1.27" layer="96">&gt;VALUE</text>
<text x="7.62" y="5.08" size="1.27" layer="95">&gt;NAME</text>
<pin name="GND" x="5.08" y="-10.16" visible="pad" length="middle" rot="R90"/>
<pin name="VOUT" x="17.78" y="0" visible="pin" length="middle" rot="R180"/>
<pin name="VCC" x="5.08" y="10.16" visible="pad" length="middle" rot="R270"/>
</symbol>
<symbol name="OPTOLOGIC-DETECTOR-INV">
<wire x1="-2.54" y1="-8.128" x2="10.414" y2="0" width="0.254" layer="94"/>
<wire x1="10.414" y1="0" x2="-2.54" y2="8.128" width="0.254" layer="94"/>
<wire x1="-2.54" y1="8.128" x2="-2.54" y2="-8.128" width="0.254" layer="94"/>
<wire x1="2.54" y1="2.54" x2="2.54" y2="-2.54" width="0.254" layer="94"/>
<wire x1="2.54" y1="-2.54" x2="3.81" y2="-2.54" width="0.254" layer="94"/>
<wire x1="5.08" y1="-2.54" x2="3.81" y2="-2.54" width="0.254" layer="94"/>
<wire x1="3.81" y1="-2.54" x2="3.81" y2="2.54" width="0.254" layer="94"/>
<wire x1="3.81" y1="2.54" x2="2.54" y2="2.54" width="0.254" layer="94"/>
<wire x1="1.524" y1="2.54" x2="2.54" y2="2.54" width="0.254" layer="94"/>
<wire x1="-7.874" y1="3.81" x2="-5.334" y2="2.54" width="0.254" layer="94"/>
<wire x1="-5.334" y1="2.54" x2="-6.858" y2="2.032" width="0.254" layer="94"/>
<wire x1="-6.858" y1="2.032" x2="-3.556" y2="0.508" width="0.254" layer="94"/>
<wire x1="-3.556" y1="0.508" x2="-4.064" y2="1.524" width="0.254" layer="94"/>
<wire x1="-3.556" y1="0.508" x2="-4.572" y2="0.254" width="0.254" layer="94"/>
<wire x1="-4.572" y1="0.254" x2="-4.064" y2="1.524" width="0.254" layer="94"/>
<text x="5.08" y="5.08" size="1.27" layer="95">&gt;NAME</text>
<text x="5.08" y="-7.62" size="1.27" layer="96">&gt;VALUE</text>
<pin name="GND" x="2.54" y="-10.16" visible="pad" length="middle" rot="R90"/>
<pin name="VOUT" x="15.24" y="0" length="middle" function="dot" rot="R180"/>
<pin name="VCC" x="2.54" y="10.16" visible="pad" length="middle" rot="R270"/>
</symbol>
<symbol name="OPTOLOGIC-DETECTOR-OC-INV">
<wire x1="-2.54" y1="-8.128" x2="10.414" y2="0" width="0.254" layer="94"/>
<wire x1="10.414" y1="0" x2="-2.54" y2="8.128" width="0.254" layer="94"/>
<wire x1="-2.54" y1="8.128" x2="-2.54" y2="-8.128" width="0.254" layer="94"/>
<wire x1="2.54" y1="2.54" x2="2.54" y2="-2.54" width="0.254" layer="94"/>
<wire x1="2.54" y1="-2.54" x2="3.81" y2="-2.54" width="0.254" layer="94"/>
<wire x1="5.08" y1="-2.54" x2="3.81" y2="-2.54" width="0.254" layer="94"/>
<wire x1="3.81" y1="-2.54" x2="3.81" y2="2.54" width="0.254" layer="94"/>
<wire x1="3.81" y1="2.54" x2="2.54" y2="2.54" width="0.254" layer="94"/>
<wire x1="1.524" y1="2.54" x2="2.54" y2="2.54" width="0.254" layer="94"/>
<wire x1="-7.874" y1="3.81" x2="-5.334" y2="2.54" width="0.254" layer="94"/>
<wire x1="-5.334" y1="2.54" x2="-6.858" y2="2.032" width="0.254" layer="94"/>
<wire x1="-6.858" y1="2.032" x2="-3.556" y2="0.508" width="0.254" layer="94"/>
<wire x1="-3.556" y1="0.508" x2="-4.064" y2="1.524" width="0.254" layer="94"/>
<wire x1="-3.556" y1="0.508" x2="-4.572" y2="0.254" width="0.254" layer="94"/>
<wire x1="-4.572" y1="0.254" x2="-4.064" y2="1.524" width="0.254" layer="94"/>
<wire x1="8.89" y1="-0.762" x2="8.89" y2="1.016" width="0.254" layer="94" curve="-180"/>
<text x="5.08" y="5.08" size="1.27" layer="95">&gt;NAME</text>
<text x="5.08" y="-7.62" size="1.27" layer="96">&gt;VALUE</text>
<pin name="GND" x="2.54" y="-10.16" visible="pad" length="middle" rot="R90"/>
<pin name="VOUT" x="15.24" y="0" visible="pad" length="middle" function="dot" rot="R180"/>
<pin name="VCC" x="2.54" y="10.16" visible="pad" length="middle" rot="R270"/>
</symbol>
<symbol name="QEE1XX-IR-EMITTER">
<description>&lt;b&gt;IR Emitter&lt;/b&gt;&lt;br&gt;
Side looking IR emitter.&lt;br&gt;
TO-92 type package.</description>
<wire x1="2.54" y1="2.54" x2="2.54" y2="-2.54" width="0.254" layer="94"/>
<wire x1="-0.508" y1="3.302" x2="1.016" y2="5.334" width="0.254" layer="94"/>
<wire x1="1.016" y1="5.334" x2="1.27" y2="3.81" width="0.254" layer="94"/>
<wire x1="1.27" y1="3.81" x2="3.302" y2="6.35" width="0.254" layer="94"/>
<wire x1="2.032" y1="5.842" x2="3.302" y2="6.35" width="0.254" layer="94"/>
<wire x1="3.302" y1="6.35" x2="3.048" y2="5.08" width="0.254" layer="94"/>
<text x="-2.54" y="10.16" size="1.27" layer="95">&gt;NAME</text>
<text x="-2.54" y="7.62" size="1.27" layer="96">&gt;VALUE</text>
<pin name="A" x="-7.62" y="0" visible="pad" length="middle" direction="pas"/>
<pin name="C" x="7.62" y="0" visible="pad" length="middle" direction="pas" rot="R180"/>
<polygon width="0.254" layer="94">
<vertex x="-2.54" y="2.54"/>
<vertex x="-2.54" y="-2.54"/>
<vertex x="2.54" y="0"/>
</polygon>
</symbol>
<symbol name="HO-TRACK-.75IN">
<wire x1="-7.62" y1="12.7" x2="-7.62" y2="-5.08" width="0.254" layer="94"/>
<wire x1="-7.62" y1="12.7" x2="-10.16" y2="12.7" width="0.254" layer="94"/>
<wire x1="-10.16" y1="12.7" x2="-10.16" y2="-5.08" width="0.254" layer="94"/>
<wire x1="15.24" y1="12.7" x2="15.24" y2="-5.08" width="0.254" layer="94"/>
<wire x1="15.24" y1="12.7" x2="17.78" y2="12.7" width="0.254" layer="94"/>
<wire x1="17.78" y1="12.7" x2="17.78" y2="-5.08" width="0.254" layer="94"/>
<wire x1="17.78" y1="-5.08" x2="15.24" y2="-5.08" width="0.254" layer="94"/>
<wire x1="-10.16" y1="-5.08" x2="-7.62" y2="-5.08" width="0.254" layer="94"/>
<text x="-12.7" y="17.78" size="1.27" layer="95">&gt;NAME</text>
<text x="-12.7" y="15.24" size="1.27" layer="96">HO Track</text>
<rectangle x1="-12.7" y1="6.35" x2="20.32" y2="8.89" layer="97"/>
<rectangle x1="-12.7" y1="1.27" x2="20.32" y2="3.81" layer="97"/>
<rectangle x1="-12.7" y1="-3.81" x2="20.32" y2="-1.27" layer="97"/>
<pin name="P$1" x="-15.24" y="7.62" visible="pad" length="middle"/>
<pin name="P$2" x="-2.54" y="7.62" visible="pad" length="middle" rot="R180"/>
<pin name="P$3" x="-15.24" y="2.54" visible="pad" length="middle"/>
<pin name="P$4" x="-2.54" y="2.54" visible="pad" length="middle" rot="R180"/>
<pin name="P$5" x="-15.24" y="-2.54" visible="pad" length="middle"/>
<pin name="P$6" x="-2.54" y="-2.54" visible="pad" length="middle" rot="R180"/>
<pin name="P$7" x="10.16" y="7.62" visible="pad" length="middle"/>
<pin name="P$8" x="22.86" y="7.62" visible="pad" length="middle" rot="R180"/>
<pin name="P$9" x="10.16" y="2.54" visible="pad" length="middle"/>
<pin name="P$10" x="22.86" y="2.54" visible="pad" length="middle" rot="R180"/>
<pin name="P$11" x="10.16" y="-2.54" visible="pad" length="middle"/>
<pin name="P$12" x="22.86" y="-2.54" visible="pad" length="middle" rot="R180"/>
</symbol>
<symbol name="PROTO-PIN">
<circle x="-2.54" y="0" radius="2.54" width="0.254" layer="94"/>
<pin name="P$1" x="5.08" y="0" visible="pad" length="middle" rot="R180"/>
</symbol>
<symbol name="ANTENNA-915MHZ">
<pin name="A915" x="0" y="0" visible="off" length="short" direction="pas" rot="R90"/>
<wire x1="0" y1="2.54" x2="2.54" y2="2.54" width="0.254" layer="94"/>
<wire x1="2.54" y1="2.54" x2="2.54" y2="3.81" width="0.254" layer="94"/>
<wire x1="2.54" y1="3.81" x2="-2.54" y2="3.81" width="0.254" layer="94"/>
<wire x1="-2.54" y1="3.81" x2="-2.54" y2="5.08" width="0.254" layer="94"/>
<wire x1="-2.54" y1="5.08" x2="2.54" y2="5.08" width="0.254" layer="94"/>
<wire x1="2.54" y1="5.08" x2="2.54" y2="6.35" width="0.254" layer="94"/>
<wire x1="2.54" y1="6.35" x2="-2.54" y2="6.35" width="0.254" layer="94"/>
<text x="-2.54" y="7.62" size="0.8128" layer="94">915MHz
Ant</text>
</symbol>
<symbol name="BOARD-OUTLINE-SERPAC-H65-TOP">
<text x="1.016" y="1.016" size="0.8128" layer="94">Serpac H65 
Board Outline
TOP</text>
<wire x1="0" y1="0" x2="0" y2="5.08" width="0.254" layer="94"/>
<wire x1="0" y1="5.08" x2="10.16" y2="5.08" width="0.254" layer="94"/>
<wire x1="10.16" y1="5.08" x2="10.16" y2="0" width="0.254" layer="94"/>
<wire x1="10.16" y1="0" x2="0" y2="0" width="0.254" layer="94"/>
</symbol>
<symbol name="SIL-5X2-MG-PROTO">
<description>&lt;b&gt;SIL-5x2-MG&lt;/b&gt;
&lt;br&gt;A 5 x 2 array of prototyping holes on 0.1 inch centers.</description>
<pin name="1" x="-2.54" y="0" length="point" direction="pas" rot="R180"/>
<pin name="2" x="-2.54" y="2.54" length="point" direction="pas" rot="R180"/>
<pin name="3" x="-2.54" y="5.08" length="point" direction="pas" rot="R180"/>
<pin name="4" x="-2.54" y="7.62" length="point" direction="pas" rot="R180"/>
<pin name="5" x="-2.54" y="10.16" length="point" direction="pas" rot="R180"/>
<pin name="6" x="2.54" y="10.16" length="point" direction="pas"/>
<pin name="7" x="2.54" y="7.62" length="point" direction="pas"/>
<pin name="8" x="2.54" y="5.08" length="point" direction="pas"/>
<pin name="9" x="2.54" y="2.54" length="point" direction="pas"/>
<pin name="10" x="2.54" y="0" length="point" direction="pas"/>
<wire x1="-2.54" y1="12.7" x2="-2.54" y2="7.62" width="0.254" layer="94"/>
<wire x1="-2.54" y1="7.62" x2="-2.54" y2="2.54" width="0.254" layer="94"/>
<wire x1="-2.54" y1="2.54" x2="-2.54" y2="-2.54" width="0.254" layer="94"/>
<wire x1="-2.54" y1="-2.54" x2="2.54" y2="-2.54" width="0.254" layer="94"/>
<wire x1="2.54" y1="-2.54" x2="2.54" y2="2.54" width="0.254" layer="94"/>
<wire x1="2.54" y1="2.54" x2="2.54" y2="7.62" width="0.254" layer="94"/>
<wire x1="2.54" y1="7.62" x2="2.54" y2="12.7" width="0.254" layer="94"/>
<wire x1="2.54" y1="12.7" x2="-2.54" y2="12.7" width="0.254" layer="94"/>
<wire x1="-2.54" y1="12.7" x2="0" y2="10.16" width="0.254" layer="94"/>
<wire x1="0" y1="10.16" x2="-2.54" y2="7.62" width="0.254" layer="94"/>
<wire x1="-2.54" y1="7.62" x2="0" y2="5.08" width="0.254" layer="94"/>
<wire x1="0" y1="5.08" x2="-2.54" y2="2.54" width="0.254" layer="94"/>
<wire x1="-2.54" y1="2.54" x2="0" y2="0" width="0.254" layer="94"/>
<wire x1="0" y1="0" x2="-2.54" y2="-2.54" width="0.254" layer="94"/>
<wire x1="2.54" y1="-2.54" x2="0" y2="0" width="0.254" layer="94"/>
<wire x1="0" y1="0" x2="2.54" y2="2.54" width="0.254" layer="94"/>
<wire x1="2.54" y1="2.54" x2="0" y2="5.08" width="0.254" layer="94"/>
<wire x1="0" y1="5.08" x2="2.54" y2="7.62" width="0.254" layer="94"/>
<wire x1="2.54" y1="7.62" x2="0" y2="10.16" width="0.254" layer="94"/>
<wire x1="0" y1="10.16" x2="2.54" y2="12.7" width="0.254" layer="94"/>
</symbol>
<symbol name="5X5-MG-PROTO">
<description>&lt;b&gt;5 x 5 Prototype Grid&lt;/b&gt;&lt;br&gt;
A grid of vias to form a 5 x 5 array of through holes on 0.1 inch centers.&lt;br&gt;
Each via has a pin such that power and ground busses can be made.&lt;br&gt;
Pins are "point" contact in the symbol on the left side of each box. There are 5 pins per box.&lt;br&gt;
See the package part description for hole diameter.
&lt;br&gt;-MG</description>
<wire x1="-15.24" y1="0" x2="-12.7" y2="0" width="0.254" layer="94"/>
<wire x1="-12.7" y1="0" x2="-12.7" y2="15.24" width="0.254" layer="94"/>
<wire x1="-7.62" y1="15.24" x2="-7.62" y2="12.7" width="0.254" layer="94"/>
<wire x1="-7.62" y1="12.7" x2="-7.62" y2="10.16" width="0.254" layer="94"/>
<wire x1="-7.62" y1="10.16" x2="-7.62" y2="7.62" width="0.254" layer="94"/>
<wire x1="-7.62" y1="7.62" x2="-7.62" y2="5.08" width="0.254" layer="94"/>
<wire x1="-7.62" y1="5.08" x2="-7.62" y2="2.54" width="0.254" layer="94"/>
<wire x1="-7.62" y1="2.54" x2="-7.62" y2="0" width="0.254" layer="94"/>
<wire x1="-7.62" y1="0" x2="-5.08" y2="0" width="0.254" layer="94"/>
<wire x1="-5.08" y1="0" x2="-5.08" y2="15.24" width="0.254" layer="94"/>
<wire x1="0" y1="15.24" x2="0" y2="12.7" width="0.254" layer="94"/>
<wire x1="0" y1="12.7" x2="0" y2="10.16" width="0.254" layer="94"/>
<wire x1="0" y1="10.16" x2="0" y2="7.62" width="0.254" layer="94"/>
<wire x1="0" y1="7.62" x2="0" y2="5.08" width="0.254" layer="94"/>
<wire x1="0" y1="5.08" x2="0" y2="2.54" width="0.254" layer="94"/>
<wire x1="0" y1="2.54" x2="0" y2="0" width="0.254" layer="94"/>
<wire x1="0" y1="0" x2="2.54" y2="0" width="0.254" layer="94"/>
<wire x1="2.54" y1="0" x2="2.54" y2="15.24" width="0.254" layer="94"/>
<wire x1="7.62" y1="15.24" x2="7.62" y2="12.7" width="0.254" layer="94"/>
<wire x1="7.62" y1="12.7" x2="7.62" y2="10.16" width="0.254" layer="94"/>
<wire x1="7.62" y1="10.16" x2="7.62" y2="7.62" width="0.254" layer="94"/>
<wire x1="7.62" y1="7.62" x2="7.62" y2="5.08" width="0.254" layer="94"/>
<wire x1="7.62" y1="5.08" x2="7.62" y2="2.54" width="0.254" layer="94"/>
<wire x1="7.62" y1="2.54" x2="7.62" y2="0" width="0.254" layer="94"/>
<wire x1="7.62" y1="0" x2="10.16" y2="0" width="0.254" layer="94"/>
<wire x1="10.16" y1="0" x2="10.16" y2="15.24" width="0.254" layer="94"/>
<wire x1="15.24" y1="15.24" x2="15.24" y2="12.7" width="0.254" layer="94"/>
<wire x1="15.24" y1="12.7" x2="15.24" y2="10.16" width="0.254" layer="94"/>
<wire x1="15.24" y1="10.16" x2="15.24" y2="7.62" width="0.254" layer="94"/>
<wire x1="15.24" y1="7.62" x2="15.24" y2="5.08" width="0.254" layer="94"/>
<wire x1="15.24" y1="5.08" x2="15.24" y2="2.54" width="0.254" layer="94"/>
<wire x1="15.24" y1="2.54" x2="15.24" y2="0" width="0.254" layer="94"/>
<wire x1="15.24" y1="0" x2="17.78" y2="0" width="0.254" layer="94"/>
<wire x1="17.78" y1="0" x2="17.78" y2="15.24" width="0.254" layer="94"/>
<wire x1="-15.24" y1="12.7" x2="-15.24" y2="10.16" width="0.254" layer="94"/>
<wire x1="-15.24" y1="10.16" x2="-15.24" y2="7.62" width="0.254" layer="94"/>
<wire x1="-15.24" y1="7.62" x2="-15.24" y2="5.08" width="0.254" layer="94"/>
<wire x1="-15.24" y1="5.08" x2="-15.24" y2="2.54" width="0.254" layer="94"/>
<wire x1="-15.24" y1="2.54" x2="-15.24" y2="0" width="0.254" layer="94"/>
<wire x1="-12.7" y1="15.24" x2="-15.24" y2="15.24" width="0.254" layer="94"/>
<wire x1="-7.62" y1="15.24" x2="-5.08" y2="15.24" width="0.254" layer="94"/>
<wire x1="0" y1="15.24" x2="2.54" y2="15.24" width="0.254" layer="94"/>
<wire x1="7.62" y1="15.24" x2="10.16" y2="15.24" width="0.254" layer="94"/>
<wire x1="15.24" y1="15.24" x2="17.78" y2="15.24" width="0.254" layer="94"/>
<pin name="P$1" x="-15.24" y="2.54" visible="off" length="point" direction="pas"/>
<pin name="P$2" x="-15.24" y="5.08" visible="off" length="point" direction="pas"/>
<pin name="P$3" x="-15.24" y="7.62" visible="off" length="point" direction="pas"/>
<pin name="P$4" x="-15.24" y="10.16" visible="off" length="point" direction="pas"/>
<pin name="P$5" x="-15.24" y="12.7" visible="off" length="point" direction="pas"/>
<pin name="P$6" x="-7.62" y="12.7" visible="off" length="point" direction="pas"/>
<pin name="P$7" x="-7.62" y="10.16" visible="off" length="point" direction="pas"/>
<pin name="P$8" x="-7.62" y="7.62" visible="off" length="point" direction="pas"/>
<pin name="P$9" x="-7.62" y="5.08" visible="off" length="point" direction="pas"/>
<pin name="P$10" x="-7.62" y="2.54" visible="off" length="point" direction="pas"/>
<pin name="P$11" x="0" y="12.7" visible="off" length="point" direction="pas"/>
<pin name="P$12" x="0" y="10.16" visible="off" length="point" direction="pas"/>
<pin name="P$13" x="0" y="7.62" visible="off" length="point" direction="pas"/>
<pin name="P$14" x="0" y="5.08" visible="off" length="point" direction="pas"/>
<pin name="P$15" x="0" y="2.54" visible="off" length="point" direction="pas"/>
<pin name="P$16" x="7.62" y="12.7" visible="off" length="point" direction="pas"/>
<pin name="P$17" x="7.62" y="10.16" visible="off" length="point" direction="pas"/>
<pin name="P$18" x="7.62" y="7.62" visible="off" length="point" direction="pas"/>
<pin name="P$19" x="7.62" y="5.08" visible="off" length="point" direction="pas"/>
<pin name="P$20" x="7.62" y="2.54" visible="off" length="point" direction="pas"/>
<pin name="P$21" x="15.24" y="12.7" visible="off" length="point" direction="pas"/>
<pin name="P$22" x="15.24" y="10.16" visible="off" length="point" direction="pas"/>
<pin name="P$23" x="15.24" y="7.62" visible="off" length="point" direction="pas"/>
<pin name="P$24" x="15.24" y="5.08" visible="off" length="point" direction="pas"/>
<pin name="P$25" x="15.24" y="2.54" visible="off" length="point" direction="pas"/>
<wire x1="-13.97" y1="12.7" x2="-15.24" y2="12.7" width="0.254" layer="94"/>
<wire x1="-13.97" y1="10.16" x2="-15.24" y2="10.16" width="0.254" layer="94"/>
<wire x1="-13.97" y1="7.62" x2="-15.24" y2="7.62" width="0.254" layer="94"/>
<wire x1="-6.35" y1="12.7" x2="-7.62" y2="12.7" width="0.254" layer="94"/>
<wire x1="-6.35" y1="10.16" x2="-7.62" y2="10.16" width="0.254" layer="94"/>
<wire x1="-6.35" y1="7.62" x2="-7.62" y2="7.62" width="0.254" layer="94"/>
<wire x1="1.27" y1="12.7" x2="0" y2="12.7" width="0.254" layer="94"/>
<wire x1="1.27" y1="10.16" x2="0" y2="10.16" width="0.254" layer="94"/>
<wire x1="1.27" y1="7.62" x2="0" y2="7.62" width="0.254" layer="94"/>
<wire x1="-13.97" y1="5.08" x2="-15.24" y2="5.08" width="0.254" layer="94"/>
<wire x1="-13.97" y1="2.54" x2="-15.24" y2="2.54" width="0.254" layer="94"/>
<wire x1="-6.35" y1="5.08" x2="-7.62" y2="5.08" width="0.254" layer="94"/>
<wire x1="-6.35" y1="2.54" x2="-7.62" y2="2.54" width="0.254" layer="94"/>
<wire x1="1.27" y1="5.08" x2="0" y2="5.08" width="0.254" layer="94"/>
<wire x1="1.27" y1="2.54" x2="0" y2="2.54" width="0.254" layer="94"/>
<wire x1="8.89" y1="2.54" x2="7.62" y2="2.54" width="0.254" layer="94"/>
<wire x1="8.89" y1="5.08" x2="7.62" y2="5.08" width="0.254" layer="94"/>
<wire x1="8.89" y1="7.62" x2="7.62" y2="7.62" width="0.254" layer="94"/>
<wire x1="16.51" y1="2.54" x2="15.24" y2="2.54" width="0.254" layer="94"/>
<wire x1="16.51" y1="5.08" x2="15.24" y2="5.08" width="0.254" layer="94"/>
<wire x1="16.51" y1="7.62" x2="15.24" y2="7.62" width="0.254" layer="94"/>
<wire x1="16.51" y1="10.16" x2="15.24" y2="10.16" width="0.254" layer="94"/>
<wire x1="8.89" y1="10.16" x2="7.62" y2="10.16" width="0.254" layer="94"/>
<wire x1="8.89" y1="12.7" x2="7.62" y2="12.7" width="0.254" layer="94"/>
<wire x1="16.51" y1="12.7" x2="15.24" y2="12.7" width="0.254" layer="94"/>
<wire x1="-15.24" y1="15.24" x2="-15.24" y2="12.7" width="0.254" layer="94"/>
<polygon width="0.254" layer="94">
<vertex x="-15.24" y="2.54"/>
<vertex x="-12.7" y="0"/>
<vertex x="-15.24" y="0"/>
</polygon>
<text x="-13.208" y="5.588" size="0.8128" layer="94" rot="R90">ProtoArea</text>
<text x="-5.588" y="5.588" size="0.8128" layer="94" rot="R90">ProtoArea</text>
<text x="2.032" y="5.588" size="0.8128" layer="94" rot="R90">ProtoArea</text>
<text x="9.652" y="5.588" size="0.8128" layer="94" rot="R90">ProtoArea</text>
<text x="17.272" y="5.588" size="0.8128" layer="94" rot="R90">ProtoArea</text>
</symbol>
<symbol name="1V2+2">
<description>&lt;b&gt;CR2032 Battery Holder&lt;br&gt;</description>
<wire x1="-1.905" y1="0.635" x2="-1.905" y2="0" width="0.4064" layer="94"/>
<wire x1="-2.54" y1="0" x2="-1.905" y2="0" width="0.1524" layer="94"/>
<wire x1="-1.905" y1="0" x2="-1.905" y2="-0.635" width="0.4064" layer="94"/>
<wire x1="-0.635" y1="2.54" x2="-0.635" y2="0" width="0.4064" layer="94"/>
<wire x1="-0.635" y1="0" x2="2.54" y2="0" width="0.1524" layer="94"/>
<wire x1="-0.635" y1="0" x2="-0.635" y2="-2.54" width="0.4064" layer="94"/>
<text x="-2.54" y="3.175" size="1.778" layer="95">&gt;NAME</text>
<text x="-2.54" y="-5.08" size="1.778" layer="96">&gt;VALUE</text>
<pin name="+" x="5.08" y="0" visible="pad" length="short" direction="pas" rot="R180"/>
<pin name="-" x="-5.08" y="0" visible="pad" length="short" direction="pas"/>
<pin name="+@1" x="2.54" y="0" visible="off" length="point" direction="pas" rot="R180"/>
</symbol>
<symbol name="P_MOSFET">
<wire x1="-1.651" y1="0" x2="0" y2="0" width="0.1524" layer="94"/>
<wire x1="-1.524" y1="-2.159" x2="0" y2="-2.159" width="0.1524" layer="94"/>
<wire x1="-2.54" y1="-2.54" x2="-2.54" y2="2.54" width="0.1524" layer="94"/>
<wire x1="0" y1="0" x2="0" y2="-2.159" width="0.1524" layer="94"/>
<wire x1="1.397" y1="-0.508" x2="1.397" y2="-3.048" width="0.1524" layer="94"/>
<wire x1="1.397" y1="-3.048" x2="0" y2="-3.048" width="0.1524" layer="94"/>
<wire x1="-1.524" y1="2.159" x2="0" y2="2.159" width="0.1524" layer="94"/>
<wire x1="0" y1="2.159" x2="0" y2="2.54" width="0.1524" layer="94"/>
<wire x1="0" y1="3.048" x2="1.397" y2="3.048" width="0.1524" layer="94"/>
<wire x1="1.397" y1="3.048" x2="1.397" y2="0.381" width="0.1524" layer="94"/>
<wire x1="0" y1="-2.159" x2="0" y2="-2.54" width="0.1524" layer="94"/>
<text x="2.54" y="0" size="1.778" layer="96">&gt;VALUE</text>
<text x="2.54" y="2.54" size="1.778" layer="95">&gt;NAME</text>
<rectangle x1="-2.032" y1="1.397" x2="-1.524" y2="2.921" layer="94"/>
<rectangle x1="-2.032" y1="-0.762" x2="-1.524" y2="0.762" layer="94"/>
<rectangle x1="-2.032" y1="-2.921" x2="-1.524" y2="-1.397" layer="94"/>
<rectangle x1="0.762" y1="-0.635" x2="2.032" y2="-0.508" layer="94"/>
<pin name="D" x="0" y="5.08" visible="off" length="short" direction="pas" rot="R270"/>
<pin name="S" x="0" y="-5.08" visible="off" length="short" direction="pas" rot="R90"/>
<pin name="G" x="-5.08" y="-2.54" visible="off" length="short" direction="pas"/>
<polygon width="0.1016" layer="94">
<vertex x="-0.127" y="0"/>
<vertex x="-1.143" y="-0.635"/>
<vertex x="-1.143" y="0.635"/>
</polygon>
<polygon width="0.1016" layer="94">
<vertex x="1.397" y="-0.508"/>
<vertex x="0.762" y="0.508"/>
<vertex x="2.032" y="0.508"/>
</polygon>
</symbol>
<symbol name="FIDUCIAL-1.5X4.5">
<description>&lt;b&gt;Fiducial&lt;/b&gt;
&lt;br&gt;1.5 mm pad with 4.5 mm stop.</description>
<circle x="0" y="0" radius="0.762" width="0" layer="94"/>
<circle x="0" y="0" radius="2.032" width="0.254" layer="97"/>
<wire x1="0" y1="-2.032" x2="0" y2="2.032" width="0.254" layer="97"/>
<wire x1="2.032" y1="0" x2="-2.032" y2="0" width="0.254" layer="97"/>
</symbol>
<symbol name="SWITCH-TILT">
<circle x="-5.08" y="0" radius="2.54" width="0.254" layer="94"/>
<circle x="5.08" y="0" radius="2.54" width="0.254" layer="94"/>
<wire x1="-5.08" y1="2.54" x2="5.08" y2="2.54" width="0.254" layer="94"/>
<pin name="P$1" x="-12.7" y="0" visible="pad" length="middle" direction="pas"/>
<pin name="P$2" x="12.7" y="0" visible="pad" length="middle" direction="pas" rot="R180"/>
<text x="-5.08" y="5.08" size="1.27" layer="95" font="vector">&gt;NAME</text>
<text x="-5.08" y="-5.08" size="1.27" layer="96" font="vector">&gt;VALUE</text>
</symbol>
<symbol name="LOGO_G">
<text x="0" y="0" size="1.27" layer="94" font="vector">G</text>
<wire x1="2.54" y1="0" x2="0" y2="2.54" width="0.254" layer="94" curve="90"/>
<wire x1="3.81" y1="0" x2="0" y2="4.064" width="0.254" layer="94" curve="86.423666"/>
</symbol>
</symbols>
<devicesets>
<deviceset name="HEATSINK-TO220-JAPAN" prefix="HS">
<description>To-220 Heatsink,  screw mount, with pads, extruded aluminum, typical Japan mfgr</description>
<gates>
<gate name="G$1" symbol="HEATSINK-TO220-JAPAN" x="2.54" y="2.54"/>
</gates>
<devices>
<device name="" package="HEATSINK-TO220-JAPAN">
<connects>
<connect gate="G$1" pin="P$1" pad="P$1"/>
<connect gate="G$1" pin="P$2" pad="P$2"/>
<connect gate="G$1" pin="P$3" pad="P$3"/>
</connects>
<technologies>
<technology name=""/>
</technologies>
</device>
</devices>
</deviceset>
<deviceset name="HEATSINK-TO220-JAPAN-NOPADS" prefix="HS">
<description>To-220 Heatsink,  screw mount, no  pads, extruded aluminum, typical Japan mfgr</description>
<gates>
<gate name="G$1" symbol="HEATSINK-TO220-JAPAN-NOPADS" x="0" y="0"/>
</gates>
<devices>
<device name="" package="HEATSINK-TO220-JAPAN-NOPADS">
<technologies>
<technology name=""/>
</technologies>
</device>
</devices>
</deviceset>
<deviceset name="HEATSINK-TO220-11-THK" prefix="HS">
<description>Heatsink for 11 pin TO-220 packages.  Pads are 1.0 inch apart.</description>
<gates>
<gate name="G$1" symbol="HEATSINK-TO220-11-THM" x="0" y="0"/>
</gates>
<devices>
<device name="" package="HEATSINK-TO220-11-THK-0.5IN">
<connects>
<connect gate="G$1" pin="K@1" pad="P$1"/>
<connect gate="G$1" pin="K@2" pad="P$2"/>
</connects>
<technologies>
<technology name=""/>
</technologies>
</device>
</devices>
</deviceset>
<deviceset name="QSE156-IR-DETECTOR" prefix="U">
<description>Fairchild optologic IR detector, totem-pole output</description>
<gates>
<gate name="G$1" symbol="OPTOLOGIC-DETECTOR" x="-5.08" y="0"/>
</gates>
<devices>
<device name="" package="OPTOLOGIC-SIDELOOKER">
<connects>
<connect gate="G$1" pin="GND" pad="GND"/>
<connect gate="G$1" pin="VCC" pad="VCC"/>
<connect gate="G$1" pin="VOUT" pad="VOUT"/>
</connects>
<technologies>
<technology name=""/>
</technologies>
</device>
</devices>
</deviceset>
<deviceset name="QSE157-IR-DETECTOR-INVERTING" prefix="U">
<description>Fairchild optologic IR detector, inverting  output.</description>
<gates>
<gate name="G$1" symbol="OPTOLOGIC-DETECTOR-INV" x="-2.54" y="0"/>
</gates>
<devices>
<device name="" package="OPTOLOGIC-SIDELOOKER">
<connects>
<connect gate="G$1" pin="GND" pad="GND"/>
<connect gate="G$1" pin="VCC" pad="VCC"/>
<connect gate="G$1" pin="VOUT" pad="VOUT"/>
</connects>
<technologies>
<technology name=""/>
</technologies>
</device>
</devices>
</deviceset>
<deviceset name="QSE158-IR-DETECTOR-OPEN-COLLECTOR" prefix="U">
<description>Fairchild optologic IR detector, non-inverting with open collector output.</description>
<gates>
<gate name="G$1" symbol="OPTOLOGIC-DETECTOR-OC" x="-5.08" y="0"/>
</gates>
<devices>
<device name="" package="OPTOLOGIC-SIDELOOKER">
<connects>
<connect gate="G$1" pin="GND" pad="GND"/>
<connect gate="G$1" pin="VCC" pad="VCC"/>
<connect gate="G$1" pin="VOUT" pad="VOUT"/>
</connects>
<technologies>
<technology name=""/>
</technologies>
</device>
</devices>
</deviceset>
<deviceset name="QSE159-IR-DETECTOR-INVERTING-OC" prefix="U">
<description>Fairchild optologic IR detector, inverting with open collector output.</description>
<gates>
<gate name="G$1" symbol="OPTOLOGIC-DETECTOR-OC-INV" x="-2.54" y="0"/>
</gates>
<devices>
<device name="" package="OPTOLOGIC-SIDELOOKER">
<connects>
<connect gate="G$1" pin="GND" pad="GND"/>
<connect gate="G$1" pin="VCC" pad="VCC"/>
<connect gate="G$1" pin="VOUT" pad="VOUT"/>
</connects>
<technologies>
<technology name=""/>
</technologies>
</device>
</devices>
</deviceset>
<deviceset name="QEE1XX-IR-EMITTER" prefix="IR">
<gates>
<gate name="G$1" symbol="QEE1XX-IR-EMITTER" x="0" y="0"/>
</gates>
<devices>
<device name="" package="TO92-IR-SIDELOOKER">
<connects>
<connect gate="G$1" pin="A" pad="A"/>
<connect gate="G$1" pin="C" pad="C"/>
</connects>
<technologies>
<technology name=""/>
</technologies>
</device>
</devices>
</deviceset>
<deviceset name="HO-TRACK-.75IN" prefix="T">
<description>HO track section. 0.75 in long.  Pins connect to pads located at spike locations for soldering rail to board.</description>
<gates>
<gate name="G$1" symbol="HO-TRACK-.75IN" x="-17.78" y="5.08"/>
</gates>
<devices>
<device name="" package="HO-TRACK-.75IN">
<connects>
<connect gate="G$1" pin="P$1" pad="RA1"/>
<connect gate="G$1" pin="P$10" pad="RB4"/>
<connect gate="G$1" pin="P$11" pad="RB5"/>
<connect gate="G$1" pin="P$12" pad="RB6"/>
<connect gate="G$1" pin="P$2" pad="RA2"/>
<connect gate="G$1" pin="P$3" pad="RA3"/>
<connect gate="G$1" pin="P$4" pad="RA4"/>
<connect gate="G$1" pin="P$5" pad="RA5"/>
<connect gate="G$1" pin="P$6" pad="RA6"/>
<connect gate="G$1" pin="P$7" pad="RB1"/>
<connect gate="G$1" pin="P$8" pad="RB2"/>
<connect gate="G$1" pin="P$9" pad="RB3"/>
</connects>
<technologies>
<technology name=""/>
</technologies>
</device>
</devices>
</deviceset>
<deviceset name="PROTO-PIN">
<gates>
<gate name="G$1" symbol="PROTO-PIN" x="0" y="0"/>
</gates>
<devices>
<device name="" package="DIL-01-MG">
<connects>
<connect gate="G$1" pin="P$1" pad="P1"/>
</connects>
<technologies>
<technology name=""/>
</technologies>
</device>
</devices>
</deviceset>
<deviceset name="ANTENNA-915MHZ">
<description>&lt;B&gt;915 MHz Antenna&lt;/b&gt;
&lt;br&gt;approximates a 1/4 wave @ 915 MHz.  Based on IT app. note.</description>
<gates>
<gate name="G$1" symbol="ANTENNA-915MHZ" x="0" y="0"/>
</gates>
<devices>
<device name="" package="ANTENNA-915MHZ">
<connects>
<connect gate="G$1" pin="A915" pad="P$1 P$2 P$3 P$4 P$5 P$6 P$7 P$8 P$9 P$10 P$11 P$12 P$13 P$14 P$15 P$16 P$17 P$18 P$19 P$20 P$21 P$22 P$23 P$24 P$25 P$26 P$27 P$28 P$29 P$30 P$31"/>
</connects>
<technologies>
<technology name=""/>
</technologies>
</device>
</devices>
</deviceset>
<deviceset name="BOARD-OUTLINE-SERPAC">
<description>&lt;b&gt;SERPAC H65 Board Outline TOP&lt;/b&gt;
&lt;br&gt;This is the board outline for a board that fits in the &lt;b&gt;TOP&lt;/b&gt; half of the SERPAC H65 case (without the AA battery option).</description>
<gates>
<gate name="G$1" symbol="BOARD-OUTLINE-SERPAC-H65-TOP" x="0" y="0"/>
</gates>
<devices>
<device name="" package="BOARD-OUTLINE-SERPAC-H65-TOP">
<technologies>
<technology name=""/>
</technologies>
</device>
</devices>
</deviceset>
<deviceset name="SIL-5X2-MG-PROTO">
<description>&lt;b&gt;SIL-5x2-MG&lt;/b&gt;
&lt;br&gt;A 5 x 2 array of prototyping holes on 0.1 inch centers.</description>
<gates>
<gate name="G$1" symbol="SIL-5X2-MG-PROTO" x="0" y="2.54"/>
</gates>
<devices>
<device name="" package="SIL-5X2-MG-PROTO">
<connects>
<connect gate="G$1" pin="1" pad="P$10"/>
<connect gate="G$1" pin="10" pad="P$1"/>
<connect gate="G$1" pin="2" pad="P$9"/>
<connect gate="G$1" pin="3" pad="P$8"/>
<connect gate="G$1" pin="4" pad="P$7"/>
<connect gate="G$1" pin="5" pad="P$6"/>
<connect gate="G$1" pin="6" pad="P$5"/>
<connect gate="G$1" pin="7" pad="P$4"/>
<connect gate="G$1" pin="8" pad="P$3"/>
<connect gate="G$1" pin="9" pad="P$2"/>
</connects>
<technologies>
<technology name=""/>
</technologies>
</device>
</devices>
</deviceset>
<deviceset name="5X5-MG-PROTO">
<description>&lt;b&gt;5 x 5 Prototype Grid&lt;/b&gt;&lt;br&gt;
A grid of vias to form a 5 x 5 array of through holes on 0.1 inch centers.&lt;br&gt;
Each via has a pin such that power and ground busses can be made.&lt;br&gt;
Pins are "point" contact in the symbol on the left side of each box. There are 5 pins per box.&lt;br&gt;
See the package part description for hole diameter.
&lt;br&gt;-MG</description>
<gates>
<gate name="G$1" symbol="5X5-MG-PROTO" x="0" y="0"/>
</gates>
<devices>
<device name="" package="5X5-MG-PROTO">
<connects>
<connect gate="G$1" pin="P$1" pad="P$1"/>
<connect gate="G$1" pin="P$10" pad="P$10"/>
<connect gate="G$1" pin="P$11" pad="P$11"/>
<connect gate="G$1" pin="P$12" pad="P$12"/>
<connect gate="G$1" pin="P$13" pad="P$13"/>
<connect gate="G$1" pin="P$14" pad="P$14"/>
<connect gate="G$1" pin="P$15" pad="P$15"/>
<connect gate="G$1" pin="P$16" pad="P$16"/>
<connect gate="G$1" pin="P$17" pad="P$17"/>
<connect gate="G$1" pin="P$18" pad="P$18"/>
<connect gate="G$1" pin="P$19" pad="P$19"/>
<connect gate="G$1" pin="P$2" pad="P$2"/>
<connect gate="G$1" pin="P$20" pad="P$20"/>
<connect gate="G$1" pin="P$21" pad="P$21"/>
<connect gate="G$1" pin="P$22" pad="P$22"/>
<connect gate="G$1" pin="P$23" pad="P$23"/>
<connect gate="G$1" pin="P$24" pad="P$24"/>
<connect gate="G$1" pin="P$25" pad="P$25"/>
<connect gate="G$1" pin="P$3" pad="P$3"/>
<connect gate="G$1" pin="P$4" pad="P$4"/>
<connect gate="G$1" pin="P$5" pad="P$5"/>
<connect gate="G$1" pin="P$6" pad="P$6"/>
<connect gate="G$1" pin="P$7" pad="P$7"/>
<connect gate="G$1" pin="P$8" pad="P$8"/>
<connect gate="G$1" pin="P$9" pad="P$9"/>
</connects>
<technologies>
<technology name=""/>
</technologies>
</device>
</devices>
</deviceset>
<deviceset name="CR2032_HOLDER" prefix="G">
<description>&lt;b&gt;LI BATTERY HOLDER&lt;/b&gt;&lt;br&gt; Renata HU-2023-LF</description>
<gates>
<gate name="&gt;NAME" symbol="1V2+2" x="0" y="0"/>
</gates>
<devices>
<device name="" package="CR2032_HOLDER">
<connects>
<connect gate="&gt;NAME" pin="+" pad="+"/>
<connect gate="&gt;NAME" pin="+@1" pad="+@1"/>
<connect gate="&gt;NAME" pin="-" pad="-"/>
</connects>
<technologies>
<technology name="">
<attribute name="MOUSER" value="614-HU2032-LF" constant="no"/>
<attribute name="RENATA" value="HU2032-LF" constant="no"/>
</technology>
</technologies>
</device>
</devices>
</deviceset>
<deviceset name="P-MOSFET-SOT23" prefix="T" uservalue="yes">
<description>&lt;b&gt;MOS FET&lt;/b&gt;</description>
<gates>
<gate name="A" symbol="P_MOSFET" x="0" y="0" swaplevel="1"/>
</gates>
<devices>
<device name="" package="SOT-23">
<connects>
<connect gate="A" pin="D" pad="1"/>
<connect gate="A" pin="G" pad="3"/>
<connect gate="A" pin="S" pad="2"/>
</connects>
<technologies>
<technology name="">
<attribute name="MF" value="" constant="no"/>
<attribute name="MPN" value="" constant="no"/>
<attribute name="OC_FARNELL" value="unknown" constant="no"/>
<attribute name="OC_NEWARK" value="unknown" constant="no"/>
</technology>
</technologies>
</device>
</devices>
</deviceset>
<deviceset name="FIDUCIAL-1.5X4.5">
<description>&lt;b&gt;fiducial&lt;/b&gt;&lt;br&gt;1.5mm dia copper with 4.5 mm stop.</description>
<gates>
<gate name="G$1" symbol="FIDUCIAL-1.5X4.5" x="0" y="0"/>
</gates>
<devices>
<device name="" package="FIDUCIAL-1.5X4.5">
<technologies>
<technology name=""/>
</technologies>
</device>
</devices>
</deviceset>
<deviceset name="SWITCH-TILT">
<description>&lt;b&gt;Tilt Switch&lt;/b&gt;
&lt;br&gt;Mechanical Tilt Switch</description>
<gates>
<gate name="G$1" symbol="SWITCH-TILT" x="0" y="0"/>
</gates>
<devices>
<device name="" package="SWITCH-TILT-RB231X2">
<connects>
<connect gate="G$1" pin="P$1" pad="PIN"/>
<connect gate="G$1" pin="P$2" pad="TAB"/>
</connects>
<technologies>
<technology name="">
<attribute name="CK" value="RB-231x2" constant="no"/>
</technology>
</technologies>
</device>
</devices>
</deviceset>
<deviceset name="LOGO_G">
<gates>
<gate name="G$1" symbol="LOGO_G" x="0" y="0"/>
</gates>
<devices>
<device name="" package="LOGO_G">
<technologies>
<technology name=""/>
</technologies>
</device>
</devices>
</deviceset>
</devicesets>
</library>
</drawing>
<compatibility>
<note version="6.3" minversion="6.2.2" severity="warning">
Since Version 6.2.2 text objects can contain more than one line,
which will not be processed correctly with this version.
</note>
</compatibility>
</eagle>
